{
  "matches": [
    {
      "platformId": "EUN1",
      "gameId": 1986111877,
      "champion": 9,
      "queue": 420,
      "season": 11,
      "timestamp": 1529411111367,
      "role": "NONE",
      "lane": "JUNGLE"
    },
    {
      "platformId": "EUN1",
      "gameId": 1985856513,
      "champion": 120,
      "queue": 420,
      "season": 11,
      "timestamp": 1529365752295,
      "role": "NONE",
      "lane": "JUNGLE"
    },
    {
      "platformId": "EUN1",
      "gameId": 1985863201,
      "champion": 9,
      "queue": 420,
      "season": 11,
      "timestamp": 1529362718267,
      "role": "NONE",
      "lane": "JUNGLE"
    },
    {
      "platformId": "EUN1",
      "gameId": 1985546801,
      "champion": 9,
      "queue": 420,
      "season": 11,
      "timestamp": 1529328222271,
      "role": "NONE",
      "lane": "JUNGLE"
    },
    {
      "platformId": "EUN1",
      "gameId": 1985534760,
      "champion": 56,
      "queue": 420,
      "season": 11,
      "timestamp": 1529323776486,
      "role": "NONE",
      "lane": "JUNGLE"
    },
    {
      "platformId": "EUN1",
      "gameId": 1985495637,
      "champion": 56,
      "queue": 420,
      "season": 11,
      "timestamp": 1529319835679,
      "role": "NONE",
      "lane": "JUNGLE"
    },
    {
      "platformId": "EUN1",
      "gameId": 1982941330,
      "champion": 56,
      "queue": 420,
      "season": 11,
      "timestamp": 1528933129035,
      "role": "DUO",
      "lane": "MID"
    },
    {
      "platformId": "EUN1",
      "gameId": 1982939160,
      "champion": 80,
      "queue": 420,
      "season": 11,
      "timestamp": 1528931042349,
      "role": "DUO_SUPPORT",
      "lane": "NONE"
    },
    {
      "platformId": "EUN1",
      "gameId": 1982923840,
      "champion": 56,
      "queue": 420,
      "season": 11,
      "timestamp": 1528927418107,
      "role": "NONE",
      "lane": "JUNGLE"
    },
    {
      "platformId": "EUN1",
      "gameId": 1982641631,
      "champion": 56,
      "queue": 420,
      "season": 11,
      "timestamp": 1528894248045,
      "role": "NONE",
      "lane": "JUNGLE"
    },
    {
      "platformId": "EUN1",
      "gameId": 1982614739,
      "champion": 56,
      "queue": 420,
      "season": 11,
      "timestamp": 1528890965095,
      "role": "NONE",
      "lane": "JUNGLE"
    },
    {
      "platformId": "EUN1",
      "gameId": 1982313737,
      "champion": 9,
      "queue": 420,
      "season": 11,
      "timestamp": 1528845637273,
      "role": "DUO_SUPPORT",
      "lane": "BOTTOM"
    },
    {
      "platformId": "EUN1",
      "gameId": 1982321043,
      "champion": 9,
      "queue": 420,
      "season": 11,
      "timestamp": 1528843299733,
      "role": "DUO_SUPPORT",
      "lane": "NONE"
    },
    {
      "platformId": "EUN1",
      "gameId": 1982286798,
      "champion": 9,
      "queue": 420,
      "season": 11,
      "timestamp": 1528840540906,
      "role": "NONE",
      "lane": "JUNGLE"
    },
    {
      "platformId": "EUN1",
      "gameId": 1977200903,
      "champion": 56,
      "queue": 420,
      "season": 11,
      "timestamp": 1528069598905,
      "role": "NONE",
      "lane": "JUNGLE"
    },
    {
      "platformId": "EUN1",
      "gameId": 1977177565,
      "champion": 9,
      "queue": 420,
      "season": 11,
      "timestamp": 1528065672131,
      "role": "NONE",
      "lane": "JUNGLE"
    },
    {
      "platformId": "EUN1",
      "gameId": 1977153810,
      "champion": 9,
      "queue": 420,
      "season": 11,
      "timestamp": 1528063248136,
      "role": "NONE",
      "lane": "JUNGLE"
    },
    {
      "platformId": "EUN1",
      "gameId": 1975732001,
      "champion": 56,
      "queue": 420,
      "season": 11,
      "timestamp": 1527900036054,
      "role": "NONE",
      "lane": "JUNGLE"
    },
    {
      "platformId": "EUN1",
      "gameId": 1975711091,
      "champion": 56,
      "queue": 420,
      "season": 11,
      "timestamp": 1527898255161,
      "role": "DUO_SUPPORT",
      "lane": "NONE"
    },
    {
      "platformId": "EUN1",
      "gameId": 1975708036,
      "champion": 9,
      "queue": 420,
      "season": 11,
      "timestamp": 1527895907639,
      "role": "NONE",
      "lane": "JUNGLE"
    },
    {
      "platformId": "EUN1",
      "gameId": 1975700976,
      "champion": 56,
      "queue": 420,
      "season": 11,
      "timestamp": 1527892501664,
      "role": "NONE",
      "lane": "JUNGLE"
    },
    {
      "platformId": "EUN1",
      "gameId": 1974980386,
      "champion": 5,
      "queue": 420,
      "season": 11,
      "timestamp": 1527818702584,
      "role": "SOLO",
      "lane": "MID"
    },
    {
      "platformId": "EUN1",
      "gameId": 1974978905,
      "champion": 9,
      "queue": 420,
      "season": 11,
      "timestamp": 1527816186928,
      "role": "NONE",
      "lane": "JUNGLE"
    },
    {
      "platformId": "EUN1",
      "gameId": 1974967472,
      "champion": 120,
      "queue": 420,
      "season": 11,
      "timestamp": 1527813783503,
      "role": "NONE",
      "lane": "JUNGLE"
    },
    {
      "platformId": "EUN1",
      "gameId": 1974953629,
      "champion": 9,
      "queue": 420,
      "season": 11,
      "timestamp": 1527810493046,
      "role": "DUO",
      "lane": "TOP"
    },
    {
      "platformId": "EUN1",
      "gameId": 1974950158,
      "champion": 56,
      "queue": 420,
      "season": 11,
      "timestamp": 1527808170228,
      "role": "NONE",
      "lane": "JUNGLE"
    },
    {
      "platformId": "EUN1",
      "gameId": 1974904256,
      "champion": 56,
      "queue": 420,
      "season": 11,
      "timestamp": 1527805147171,
      "role": "NONE",
      "lane": "JUNGLE"
    },
    {
      "platformId": "EUN1",
      "gameId": 1974395113,
      "champion": 120,
      "queue": 420,
      "season": 11,
      "timestamp": 1527773500356,
      "role": "NONE",
      "lane": "JUNGLE"
    },
    {
      "platformId": "EUN1",
      "gameId": 1974398193,
      "champion": 56,
      "queue": 420,
      "season": 11,
      "timestamp": 1527770844696,
      "role": "DUO_SUPPORT",
      "lane": "NONE"
    },
    {
      "platformId": "EUN1",
      "gameId": 1974010180,
      "champion": 9,
      "queue": 420,
      "season": 11,
      "timestamp": 1527713364347,
      "role": "NONE",
      "lane": "JUNGLE"
    },
    {
      "platformId": "EUN1",
      "gameId": 1973991792,
      "champion": 9,
      "queue": 420,
      "season": 11,
      "timestamp": 1527710701931,
      "role": "NONE",
      "lane": "JUNGLE"
    },
    {
      "platformId": "EUN1",
      "gameId": 1973953038,
      "champion": 56,
      "queue": 420,
      "season": 11,
      "timestamp": 1527707784755,
      "role": "NONE",
      "lane": "JUNGLE"
    },
    {
      "platformId": "EUN1",
      "gameId": 1973930660,
      "champion": 9,
      "queue": 420,
      "season": 11,
      "timestamp": 1527703987720,
      "role": "NONE",
      "lane": "JUNGLE"
    },
    {
      "platformId": "EUN1",
      "gameId": 1973903259,
      "champion": 9,
      "queue": 420,
      "season": 11,
      "timestamp": 1527701469479,
      "role": "DUO_SUPPORT",
      "lane": "BOTTOM"
    },
    {
      "platformId": "EUN1",
      "gameId": 1973518331,
      "champion": 9,
      "queue": 420,
      "season": 11,
      "timestamp": 1527642280090,
      "role": "DUO_SUPPORT",
      "lane": "BOTTOM"
    },
    {
      "platformId": "EUN1",
      "gameId": 1973506568,
      "champion": 9,
      "queue": 420,
      "season": 11,
      "timestamp": 1527638914855,
      "role": "DUO_SUPPORT",
      "lane": "MID"
    },
    {
      "platformId": "EUN1",
      "gameId": 1973505066,
      "champion": 9,
      "queue": 420,
      "season": 11,
      "timestamp": 1527636707099,
      "role": "NONE",
      "lane": "JUNGLE"
    },
    {
      "platformId": "EUN1",
      "gameId": 1972448864,
      "champion": 56,
      "queue": 420,
      "season": 11,
      "timestamp": 1527450693365,
      "role": "NONE",
      "lane": "JUNGLE"
    },
    {
      "platformId": "EUN1",
      "gameId": 1972400865,
      "champion": 9,
      "queue": 420,
      "season": 11,
      "timestamp": 1527447407423,
      "role": "NONE",
      "lane": "JUNGLE"
    },
    {
      "platformId": "EUN1",
      "gameId": 1972360796,
      "champion": 120,
      "queue": 420,
      "season": 11,
      "timestamp": 1527445567986,
      "role": "DUO_SUPPORT",
      "lane": "NONE"
    },
    {
      "platformId": "EUN1",
      "gameId": 1970958795,
      "champion": 9,
      "queue": 420,
      "season": 11,
      "timestamp": 1527294373505,
      "role": "NONE",
      "lane": "JUNGLE"
    },
    {
      "platformId": "EUN1",
      "gameId": 1970937350,
      "champion": 120,
      "queue": 420,
      "season": 11,
      "timestamp": 1527291732285,
      "role": "DUO_SUPPORT",
      "lane": "MID"
    },
    {
      "platformId": "EUN1",
      "gameId": 1970934438,
      "champion": 56,
      "queue": 420,
      "season": 11,
      "timestamp": 1527289756492,
      "role": "DUO_SUPPORT",
      "lane": "NONE"
    },
    {
      "platformId": "EUN1",
      "gameId": 1970910546,
      "champion": 9,
      "queue": 420,
      "season": 11,
      "timestamp": 1527286707171,
      "role": "NONE",
      "lane": "JUNGLE"
    },
    {
      "platformId": "EUN1",
      "gameId": 1968816549,
      "champion": 9,
      "queue": 420,
      "season": 11,
      "timestamp": 1526992254379,
      "role": "NONE",
      "lane": "JUNGLE"
    },
    {
      "platformId": "EUN1",
      "gameId": 1968812078,
      "champion": 120,
      "queue": 420,
      "season": 11,
      "timestamp": 1526989725575,
      "role": "NONE",
      "lane": "JUNGLE"
    },
    {
      "platformId": "EUN1",
      "gameId": 1968797097,
      "champion": 9,
      "queue": 420,
      "season": 11,
      "timestamp": 1526986005468,
      "role": "NONE",
      "lane": "JUNGLE"
    },
    {
      "platformId": "EUN1",
      "gameId": 1967234900,
      "champion": 9,
      "queue": 420,
      "season": 11,
      "timestamp": 1526733309959,
      "role": "NONE",
      "lane": "JUNGLE"
    },
    {
      "platformId": "EUN1",
      "gameId": 1967229802,
      "champion": 9,
      "queue": 420,
      "season": 11,
      "timestamp": 1526731340119,
      "role": "NONE",
      "lane": "JUNGLE"
    },
    {
      "platformId": "EUN1",
      "gameId": 1967199598,
      "champion": 9,
      "queue": 420,
      "season": 11,
      "timestamp": 1526727493848,
      "role": "NONE",
      "lane": "JUNGLE"
    },
    {
      "platformId": "EUN1",
      "gameId": 1967175858,
      "champion": 9,
      "queue": 420,
      "season": 11,
      "timestamp": 1526725937948,
      "role": "DUO_SUPPORT",
      "lane": "NONE"
    },
    {
      "platformId": "EUN1",
      "gameId": 1967151910,
      "champion": 9,
      "queue": 420,
      "season": 11,
      "timestamp": 1526723767533,
      "role": "NONE",
      "lane": "JUNGLE"
    },
    {
      "platformId": "EUN1",
      "gameId": 1966537888,
      "champion": 56,
      "queue": 420,
      "season": 11,
      "timestamp": 1526603112197,
      "role": "NONE",
      "lane": "JUNGLE"
    },
    {
      "platformId": "EUN1",
      "gameId": 1966517433,
      "champion": 9,
      "queue": 420,
      "season": 11,
      "timestamp": 1526600430402,
      "role": "NONE",
      "lane": "JUNGLE"
    },
    {
      "platformId": "EUN1",
      "gameId": 1966499598,
      "champion": 9,
      "queue": 420,
      "season": 11,
      "timestamp": 1526594286791,
      "role": "NONE",
      "lane": "JUNGLE"
    },
    {
      "platformId": "EUN1",
      "gameId": 1966094117,
      "champion": 9,
      "queue": 420,
      "season": 11,
      "timestamp": 1526562362242,
      "role": "NONE",
      "lane": "JUNGLE"
    },
    {
      "platformId": "EUN1",
      "gameId": 1966079232,
      "champion": 9,
      "queue": 420,
      "season": 11,
      "timestamp": 1526559996944,
      "role": "NONE",
      "lane": "JUNGLE"
    },
    {
      "platformId": "EUN1",
      "gameId": 1965944816,
      "champion": 9,
      "queue": 420,
      "season": 11,
      "timestamp": 1526503680634,
      "role": "NONE",
      "lane": "JUNGLE"
    },
    {
      "platformId": "EUN1",
      "gameId": 1963603328,
      "champion": 9,
      "queue": 420,
      "season": 11,
      "timestamp": 1526124154553,
      "role": "NONE",
      "lane": "JUNGLE"
    },
    {
      "platformId": "EUN1",
      "gameId": 1963607283,
      "champion": 56,
      "queue": 420,
      "season": 11,
      "timestamp": 1526121841568,
      "role": "NONE",
      "lane": "JUNGLE"
    },
    {
      "platformId": "EUN1",
      "gameId": 1962426956,
      "champion": 9,
      "queue": 420,
      "season": 11,
      "timestamp": 1525912552680,
      "role": "NONE",
      "lane": "JUNGLE"
    },
    {
      "platformId": "EUN1",
      "gameId": 1962435157,
      "champion": 56,
      "queue": 420,
      "season": 11,
      "timestamp": 1525909239425,
      "role": "NONE",
      "lane": "JUNGLE"
    },
    {
      "platformId": "EUN1",
      "gameId": 1962344837,
      "champion": 9,
      "queue": 420,
      "season": 11,
      "timestamp": 1525892740319,
      "role": "NONE",
      "lane": "JUNGLE"
    },
    {
      "platformId": "EUN1",
      "gameId": 1962327858,
      "champion": 9,
      "queue": 420,
      "season": 11,
      "timestamp": 1525890356589,
      "role": "DUO_SUPPORT",
      "lane": "NONE"
    },
    {
      "platformId": "EUN1",
      "gameId": 1962300014,
      "champion": 56,
      "queue": 420,
      "season": 11,
      "timestamp": 1525887832173,
      "role": "NONE",
      "lane": "JUNGLE"
    },
    {
      "platformId": "EUN1",
      "gameId": 1962269988,
      "champion": 9,
      "queue": 420,
      "season": 11,
      "timestamp": 1525884391013,
      "role": "NONE",
      "lane": "JUNGLE"
    },
    {
      "platformId": "EUN1",
      "gameId": 1961931218,
      "champion": 59,
      "queue": 420,
      "season": 11,
      "timestamp": 1525845458492,
      "role": "NONE",
      "lane": "JUNGLE"
    },
    {
      "platformId": "EUN1",
      "gameId": 1961949285,
      "champion": 5,
      "queue": 420,
      "season": 11,
      "timestamp": 1525843102370,
      "role": "NONE",
      "lane": "JUNGLE"
    },
    {
      "platformId": "EUN1",
      "gameId": 1961939283,
      "champion": 120,
      "queue": 420,
      "season": 11,
      "timestamp": 1525840210432,
      "role": "NONE",
      "lane": "JUNGLE"
    },
    {
      "platformId": "EUN1",
      "gameId": 1961523633,
      "champion": 81,
      "queue": 420,
      "season": 11,
      "timestamp": 1525751415653,
      "role": "DUO_CARRY",
      "lane": "BOTTOM"
    },
    {
      "platformId": "EUN1",
      "gameId": 1961532463,
      "champion": 56,
      "queue": 420,
      "season": 11,
      "timestamp": 1525748040472,
      "role": "NONE",
      "lane": "JUNGLE"
    },
    {
      "platformId": "EUN1",
      "gameId": 1961522624,
      "champion": 56,
      "queue": 420,
      "season": 11,
      "timestamp": 1525745307379,
      "role": "DUO_SUPPORT",
      "lane": "NONE"
    },
    {
      "platformId": "EUN1",
      "gameId": 1961531245,
      "champion": 56,
      "queue": 420,
      "season": 11,
      "timestamp": 1525742374926,
      "role": "NONE",
      "lane": "JUNGLE"
    },
    {
      "platformId": "EUN1",
      "gameId": 1961510503,
      "champion": 56,
      "queue": 420,
      "season": 11,
      "timestamp": 1525738860744,
      "role": "NONE",
      "lane": "JUNGLE"
    },
    {
      "platformId": "EUN1",
      "gameId": 1961519040,
      "champion": 9,
      "queue": 420,
      "season": 11,
      "timestamp": 1525736564612,
      "role": "DUO_SUPPORT",
      "lane": "MID"
    },
    {
      "platformId": "EUN1",
      "gameId": 1961496894,
      "champion": 9,
      "queue": 420,
      "season": 11,
      "timestamp": 1525734034679,
      "role": "NONE",
      "lane": "JUNGLE"
    },
    {
      "platformId": "EUN1",
      "gameId": 1960982594,
      "champion": 72,
      "queue": 420,
      "season": 11,
      "timestamp": 1525656929937,
      "role": "NONE",
      "lane": "JUNGLE"
    },
    {
      "platformId": "EUN1",
      "gameId": 1960981368,
      "champion": 56,
      "queue": 420,
      "season": 11,
      "timestamp": 1525653358274,
      "role": "NONE",
      "lane": "JUNGLE"
    },
    {
      "platformId": "EUN1",
      "gameId": 1960989211,
      "champion": 56,
      "queue": 420,
      "season": 11,
      "timestamp": 1525650667783,
      "role": "NONE",
      "lane": "JUNGLE"
    },
    {
      "platformId": "EUN1",
      "gameId": 1960967069,
      "champion": 9,
      "queue": 420,
      "season": 11,
      "timestamp": 1525647958853,
      "role": "NONE",
      "lane": "JUNGLE"
    },
    {
      "platformId": "EUN1",
      "gameId": 1960944930,
      "champion": 56,
      "queue": 420,
      "season": 11,
      "timestamp": 1525645278836,
      "role": "NONE",
      "lane": "JUNGLE"
    },
    {
      "platformId": "EUN1",
      "gameId": 1960951451,
      "champion": 56,
      "queue": 420,
      "season": 11,
      "timestamp": 1525643152217,
      "role": "NONE",
      "lane": "JUNGLE"
    },
    {
      "platformId": "EUN1",
      "gameId": 1960957140,
      "champion": 56,
      "queue": 420,
      "season": 11,
      "timestamp": 1525641212806,
      "role": "NONE",
      "lane": "JUNGLE"
    },
    {
      "platformId": "EUN1",
      "gameId": 1960387782,
      "champion": 56,
      "queue": 420,
      "season": 11,
      "timestamp": 1525569294198,
      "role": "SOLO",
      "lane": "TOP"
    },
    {
      "platformId": "EUN1",
      "gameId": 1960366154,
      "champion": 9,
      "queue": 420,
      "season": 11,
      "timestamp": 1525566630073,
      "role": "NONE",
      "lane": "JUNGLE"
    },
    {
      "platformId": "EUN1",
      "gameId": 1960344302,
      "champion": 9,
      "queue": 420,
      "season": 11,
      "timestamp": 1525563892991,
      "role": "DUO_SUPPORT",
      "lane": "NONE"
    },
    {
      "platformId": "EUN1",
      "gameId": 1959843219,
      "champion": 9,
      "queue": 420,
      "season": 11,
      "timestamp": 1525474889396,
      "role": "NONE",
      "lane": "JUNGLE"
    },
    {
      "platformId": "EUN1",
      "gameId": 1959295337,
      "champion": 56,
      "queue": 420,
      "season": 11,
      "timestamp": 1525391757119,
      "role": "DUO_SUPPORT",
      "lane": "NONE"
    },
    {
      "platformId": "EUN1",
      "gameId": 1959312277,
      "champion": 56,
      "queue": 420,
      "season": 11,
      "timestamp": 1525388774719,
      "role": "NONE",
      "lane": "JUNGLE"
    },
    {
      "platformId": "EUN1",
      "gameId": 1959298090,
      "champion": 9,
      "queue": 420,
      "season": 11,
      "timestamp": 1525385154202,
      "role": "SOLO",
      "lane": "MID"
    },
    {
      "platformId": "EUN1",
      "gameId": 1958871816,
      "champion": 56,
      "queue": 420,
      "season": 11,
      "timestamp": 1525352836561,
      "role": "NONE",
      "lane": "JUNGLE"
    },
    {
      "platformId": "EUN1",
      "gameId": 1957101394,
      "champion": 9,
      "queue": 420,
      "season": 11,
      "timestamp": 1525082365972,
      "role": "NONE",
      "lane": "JUNGLE"
    },
    {
      "platformId": "EUN1",
      "gameId": 1957062728,
      "champion": 9,
      "queue": 420,
      "season": 11,
      "timestamp": 1525077352898,
      "role": "NONE",
      "lane": "JUNGLE"
    },
    {
      "platformId": "EUN1",
      "gameId": 1957078114,
      "champion": 9,
      "queue": 420,
      "season": 11,
      "timestamp": 1525074552295,
      "role": "NONE",
      "lane": "JUNGLE"
    },
    {
      "platformId": "EUN1",
      "gameId": 1955860322,
      "champion": 56,
      "queue": 420,
      "season": 11,
      "timestamp": 1524878277992,
      "role": "DUO_SUPPORT",
      "lane": "NONE"
    },
    {
      "platformId": "EUN1",
      "gameId": 1955868162,
      "champion": 120,
      "queue": 420,
      "season": 11,
      "timestamp": 1524874946088,
      "role": "NONE",
      "lane": "JUNGLE"
    },
    {
      "platformId": "EUN1",
      "gameId": 1955846694,
      "champion": 9,
      "queue": 420,
      "season": 11,
      "timestamp": 1524872881820,
      "role": "DUO_SUPPORT",
      "lane": "NONE"
    },
    {
      "platformId": "EUN1",
      "gameId": 1954925988,
      "champion": 9,
      "queue": 420,
      "season": 11,
      "timestamp": 1524692598836,
      "role": "NONE",
      "lane": "JUNGLE"
    },
    {
      "platformId": "EUN1",
      "gameId": 1954438416,
      "champion": 9,
      "queue": 420,
      "season": 11,
      "timestamp": 1524617873310,
      "role": "NONE",
      "lane": "JUNGLE"
    },
    {
      "platformId": "EUN1",
      "gameId": 1954437495,
      "champion": 9,
      "queue": 420,
      "season": 11,
      "timestamp": 1524615539519,
      "role": "DUO_SUPPORT",
      "lane": "BOTTOM"
    }
  ],
  "startIndex": 0,
  "endIndex": 100,
  "totalGames": 1243
}