{
  "matches": [
    {
      "platformId": "EUN1",
      "gameId": 1983536746,
      "champion": 238,
      "queue": 420,
      "season": 11,
      "timestamp": 1529027186940,
      "role": "DUO",
      "lane": "MID"
    },
    {
      "platformId": "EUN1",
      "gameId": 1983546121,
      "champion": 110,
      "queue": 420,
      "season": 11,
      "timestamp": 1529026221575,
      "role": "DUO",
      "lane": "NONE"
    },
    {
      "platformId": "EUN1",
      "gameId": 1983544379,
      "champion": 17,
      "queue": 420,
      "season": 11,
      "timestamp": 1529023097474,
      "role": "SOLO",
      "lane": "TOP"
    },
    {
      "platformId": "EUN1",
      "gameId": 1981524139,
      "champion": 121,
      "queue": 420,
      "season": 11,
      "timestamp": 1528732473229,
      "role": "NONE",
      "lane": "JUNGLE"
    },
    {
      "platformId": "EUN1",
      "gameId": 1981507799,
      "champion": 11,
      "queue": 420,
      "season": 11,
      "timestamp": 1528729890847,
      "role": "NONE",
      "lane": "JUNGLE"
    },
    {
      "platformId": "EUN1",
      "gameId": 1981472000,
      "champion": 11,
      "queue": 420,
      "season": 11,
      "timestamp": 1528727546808,
      "role": "NONE",
      "lane": "JUNGLE"
    },
    {
      "platformId": "EUN1",
      "gameId": 1981445380,
      "champion": 238,
      "queue": 420,
      "season": 11,
      "timestamp": 1528725094917,
      "role": "SOLO",
      "lane": "TOP"
    },
    {
      "platformId": "EUN1",
      "gameId": 1981416324,
      "champion": 157,
      "queue": 420,
      "season": 11,
      "timestamp": 1528721471570,
      "role": "SOLO",
      "lane": "TOP"
    },
    {
      "platformId": "EUN1",
      "gameId": 1981094983,
      "champion": 105,
      "queue": 420,
      "season": 11,
      "timestamp": 1528662966370,
      "role": "DUO",
      "lane": "NONE"
    },
    {
      "platformId": "EUN1",
      "gameId": 1979880489,
      "champion": 238,
      "queue": 420,
      "season": 11,
      "timestamp": 1528487586400,
      "role": "SOLO",
      "lane": "MID"
    },
    {
      "platformId": "EUN1",
      "gameId": 1978975562,
      "champion": 11,
      "queue": 420,
      "season": 11,
      "timestamp": 1528380434389,
      "role": "NONE",
      "lane": "JUNGLE"
    },
    {
      "platformId": "EUN1",
      "gameId": 1978937899,
      "champion": 157,
      "queue": 420,
      "season": 11,
      "timestamp": 1528373071199,
      "role": "SOLO",
      "lane": "TOP"
    },
    {
      "platformId": "EUN1",
      "gameId": 1978731652,
      "champion": 81,
      "queue": 420,
      "season": 11,
      "timestamp": 1528313330096,
      "role": "SOLO",
      "lane": "TOP"
    },
    {
      "platformId": "EUN1",
      "gameId": 1978719783,
      "champion": 157,
      "queue": 420,
      "season": 11,
      "timestamp": 1528312742784,
      "role": "DUO",
      "lane": "NONE"
    },
    {
      "platformId": "EUN1",
      "gameId": 1978678312,
      "champion": 24,
      "queue": 420,
      "season": 11,
      "timestamp": 1528309380797,
      "role": "NONE",
      "lane": "JUNGLE"
    },
    {
      "platformId": "EUN1",
      "gameId": 1978671123,
      "champion": 54,
      "queue": 420,
      "season": 11,
      "timestamp": 1528307427101,
      "role": "NONE",
      "lane": "JUNGLE"
    },
    {
      "platformId": "EUN1",
      "gameId": 1978498524,
      "champion": 157,
      "queue": 420,
      "season": 11,
      "timestamp": 1528288271192,
      "role": "NONE",
      "lane": "JUNGLE"
    },
    {
      "platformId": "EUN1",
      "gameId": 1978493614,
      "champion": 157,
      "queue": 420,
      "season": 11,
      "timestamp": 1528286105407,
      "role": "SOLO",
      "lane": "TOP"
    },
    {
      "platformId": "EUN1",
      "gameId": 1978479812,
      "champion": 99,
      "queue": 420,
      "season": 11,
      "timestamp": 1528283979224,
      "role": "DUO_SUPPORT",
      "lane": "BOTTOM"
    },
    {
      "platformId": "EUN1",
      "gameId": 1977952676,
      "champion": 45,
      "queue": 420,
      "season": 11,
      "timestamp": 1528207034062,
      "role": "SOLO",
      "lane": "MID"
    },
    {
      "platformId": "EUN1",
      "gameId": 1977925711,
      "champion": 24,
      "queue": 420,
      "season": 11,
      "timestamp": 1528204284882,
      "role": "SOLO",
      "lane": "TOP"
    },
    {
      "platformId": "EUN1",
      "gameId": 1977493199,
      "champion": 157,
      "queue": 420,
      "season": 11,
      "timestamp": 1528136106619,
      "role": "SOLO",
      "lane": "TOP"
    },
    {
      "platformId": "EUN1",
      "gameId": 1977478935,
      "champion": 157,
      "queue": 420,
      "season": 11,
      "timestamp": 1528134912536,
      "role": "DUO",
      "lane": "NONE"
    },
    {
      "platformId": "EUN1",
      "gameId": 1976317036,
      "champion": 24,
      "queue": 420,
      "season": 11,
      "timestamp": 1527968816886,
      "role": "NONE",
      "lane": "JUNGLE"
    },
    {
      "platformId": "EUN1",
      "gameId": 1976027769,
      "champion": 157,
      "queue": 420,
      "season": 11,
      "timestamp": 1527951806639,
      "role": "SOLO",
      "lane": "MID"
    },
    {
      "platformId": "EUN1",
      "gameId": 1976000149,
      "champion": 157,
      "queue": 420,
      "season": 11,
      "timestamp": 1527949497202,
      "role": "SOLO",
      "lane": "TOP"
    },
    {
      "platformId": "EUN1",
      "gameId": 1975619033,
      "champion": 157,
      "queue": 420,
      "season": 11,
      "timestamp": 1527885360118,
      "role": "SOLO",
      "lane": "TOP"
    },
    {
      "platformId": "EUN1",
      "gameId": 1975113796,
      "champion": 157,
      "queue": 420,
      "season": 11,
      "timestamp": 1527853851269,
      "role": "SOLO",
      "lane": "TOP"
    },
    {
      "platformId": "EUN1",
      "gameId": 1975105258,
      "champion": 105,
      "queue": 420,
      "season": 11,
      "timestamp": 1527851570954,
      "role": "SOLO",
      "lane": "TOP"
    },
    {
      "platformId": "EUN1",
      "gameId": 1973980570,
      "champion": 157,
      "queue": 420,
      "season": 11,
      "timestamp": 1527710058020,
      "role": "NONE",
      "lane": "JUNGLE"
    },
    {
      "platformId": "EUN1",
      "gameId": 1973759310,
      "champion": 157,
      "queue": 420,
      "season": 11,
      "timestamp": 1527691905105,
      "role": "NONE",
      "lane": "JUNGLE"
    },
    {
      "platformId": "EUN1",
      "gameId": 1973663944,
      "champion": 157,
      "queue": 420,
      "season": 11,
      "timestamp": 1527689767494,
      "role": "SOLO",
      "lane": "TOP"
    },
    {
      "platformId": "EUN1",
      "gameId": 1973368138,
      "champion": 157,
      "queue": 420,
      "season": 11,
      "timestamp": 1527615904841,
      "role": "SOLO",
      "lane": "MID"
    },
    {
      "platformId": "EUN1",
      "gameId": 1973365674,
      "champion": 105,
      "queue": 420,
      "season": 11,
      "timestamp": 1527615211140,
      "role": "DUO",
      "lane": "NONE"
    },
    {
      "platformId": "EUN1",
      "gameId": 1973245549,
      "champion": 24,
      "queue": 420,
      "season": 11,
      "timestamp": 1527599153899,
      "role": "SOLO",
      "lane": "TOP"
    },
    {
      "platformId": "EUN1",
      "gameId": 1972880843,
      "champion": 121,
      "queue": 420,
      "season": 11,
      "timestamp": 1527532324403,
      "role": "SOLO",
      "lane": "TOP"
    },
    {
      "platformId": "EUN1",
      "gameId": 1972849490,
      "champion": 99,
      "queue": 420,
      "season": 11,
      "timestamp": 1527528679797,
      "role": "NONE",
      "lane": "JUNGLE"
    },
    {
      "platformId": "EUN1",
      "gameId": 1972736387,
      "champion": 157,
      "queue": 420,
      "season": 11,
      "timestamp": 1527516473996,
      "role": "SOLO",
      "lane": "TOP"
    },
    {
      "platformId": "EUN1",
      "gameId": 1972625052,
      "champion": 58,
      "queue": 420,
      "season": 11,
      "timestamp": 1527499638363,
      "role": "SOLO",
      "lane": "TOP"
    },
    {
      "platformId": "EUN1",
      "gameId": 1972631266,
      "champion": 11,
      "queue": 420,
      "season": 11,
      "timestamp": 1527496368088,
      "role": "NONE",
      "lane": "JUNGLE"
    },
    {
      "platformId": "EUN1",
      "gameId": 1972619198,
      "champion": 24,
      "queue": 420,
      "season": 11,
      "timestamp": 1527494141159,
      "role": "SOLO",
      "lane": "TOP"
    },
    {
      "platformId": "EUN1",
      "gameId": 1970837096,
      "champion": 157,
      "queue": 420,
      "season": 11,
      "timestamp": 1527277882424,
      "role": "SOLO",
      "lane": "TOP"
    },
    {
      "platformId": "EUN1",
      "gameId": 1970677640,
      "champion": 157,
      "queue": 420,
      "season": 11,
      "timestamp": 1527275050028,
      "role": "SOLO",
      "lane": "TOP"
    },
    {
      "platformId": "EUN1",
      "gameId": 1970649042,
      "champion": 99,
      "queue": 420,
      "season": 11,
      "timestamp": 1527272470293,
      "role": "DUO_SUPPORT",
      "lane": "BOTTOM"
    },
    {
      "platformId": "EUN1",
      "gameId": 1970242793,
      "champion": 157,
      "queue": 420,
      "season": 11,
      "timestamp": 1527185465509,
      "role": "SOLO",
      "lane": "TOP"
    },
    {
      "platformId": "EUN1",
      "gameId": 1970125891,
      "champion": 64,
      "queue": 420,
      "season": 11,
      "timestamp": 1527183127494,
      "role": "DUO",
      "lane": "MID"
    },
    {
      "platformId": "EUN1",
      "gameId": 1970117233,
      "champion": 157,
      "queue": 420,
      "season": 11,
      "timestamp": 1527180059777,
      "role": "NONE",
      "lane": "JUNGLE"
    },
    {
      "platformId": "EUN1",
      "gameId": 1970006518,
      "champion": 29,
      "queue": 420,
      "season": 11,
      "timestamp": 1527176204858,
      "role": "DUO_CARRY",
      "lane": "BOTTOM"
    },
    {
      "platformId": "EUN1",
      "gameId": 1970000470,
      "champion": 24,
      "queue": 420,
      "season": 11,
      "timestamp": 1527173845818,
      "role": "SOLO",
      "lane": "TOP"
    },
    {
      "platformId": "EUN1",
      "gameId": 1969872499,
      "champion": 45,
      "queue": 420,
      "season": 11,
      "timestamp": 1527152605558,
      "role": "SOLO",
      "lane": "MID"
    },
    {
      "platformId": "EUN1",
      "gameId": 1969880353,
      "champion": 157,
      "queue": 420,
      "season": 11,
      "timestamp": 1527150768074,
      "role": "NONE",
      "lane": "JUNGLE"
    },
    {
      "platformId": "EUN1",
      "gameId": 1969578149,
      "champion": 11,
      "queue": 420,
      "season": 11,
      "timestamp": 1527081368503,
      "role": "SOLO",
      "lane": "TOP"
    },
    {
      "platformId": "EUN1",
      "gameId": 1969035221,
      "champion": 157,
      "queue": 420,
      "season": 11,
      "timestamp": 1527017839510,
      "role": "SOLO",
      "lane": "TOP"
    },
    {
      "platformId": "EUN1",
      "gameId": 1968787563,
      "champion": 121,
      "queue": 420,
      "season": 11,
      "timestamp": 1526978803356,
      "role": "NONE",
      "lane": "JUNGLE"
    },
    {
      "platformId": "EUN1",
      "gameId": 1968765082,
      "champion": 24,
      "queue": 420,
      "season": 11,
      "timestamp": 1526975549433,
      "role": "SOLO",
      "lane": "TOP"
    },
    {
      "platformId": "EUN1",
      "gameId": 1968650162,
      "champion": 121,
      "queue": 420,
      "season": 11,
      "timestamp": 1526931687742,
      "role": "NONE",
      "lane": "JUNGLE"
    },
    {
      "platformId": "EUN1",
      "gameId": 1968606275,
      "champion": 157,
      "queue": 420,
      "season": 11,
      "timestamp": 1526927657788,
      "role": "SOLO",
      "lane": "TOP"
    },
    {
      "platformId": "EUN1",
      "gameId": 1968608104,
      "champion": 58,
      "queue": 420,
      "season": 11,
      "timestamp": 1526925484942,
      "role": "SOLO",
      "lane": "TOP"
    },
    {
      "platformId": "EUN1",
      "gameId": 1968561783,
      "champion": 157,
      "queue": 420,
      "season": 11,
      "timestamp": 1526923077868,
      "role": "DUO_SUPPORT",
      "lane": "BOTTOM"
    },
    {
      "platformId": "EUN1",
      "gameId": 1968106922,
      "champion": 11,
      "queue": 420,
      "season": 11,
      "timestamp": 1526846706416,
      "role": "NONE",
      "lane": "JUNGLE"
    },
    {
      "platformId": "EUN1",
      "gameId": 1967993187,
      "champion": 17,
      "queue": 420,
      "season": 11,
      "timestamp": 1526836249331,
      "role": "DUO_SUPPORT",
      "lane": "NONE"
    },
    {
      "platformId": "EUN1",
      "gameId": 1967760150,
      "champion": 24,
      "queue": 420,
      "season": 11,
      "timestamp": 1526806228267,
      "role": "NONE",
      "lane": "JUNGLE"
    },
    {
      "platformId": "EUN1",
      "gameId": 1967635522,
      "champion": 45,
      "queue": 420,
      "season": 11,
      "timestamp": 1526803297443,
      "role": "SOLO",
      "lane": "MID"
    },
    {
      "platformId": "EUN1",
      "gameId": 1967492463,
      "champion": 157,
      "queue": 420,
      "season": 11,
      "timestamp": 1526764288355,
      "role": "SOLO",
      "lane": "TOP"
    },
    {
      "platformId": "EUN1",
      "gameId": 1967481264,
      "champion": 121,
      "queue": 420,
      "season": 11,
      "timestamp": 1526763701041,
      "role": "DUO",
      "lane": "NONE"
    },
    {
      "platformId": "EUN1",
      "gameId": 1967378062,
      "champion": 58,
      "queue": 420,
      "season": 11,
      "timestamp": 1526749312441,
      "role": "SOLO",
      "lane": "TOP"
    },
    {
      "platformId": "EUN1",
      "gameId": 1966873131,
      "champion": 157,
      "queue": 420,
      "season": 11,
      "timestamp": 1526676747197,
      "role": "NONE",
      "lane": "JUNGLE"
    },
    {
      "platformId": "EUN1",
      "gameId": 1966834905,
      "champion": 58,
      "queue": 420,
      "season": 11,
      "timestamp": 1526674105312,
      "role": "SOLO",
      "lane": "TOP"
    },
    {
      "platformId": "EUN1",
      "gameId": 1966803938,
      "champion": 58,
      "queue": 420,
      "season": 11,
      "timestamp": 1526670848710,
      "role": "SOLO",
      "lane": "TOP"
    },
    {
      "platformId": "EUN1",
      "gameId": 1966627940,
      "champion": 24,
      "queue": 420,
      "season": 11,
      "timestamp": 1526646327082,
      "role": "SOLO",
      "lane": "TOP"
    },
    {
      "platformId": "EUN1",
      "gameId": 1966384372,
      "champion": 58,
      "queue": 420,
      "season": 11,
      "timestamp": 1526580774089,
      "role": "SOLO",
      "lane": "TOP"
    },
    {
      "platformId": "EUN1",
      "gameId": 1965109847,
      "champion": 157,
      "queue": 420,
      "season": 11,
      "timestamp": 1526375037529,
      "role": "DUO",
      "lane": "NONE"
    },
    {
      "platformId": "EUN1",
      "gameId": 1965096556,
      "champion": 99,
      "queue": 420,
      "season": 11,
      "timestamp": 1526372870132,
      "role": "DUO",
      "lane": "MID"
    },
    {
      "platformId": "EUN1",
      "gameId": 1964647490,
      "champion": 157,
      "queue": 420,
      "season": 11,
      "timestamp": 1526296911034,
      "role": "SOLO",
      "lane": "MID"
    },
    {
      "platformId": "EUN1",
      "gameId": 1964409961,
      "champion": 99,
      "queue": 420,
      "season": 11,
      "timestamp": 1526230059782,
      "role": "SOLO",
      "lane": "MID"
    },
    {
      "platformId": "EUN1",
      "gameId": 1964365160,
      "champion": 63,
      "queue": 420,
      "season": 11,
      "timestamp": 1526227890880,
      "role": "SOLO",
      "lane": "MID"
    },
    {
      "platformId": "EUN1",
      "gameId": 1964326340,
      "champion": 238,
      "queue": 420,
      "season": 11,
      "timestamp": 1526224749342,
      "role": "SOLO",
      "lane": "MID"
    },
    {
      "platformId": "EUN1",
      "gameId": 1963204376,
      "champion": 53,
      "queue": 420,
      "season": 11,
      "timestamp": 1526062655124,
      "role": "DUO_SUPPORT",
      "lane": "BOTTOM"
    },
    {
      "platformId": "EUN1",
      "gameId": 1962207647,
      "champion": 157,
      "queue": 420,
      "season": 11,
      "timestamp": 1525875360446,
      "role": "SOLO",
      "lane": "TOP"
    },
    {
      "platformId": "EUN1",
      "gameId": 1962171295,
      "champion": 86,
      "queue": 420,
      "season": 11,
      "timestamp": 1525872471140,
      "role": "SOLO",
      "lane": "TOP"
    },
    {
      "platformId": "EUN1",
      "gameId": 1961749585,
      "champion": 64,
      "queue": 420,
      "season": 11,
      "timestamp": 1525797835984,
      "role": "NONE",
      "lane": "JUNGLE"
    },
    {
      "platformId": "EUN1",
      "gameId": 1961721419,
      "champion": 157,
      "queue": 420,
      "season": 11,
      "timestamp": 1525794759532,
      "role": "SOLO",
      "lane": "TOP"
    },
    {
      "platformId": "EUN1",
      "gameId": 1961204131,
      "champion": 11,
      "queue": 420,
      "season": 11,
      "timestamp": 1525712901248,
      "role": "NONE",
      "lane": "JUNGLE"
    },
    {
      "platformId": "EUN1",
      "gameId": 1961155230,
      "champion": 157,
      "queue": 420,
      "season": 11,
      "timestamp": 1525709467046,
      "role": "SOLO",
      "lane": "TOP"
    },
    {
      "platformId": "EUN1",
      "gameId": 1960568298,
      "champion": 64,
      "queue": 420,
      "season": 11,
      "timestamp": 1525603213710,
      "role": "NONE",
      "lane": "JUNGLE"
    },
    {
      "platformId": "EUN1",
      "gameId": 1960456892,
      "champion": 121,
      "queue": 420,
      "season": 11,
      "timestamp": 1525602547341,
      "role": "DUO",
      "lane": "NONE"
    },
    {
      "platformId": "EUN1",
      "gameId": 1960490188,
      "champion": 157,
      "queue": 420,
      "season": 11,
      "timestamp": 1525600099393,
      "role": "SOLO",
      "lane": "MID"
    },
    {
      "platformId": "EUN1",
      "gameId": 1960401239,
      "champion": 121,
      "queue": 420,
      "season": 11,
      "timestamp": 1525595127742,
      "role": "NONE",
      "lane": "JUNGLE"
    },
    {
      "platformId": "EUN1",
      "gameId": 1960157747,
      "champion": 121,
      "queue": 420,
      "season": 11,
      "timestamp": 1525538563462,
      "role": "NONE",
      "lane": "JUNGLE"
    },
    {
      "platformId": "EUN1",
      "gameId": 1960139151,
      "champion": 121,
      "queue": 420,
      "season": 11,
      "timestamp": 1525535320333,
      "role": "DUO",
      "lane": "NONE"
    },
    {
      "platformId": "EUN1",
      "gameId": 1960053562,
      "champion": 121,
      "queue": 420,
      "season": 11,
      "timestamp": 1525525864783,
      "role": "DUO",
      "lane": "NONE"
    },
    {
      "platformId": "EUN1",
      "gameId": 1960047329,
      "champion": 29,
      "queue": 420,
      "season": 11,
      "timestamp": 1525523532700,
      "role": "DUO_CARRY",
      "lane": "BOTTOM"
    },
    {
      "platformId": "EUN1",
      "gameId": 1959533491,
      "champion": 11,
      "queue": 420,
      "season": 11,
      "timestamp": 1525453237358,
      "role": "NONE",
      "lane": "JUNGLE"
    },
    {
      "platformId": "EUN1",
      "gameId": 1959527943,
      "champion": 45,
      "queue": 420,
      "season": 11,
      "timestamp": 1525451104797,
      "role": "SOLO",
      "lane": "MID"
    },
    {
      "platformId": "EUN1",
      "gameId": 1959501258,
      "champion": 11,
      "queue": 420,
      "season": 11,
      "timestamp": 1525448411886,
      "role": "NONE",
      "lane": "JUNGLE"
    },
    {
      "platformId": "EUN1",
      "gameId": 1959198259,
      "champion": 121,
      "queue": 420,
      "season": 11,
      "timestamp": 1525373469890,
      "role": "NONE",
      "lane": "JUNGLE"
    },
    {
      "platformId": "EUN1",
      "gameId": 1958817218,
      "champion": 121,
      "queue": 420,
      "season": 11,
      "timestamp": 1525340147085,
      "role": "NONE",
      "lane": "JUNGLE"
    },
    {
      "platformId": "EUN1",
      "gameId": 1958804243,
      "champion": 99,
      "queue": 420,
      "season": 11,
      "timestamp": 1525338097456,
      "role": "DUO_SUPPORT",
      "lane": "BOTTOM"
    },
    {
      "platformId": "EUN1",
      "gameId": 1958790284,
      "champion": 121,
      "queue": 420,
      "season": 11,
      "timestamp": 1525334359281,
      "role": "NONE",
      "lane": "JUNGLE"
    },
    {
      "platformId": "EUN1",
      "gameId": 1958422678,
      "champion": 121,
      "queue": 420,
      "season": 11,
      "timestamp": 1525256089777,
      "role": "NONE",
      "lane": "JUNGLE"
    }
  ],
  "startIndex": 0,
  "endIndex": 100,
  "totalGames": 114
}