{
  "matches": [
    {
      "platformId": "EUN1",
      "gameId": 1986650595,
      "champion": 99,
      "queue": 420,
      "season": 11,
      "timestamp": 1529503563421,
      "role": "DUO_SUPPORT",
      "lane": "NONE"
    },
    {
      "platformId": "EUN1",
      "gameId": 1986614536,
      "champion": 25,
      "queue": 420,
      "season": 11,
      "timestamp": 1529501099739,
      "role": "DUO_SUPPORT",
      "lane": "BOTTOM"
    },
    {
      "platformId": "EUN1",
      "gameId": 1985739325,
      "champion": 4,
      "queue": 420,
      "season": 11,
      "timestamp": 1529346206867,
      "role": "DUO_CARRY",
      "lane": "BOTTOM"
    },
    {
      "platformId": "EUN1",
      "gameId": 1985522150,
      "champion": 4,
      "queue": 420,
      "season": 11,
      "timestamp": 1529322664746,
      "role": "SOLO",
      "lane": "MID"
    },
    {
      "platformId": "EUN1",
      "gameId": 1985484784,
      "champion": 4,
      "queue": 420,
      "season": 11,
      "timestamp": 1529319390418,
      "role": "DUO_CARRY",
      "lane": "BOTTOM"
    },
    {
      "platformId": "EUN1",
      "gameId": 1985132454,
      "champion": 4,
      "queue": 420,
      "season": 11,
      "timestamp": 1529261755897,
      "role": "DUO_SUPPORT",
      "lane": "NONE"
    },
    {
      "platformId": "EUN1",
      "gameId": 1985109740,
      "champion": 4,
      "queue": 420,
      "season": 11,
      "timestamp": 1529257823074,
      "role": "DUO",
      "lane": "MID"
    },
    {
      "platformId": "EUN1",
      "gameId": 1985080455,
      "champion": 4,
      "queue": 420,
      "season": 11,
      "timestamp": 1529254968127,
      "role": "SOLO",
      "lane": "MID"
    },
    {
      "platformId": "EUN1",
      "gameId": 1984738714,
      "champion": 4,
      "queue": 420,
      "season": 11,
      "timestamp": 1529188114973,
      "role": "DUO",
      "lane": "NONE"
    },
    {
      "platformId": "EUN1",
      "gameId": 1984712313,
      "champion": 4,
      "queue": 420,
      "season": 11,
      "timestamp": 1529185232490,
      "role": "SOLO",
      "lane": "BOTTOM"
    },
    {
      "platformId": "EUN1",
      "gameId": 1984690349,
      "champion": 4,
      "queue": 420,
      "season": 11,
      "timestamp": 1529180960975,
      "role": "SOLO",
      "lane": "MID"
    },
    {
      "platformId": "EUN1",
      "gameId": 1984593114,
      "champion": 4,
      "queue": 420,
      "season": 11,
      "timestamp": 1529178223718,
      "role": "DUO",
      "lane": "NONE"
    },
    {
      "platformId": "EUN1",
      "gameId": 1984090488,
      "champion": 4,
      "queue": 420,
      "season": 11,
      "timestamp": 1529097108339,
      "role": "SOLO",
      "lane": "TOP"
    },
    {
      "platformId": "EUN1",
      "gameId": 1982301274,
      "champion": 40,
      "queue": 420,
      "season": 11,
      "timestamp": 1528838499065,
      "role": "DUO_SUPPORT",
      "lane": "BOTTOM"
    },
    {
      "platformId": "EUN1",
      "gameId": 1982266164,
      "champion": 25,
      "queue": 420,
      "season": 11,
      "timestamp": 1528836004535,
      "role": "DUO_SUPPORT",
      "lane": "BOTTOM"
    },
    {
      "platformId": "EUN1",
      "gameId": 1982244800,
      "champion": 4,
      "queue": 420,
      "season": 11,
      "timestamp": 1528832653329,
      "role": "DUO",
      "lane": "TOP"
    },
    {
      "platformId": "EUN1",
      "gameId": 1982212790,
      "champion": 4,
      "queue": 420,
      "season": 11,
      "timestamp": 1528829192591,
      "role": "SOLO",
      "lane": "MID"
    },
    {
      "platformId": "EUN1",
      "gameId": 1982099874,
      "champion": 4,
      "queue": 420,
      "season": 11,
      "timestamp": 1528817956716,
      "role": "DUO",
      "lane": "MID"
    },
    {
      "platformId": "EUN1",
      "gameId": 1982092396,
      "champion": 4,
      "queue": 420,
      "season": 11,
      "timestamp": 1528815869425,
      "role": "SOLO",
      "lane": "MID"
    },
    {
      "platformId": "EUN1",
      "gameId": 1982024172,
      "champion": 4,
      "queue": 420,
      "season": 11,
      "timestamp": 1528808544029,
      "role": "SOLO",
      "lane": "TOP"
    },
    {
      "platformId": "EUN1",
      "gameId": 1982019195,
      "champion": 4,
      "queue": 420,
      "season": 11,
      "timestamp": 1528806422537,
      "role": "SOLO",
      "lane": "TOP"
    },
    {
      "platformId": "EUN1",
      "gameId": 1981913206,
      "champion": 4,
      "queue": 420,
      "season": 11,
      "timestamp": 1528803622454,
      "role": "DUO",
      "lane": "MID"
    },
    {
      "platformId": "EUN1",
      "gameId": 1979274759,
      "champion": 40,
      "queue": 420,
      "season": 11,
      "timestamp": 1528397421759,
      "role": "DUO_SUPPORT",
      "lane": "BOTTOM"
    },
    {
      "platformId": "EUN1",
      "gameId": 1976622790,
      "champion": 4,
      "queue": 420,
      "season": 11,
      "timestamp": 1528026245400,
      "role": "DUO_SUPPORT",
      "lane": "NONE"
    },
    {
      "platformId": "EUN1",
      "gameId": 1975372100,
      "champion": 4,
      "queue": 420,
      "season": 11,
      "timestamp": 1527876287806,
      "role": "DUO",
      "lane": "NONE"
    },
    {
      "platformId": "EUN1",
      "gameId": 1975324763,
      "champion": 25,
      "queue": 420,
      "season": 11,
      "timestamp": 1527874140161,
      "role": "DUO_SUPPORT",
      "lane": "BOTTOM"
    },
    {
      "platformId": "EUN1",
      "gameId": 1974896882,
      "champion": 4,
      "queue": 420,
      "season": 11,
      "timestamp": 1527802814144,
      "role": "SOLO",
      "lane": "MID"
    },
    {
      "platformId": "EUN1",
      "gameId": 1974856418,
      "champion": 4,
      "queue": 420,
      "season": 11,
      "timestamp": 1527799711744,
      "role": "NONE",
      "lane": "JUNGLE"
    },
    {
      "platformId": "EUN1",
      "gameId": 1971955234,
      "champion": 4,
      "queue": 420,
      "season": 11,
      "timestamp": 1527423689663,
      "role": "SOLO",
      "lane": "TOP"
    },
    {
      "platformId": "EUN1",
      "gameId": 1971866547,
      "champion": 25,
      "queue": 420,
      "season": 11,
      "timestamp": 1527421819998,
      "role": "DUO_SUPPORT",
      "lane": "BOTTOM"
    },
    {
      "platformId": "EUN1",
      "gameId": 1971495200,
      "champion": 4,
      "queue": 420,
      "season": 11,
      "timestamp": 1527365583699,
      "role": "DUO_CARRY",
      "lane": "BOTTOM"
    },
    {
      "platformId": "EUN1",
      "gameId": 1971464314,
      "champion": 4,
      "queue": 420,
      "season": 11,
      "timestamp": 1527362983872,
      "role": "DUO_CARRY",
      "lane": "BOTTOM"
    },
    {
      "platformId": "EUN1",
      "gameId": 1971467298,
      "champion": 4,
      "queue": 420,
      "season": 11,
      "timestamp": 1527361389583,
      "role": "DUO_SUPPORT",
      "lane": "NONE"
    },
    {
      "platformId": "EUN1",
      "gameId": 1971396590,
      "champion": 4,
      "queue": 420,
      "season": 11,
      "timestamp": 1527358629191,
      "role": "SOLO",
      "lane": "MID"
    },
    {
      "platformId": "EUN1",
      "gameId": 1971389428,
      "champion": 4,
      "queue": 420,
      "season": 11,
      "timestamp": 1527357029748,
      "role": "DUO_SUPPORT",
      "lane": "NONE"
    },
    {
      "platformId": "EUN1",
      "gameId": 1971377319,
      "champion": 40,
      "queue": 420,
      "season": 11,
      "timestamp": 1527354430176,
      "role": "DUO_SUPPORT",
      "lane": "BOTTOM"
    },
    {
      "platformId": "EUN1",
      "gameId": 1967773678,
      "champion": 86,
      "queue": 420,
      "season": 11,
      "timestamp": 1526808083696,
      "role": "SOLO",
      "lane": "TOP"
    },
    {
      "platformId": "EUN1",
      "gameId": 1967749584,
      "champion": 19,
      "queue": 420,
      "season": 11,
      "timestamp": 1526805756868,
      "role": "NONE",
      "lane": "JUNGLE"
    },
    {
      "platformId": "EUN1",
      "gameId": 1966476606,
      "champion": 12,
      "queue": 420,
      "season": 11,
      "timestamp": 1526592497083,
      "role": "DUO_SUPPORT",
      "lane": "MID"
    },
    {
      "platformId": "EUN1",
      "gameId": 1966462059,
      "champion": 4,
      "queue": 420,
      "season": 11,
      "timestamp": 1526589830827,
      "role": "SOLO",
      "lane": "TOP"
    },
    {
      "platformId": "EUN1",
      "gameId": 1966436799,
      "champion": 86,
      "queue": 420,
      "season": 11,
      "timestamp": 1526587767055,
      "role": "SOLO",
      "lane": "TOP"
    },
    {
      "platformId": "EUN1",
      "gameId": 1966430405,
      "champion": 4,
      "queue": 420,
      "season": 11,
      "timestamp": 1526585472564,
      "role": "DUO",
      "lane": "TOP"
    },
    {
      "platformId": "EUN1",
      "gameId": 1966413603,
      "champion": 4,
      "queue": 420,
      "season": 11,
      "timestamp": 1526583632797,
      "role": "DUO_SUPPORT",
      "lane": "NONE"
    },
    {
      "platformId": "EUN1",
      "gameId": 1966390872,
      "champion": 4,
      "queue": 420,
      "season": 11,
      "timestamp": 1526579738299,
      "role": "SOLO",
      "lane": "TOP"
    },
    {
      "platformId": "EUN1",
      "gameId": 1966363533,
      "champion": 25,
      "queue": 420,
      "season": 11,
      "timestamp": 1526577391235,
      "role": "SOLO",
      "lane": "MID"
    },
    {
      "platformId": "EUN1",
      "gameId": 1966327533,
      "champion": 4,
      "queue": 420,
      "season": 11,
      "timestamp": 1526574945115,
      "role": "NONE",
      "lane": "JUNGLE"
    },
    {
      "platformId": "EUN1",
      "gameId": 1965931510,
      "champion": 4,
      "queue": 420,
      "season": 11,
      "timestamp": 1526502208933,
      "role": "SOLO",
      "lane": "TOP"
    },
    {
      "platformId": "EUN1",
      "gameId": 1965904924,
      "champion": 4,
      "queue": 420,
      "season": 11,
      "timestamp": 1526499685797,
      "role": "SOLO",
      "lane": "TOP"
    },
    {
      "platformId": "EUN1",
      "gameId": 1965861900,
      "champion": 4,
      "queue": 420,
      "season": 11,
      "timestamp": 1526495186136,
      "role": "DUO",
      "lane": "TOP"
    },
    {
      "platformId": "EUN1",
      "gameId": 1965856748,
      "champion": 4,
      "queue": 420,
      "season": 11,
      "timestamp": 1526493616379,
      "role": "DUO",
      "lane": "NONE"
    },
    {
      "platformId": "EUN1",
      "gameId": 1965820128,
      "champion": 4,
      "queue": 420,
      "season": 11,
      "timestamp": 1526487775414,
      "role": "DUO",
      "lane": "TOP"
    },
    {
      "platformId": "EUN1",
      "gameId": 1965393170,
      "champion": 40,
      "queue": 420,
      "season": 11,
      "timestamp": 1526416456248,
      "role": "SOLO",
      "lane": "BOTTOM"
    },
    {
      "platformId": "EUN1",
      "gameId": 1965391253,
      "champion": 4,
      "queue": 420,
      "season": 11,
      "timestamp": 1526415645039,
      "role": "DUO",
      "lane": "NONE"
    },
    {
      "platformId": "EUN1",
      "gameId": 1965375071,
      "champion": 4,
      "queue": 420,
      "season": 11,
      "timestamp": 1526413703008,
      "role": "SOLO",
      "lane": "MID"
    },
    {
      "platformId": "EUN1",
      "gameId": 1965347385,
      "champion": 4,
      "queue": 420,
      "season": 11,
      "timestamp": 1526410715902,
      "role": "SOLO",
      "lane": "MID"
    },
    {
      "platformId": "EUN1",
      "gameId": 1960339607,
      "champion": 4,
      "queue": 420,
      "season": 11,
      "timestamp": 1525560490632,
      "role": "SOLO",
      "lane": "MID"
    },
    {
      "platformId": "EUN1",
      "gameId": 1960333002,
      "champion": 40,
      "queue": 420,
      "season": 11,
      "timestamp": 1525557452978,
      "role": "DUO_SUPPORT",
      "lane": "BOTTOM"
    },
    {
      "platformId": "EUN1",
      "gameId": 1960286864,
      "champion": 25,
      "queue": 420,
      "season": 11,
      "timestamp": 1525554801133,
      "role": "DUO_SUPPORT",
      "lane": "BOTTOM"
    },
    {
      "platformId": "EUN1",
      "gameId": 1960255843,
      "champion": 25,
      "queue": 420,
      "season": 11,
      "timestamp": 1525551169221,
      "role": "DUO_SUPPORT",
      "lane": "BOTTOM"
    },
    {
      "platformId": "EUN1",
      "gameId": 1959238579,
      "champion": 4,
      "queue": 420,
      "season": 11,
      "timestamp": 1525376689034,
      "role": "SOLO",
      "lane": "MID"
    },
    {
      "platformId": "EUN1",
      "gameId": 1959210673,
      "champion": 4,
      "queue": 420,
      "season": 11,
      "timestamp": 1525374275060,
      "role": "SOLO",
      "lane": "MID"
    },
    {
      "platformId": "EUN1",
      "gameId": 1958902292,
      "champion": 25,
      "queue": 420,
      "season": 11,
      "timestamp": 1525357192299,
      "role": "DUO_SUPPORT",
      "lane": "BOTTOM"
    },
    {
      "platformId": "EUN1",
      "gameId": 1958735356,
      "champion": 25,
      "queue": 420,
      "season": 11,
      "timestamp": 1525300802219,
      "role": "DUO_SUPPORT",
      "lane": "BOTTOM"
    },
    {
      "platformId": "EUN1",
      "gameId": 1958732713,
      "champion": 4,
      "queue": 420,
      "season": 11,
      "timestamp": 1525298926077,
      "role": "DUO",
      "lane": "NONE"
    },
    {
      "platformId": "EUN1",
      "gameId": 1958738218,
      "champion": 4,
      "queue": 420,
      "season": 11,
      "timestamp": 1525296494906,
      "role": "SOLO",
      "lane": "MID"
    },
    {
      "platformId": "EUN1",
      "gameId": 1958703555,
      "champion": 19,
      "queue": 420,
      "season": 11,
      "timestamp": 1525294212333,
      "role": "NONE",
      "lane": "JUNGLE"
    },
    {
      "platformId": "EUN1",
      "gameId": 1957075575,
      "champion": 4,
      "queue": 420,
      "season": 11,
      "timestamp": 1525079096746,
      "role": "SOLO",
      "lane": "MID"
    },
    {
      "platformId": "EUN1",
      "gameId": 1957061796,
      "champion": 25,
      "queue": 420,
      "season": 11,
      "timestamp": 1525076651483,
      "role": "DUO_SUPPORT",
      "lane": "BOTTOM"
    },
    {
      "platformId": "EUN1",
      "gameId": 1956991439,
      "champion": 4,
      "queue": 420,
      "season": 11,
      "timestamp": 1525039902468,
      "role": "SOLO",
      "lane": "MID"
    },
    {
      "platformId": "EUN1",
      "gameId": 1956986488,
      "champion": 4,
      "queue": 420,
      "season": 11,
      "timestamp": 1525037634902,
      "role": "DUO",
      "lane": "TOP"
    },
    {
      "platformId": "EUN1",
      "gameId": 1956961723,
      "champion": 4,
      "queue": 420,
      "season": 11,
      "timestamp": 1525035166313,
      "role": "SOLO",
      "lane": "MID"
    },
    {
      "platformId": "EUN1",
      "gameId": 1956955041,
      "champion": 25,
      "queue": 420,
      "season": 11,
      "timestamp": 1525032960384,
      "role": "DUO_SUPPORT",
      "lane": "BOTTOM"
    },
    {
      "platformId": "EUN1",
      "gameId": 1956928693,
      "champion": 4,
      "queue": 420,
      "season": 11,
      "timestamp": 1525030524039,
      "role": "SOLO",
      "lane": "MID"
    },
    {
      "platformId": "EUN1",
      "gameId": 1956332843,
      "champion": 4,
      "queue": 420,
      "season": 11,
      "timestamp": 1524945529586,
      "role": "SOLO",
      "lane": "MID"
    },
    {
      "platformId": "EUN1",
      "gameId": 1956306665,
      "champion": 4,
      "queue": 420,
      "season": 11,
      "timestamp": 1524943397683,
      "role": "SOLO",
      "lane": "MID"
    },
    {
      "platformId": "EUN1",
      "gameId": 1954388643,
      "champion": 40,
      "queue": 420,
      "season": 11,
      "timestamp": 1524605174281,
      "role": "DUO_SUPPORT",
      "lane": "BOTTOM"
    },
    {
      "platformId": "EUN1",
      "gameId": 1954315083,
      "champion": 25,
      "queue": 420,
      "season": 11,
      "timestamp": 1524603266531,
      "role": "DUO_SUPPORT",
      "lane": "TOP"
    },
    {
      "platformId": "EUN1",
      "gameId": 1954311956,
      "champion": 37,
      "queue": 420,
      "season": 11,
      "timestamp": 1524601634738,
      "role": "DUO_SUPPORT",
      "lane": "BOTTOM"
    },
    {
      "platformId": "EUN1",
      "gameId": 1954298766,
      "champion": 40,
      "queue": 420,
      "season": 11,
      "timestamp": 1524600043229,
      "role": "DUO_SUPPORT",
      "lane": "NONE"
    },
    {
      "platformId": "EUN1",
      "gameId": 1953038860,
      "champion": 4,
      "queue": 420,
      "season": 11,
      "timestamp": 1524355375345,
      "role": "SOLO",
      "lane": "MID"
    },
    {
      "platformId": "EUN1",
      "gameId": 1952956137,
      "champion": 40,
      "queue": 420,
      "season": 11,
      "timestamp": 1524352332008,
      "role": "DUO_SUPPORT",
      "lane": "BOTTOM"
    },
    {
      "platformId": "EUN1",
      "gameId": 1952972817,
      "champion": 40,
      "queue": 420,
      "season": 11,
      "timestamp": 1524350302696,
      "role": "DUO_SUPPORT",
      "lane": "BOTTOM"
    },
    {
      "platformId": "EUN1",
      "gameId": 1952957977,
      "champion": 25,
      "queue": 420,
      "season": 11,
      "timestamp": 1524347470804,
      "role": "DUO_SUPPORT",
      "lane": "BOTTOM"
    },
    {
      "platformId": "EUN1",
      "gameId": 1952759194,
      "champion": 4,
      "queue": 420,
      "season": 11,
      "timestamp": 1524333221536,
      "role": "SOLO",
      "lane": "MID"
    },
    {
      "platformId": "EUN1",
      "gameId": 1950950387,
      "champion": 4,
      "queue": 420,
      "season": 11,
      "timestamp": 1524005731215,
      "role": "DUO",
      "lane": "MID"
    },
    {
      "platformId": "EUN1",
      "gameId": 1950931056,
      "champion": 40,
      "queue": 420,
      "season": 11,
      "timestamp": 1524004379262,
      "role": "DUO_SUPPORT",
      "lane": "NONE"
    },
    {
      "platformId": "EUN1",
      "gameId": 1950928601,
      "champion": 25,
      "queue": 420,
      "season": 11,
      "timestamp": 1524002230381,
      "role": "SOLO",
      "lane": "BOTTOM"
    },
    {
      "platformId": "EUN1",
      "gameId": 1950905487,
      "champion": 37,
      "queue": 420,
      "season": 11,
      "timestamp": 1524000144425,
      "role": "DUO_SUPPORT",
      "lane": "BOTTOM"
    },
    {
      "platformId": "EUN1",
      "gameId": 1950875815,
      "champion": 40,
      "queue": 420,
      "season": 11,
      "timestamp": 1523995500020,
      "role": "DUO_SUPPORT",
      "lane": "BOTTOM"
    },
    {
      "platformId": "EUN1",
      "gameId": 1950845397,
      "champion": 25,
      "queue": 420,
      "season": 11,
      "timestamp": 1523991868770,
      "role": "DUO_SUPPORT",
      "lane": "BOTTOM"
    },
    {
      "platformId": "EUN1",
      "gameId": 1950429621,
      "champion": 25,
      "queue": 420,
      "season": 11,
      "timestamp": 1523913925291,
      "role": "DUO_SUPPORT",
      "lane": "BOTTOM"
    },
    {
      "platformId": "EUN1",
      "gameId": 1950414171,
      "champion": 37,
      "queue": 420,
      "season": 11,
      "timestamp": 1523911315014,
      "role": "DUO_SUPPORT",
      "lane": "BOTTOM"
    },
    {
      "platformId": "EUN1",
      "gameId": 1950069028,
      "champion": 40,
      "queue": 420,
      "season": 11,
      "timestamp": 1523825798091,
      "role": "DUO_SUPPORT",
      "lane": "BOTTOM"
    },
    {
      "platformId": "EUN1",
      "gameId": 1950041986,
      "champion": 25,
      "queue": 420,
      "season": 11,
      "timestamp": 1523822662234,
      "role": "DUO_SUPPORT",
      "lane": "BOTTOM"
    },
    {
      "platformId": "EUN1",
      "gameId": 1949954537,
      "champion": 4,
      "queue": 420,
      "season": 11,
      "timestamp": 1523816248653,
      "role": "SOLO",
      "lane": "MID"
    },
    {
      "platformId": "EUN1",
      "gameId": 1949929265,
      "champion": 4,
      "queue": 420,
      "season": 11,
      "timestamp": 1523812174828,
      "role": "SOLO",
      "lane": "MID"
    },
    {
      "platformId": "EUN1",
      "gameId": 1949872887,
      "champion": 4,
      "queue": 420,
      "season": 11,
      "timestamp": 1523809432045,
      "role": "SOLO",
      "lane": "MID"
    },
    {
      "platformId": "EUN1",
      "gameId": 1949812515,
      "champion": 40,
      "queue": 420,
      "season": 11,
      "timestamp": 1523806561578,
      "role": "DUO_SUPPORT",
      "lane": "BOTTOM"
    },
    {
      "platformId": "EUN1",
      "gameId": 1949798106,
      "champion": 25,
      "queue": 420,
      "season": 11,
      "timestamp": 1523804355123,
      "role": "DUO_SUPPORT",
      "lane": "BOTTOM"
    },
    {
      "platformId": "EUN1",
      "gameId": 1949700392,
      "champion": 40,
      "queue": 420,
      "season": 11,
      "timestamp": 1523801669741,
      "role": "DUO_SUPPORT",
      "lane": "BOTTOM"
    }
  ],
  "startIndex": 0,
  "endIndex": 100,
  "totalGames": 476
}