{
  "matches": [
    {
      "platformId": "EUN1",
      "gameId": 1973285126,
      "champion": 516,
      "queue": 420,
      "season": 11,
      "timestamp": 1527607316363,
      "role": "SOLO",
      "lane": "TOP"
    },
    {
      "platformId": "EUN1",
      "gameId": 1973260803,
      "champion": 55,
      "queue": 420,
      "season": 11,
      "timestamp": 1527601457726,
      "role": "DUO",
      "lane": "MID"
    },
    {
      "platformId": "EUN1",
      "gameId": 1973117480,
      "champion": 55,
      "queue": 420,
      "season": 11,
      "timestamp": 1527548272860,
      "role": "SOLO",
      "lane": "MID"
    },
    {
      "platformId": "EUN1",
      "gameId": 1973064994,
      "champion": 55,
      "queue": 420,
      "season": 11,
      "timestamp": 1527546348261,
      "role": "SOLO",
      "lane": "MID"
    },
    {
      "platformId": "EUN1",
      "gameId": 1972976356,
      "champion": 55,
      "queue": 420,
      "season": 11,
      "timestamp": 1527541291276,
      "role": "SOLO",
      "lane": "MID"
    },
    {
      "platformId": "EUN1",
      "gameId": 1972957101,
      "champion": 55,
      "queue": 420,
      "season": 11,
      "timestamp": 1527537509671,
      "role": "SOLO",
      "lane": "MID"
    },
    {
      "platformId": "EUN1",
      "gameId": 1972890933,
      "champion": 39,
      "queue": 420,
      "season": 11,
      "timestamp": 1527535397924,
      "role": "SOLO",
      "lane": "TOP"
    },
    {
      "platformId": "EUN1",
      "gameId": 1972814363,
      "champion": 164,
      "queue": 420,
      "season": 11,
      "timestamp": 1527526962184,
      "role": "SOLO",
      "lane": "TOP"
    },
    {
      "platformId": "EUN1",
      "gameId": 1972799450,
      "champion": 43,
      "queue": 420,
      "season": 11,
      "timestamp": 1527525114562,
      "role": "SOLO",
      "lane": "MID"
    },
    {
      "platformId": "EUN1",
      "gameId": 1972782931,
      "champion": 99,
      "queue": 420,
      "season": 11,
      "timestamp": 1527522737014,
      "role": "SOLO",
      "lane": "MID"
    },
    {
      "platformId": "EUN1",
      "gameId": 1972745953,
      "champion": 55,
      "queue": 420,
      "season": 11,
      "timestamp": 1527520080250,
      "role": "SOLO",
      "lane": "MID"
    },
    {
      "platformId": "EUN1",
      "gameId": 1972723624,
      "champion": 55,
      "queue": 420,
      "season": 11,
      "timestamp": 1527515333216,
      "role": "SOLO",
      "lane": "MID"
    },
    {
      "platformId": "EUN1",
      "gameId": 1972684724,
      "champion": 127,
      "queue": 420,
      "season": 11,
      "timestamp": 1527511460146,
      "role": "SOLO",
      "lane": "MID"
    },
    {
      "platformId": "EUN1",
      "gameId": 1972582624,
      "champion": 55,
      "queue": 420,
      "season": 11,
      "timestamp": 1527464332072,
      "role": "SOLO",
      "lane": "MID"
    },
    {
      "platformId": "EUN1",
      "gameId": 1972557292,
      "champion": 163,
      "queue": 420,
      "season": 11,
      "timestamp": 1527461184722,
      "role": "DUO",
      "lane": "MID"
    },
    {
      "platformId": "EUN1",
      "gameId": 1972477723,
      "champion": 43,
      "queue": 420,
      "season": 11,
      "timestamp": 1527452573136,
      "role": "SOLO",
      "lane": "MID"
    },
    {
      "platformId": "EUN1",
      "gameId": 1972281514,
      "champion": 39,
      "queue": 420,
      "season": 11,
      "timestamp": 1527439744080,
      "role": "SOLO",
      "lane": "TOP"
    },
    {
      "platformId": "EUN1",
      "gameId": 1972193874,
      "champion": 55,
      "queue": 420,
      "season": 11,
      "timestamp": 1527433954035,
      "role": "SOLO",
      "lane": "MID"
    },
    {
      "platformId": "EUN1",
      "gameId": 1971612829,
      "champion": 163,
      "queue": 420,
      "season": 11,
      "timestamp": 1527375268138,
      "role": "SOLO",
      "lane": "MID"
    },
    {
      "platformId": "EUN1",
      "gameId": 1971207423,
      "champion": 55,
      "queue": 420,
      "season": 11,
      "timestamp": 1527342368953,
      "role": "DUO_SUPPORT",
      "lane": "NONE"
    },
    {
      "platformId": "EUN1",
      "gameId": 1970536707,
      "champion": 142,
      "queue": 420,
      "season": 11,
      "timestamp": 1527261689752,
      "role": "SOLO",
      "lane": "MID"
    },
    {
      "platformId": "EUN1",
      "gameId": 1970309173,
      "champion": 55,
      "queue": 420,
      "season": 11,
      "timestamp": 1527193884497,
      "role": "SOLO",
      "lane": "MID"
    },
    {
      "platformId": "EUN1",
      "gameId": 1969249097,
      "champion": 161,
      "queue": 420,
      "season": 11,
      "timestamp": 1527028294078,
      "role": "SOLO",
      "lane": "MID"
    },
    {
      "platformId": "EUN1",
      "gameId": 1968861217,
      "champion": 55,
      "queue": 420,
      "season": 11,
      "timestamp": 1526998715815,
      "role": "SOLO",
      "lane": "MID"
    },
    {
      "platformId": "EUN1",
      "gameId": 1968789704,
      "champion": 55,
      "queue": 420,
      "season": 11,
      "timestamp": 1526981035702,
      "role": "SOLO",
      "lane": "MID"
    },
    {
      "platformId": "EUN1",
      "gameId": 1968718184,
      "champion": 55,
      "queue": 420,
      "season": 11,
      "timestamp": 1526939431932,
      "role": "SOLO",
      "lane": "TOP"
    },
    {
      "platformId": "EUN1",
      "gameId": 1968085513,
      "champion": 55,
      "queue": 420,
      "season": 11,
      "timestamp": 1526845946498,
      "role": "SOLO",
      "lane": "MID"
    },
    {
      "platformId": "EUN1",
      "gameId": 1967505614,
      "champion": 39,
      "queue": 420,
      "season": 11,
      "timestamp": 1526765495578,
      "role": "SOLO",
      "lane": "TOP"
    },
    {
      "platformId": "EUN1",
      "gameId": 1967350676,
      "champion": 161,
      "queue": 420,
      "season": 11,
      "timestamp": 1526746469781,
      "role": "DUO_SUPPORT",
      "lane": "NONE"
    },
    {
      "platformId": "EUN1",
      "gameId": 1967246480,
      "champion": 164,
      "queue": 420,
      "season": 11,
      "timestamp": 1526737261635,
      "role": "DUO",
      "lane": "NONE"
    },
    {
      "platformId": "EUN1",
      "gameId": 1967210617,
      "champion": 55,
      "queue": 420,
      "season": 11,
      "timestamp": 1526731373872,
      "role": "SOLO",
      "lane": "MID"
    },
    {
      "platformId": "EUN1",
      "gameId": 1966996031,
      "champion": 99,
      "queue": 420,
      "season": 11,
      "timestamp": 1526681589634,
      "role": "SOLO",
      "lane": "MID"
    },
    {
      "platformId": "EUN1",
      "gameId": 1966799755,
      "champion": 25,
      "queue": 420,
      "season": 11,
      "timestamp": 1526669614012,
      "role": "DUO_SUPPORT",
      "lane": "BOTTOM"
    },
    {
      "platformId": "EUN1",
      "gameId": 1966782756,
      "champion": 55,
      "queue": 420,
      "season": 11,
      "timestamp": 1526667440982,
      "role": "SOLO",
      "lane": "MID"
    },
    {
      "platformId": "EUN1",
      "gameId": 1966693968,
      "champion": 163,
      "queue": 420,
      "season": 11,
      "timestamp": 1526656813925,
      "role": "SOLO",
      "lane": "MID"
    },
    {
      "platformId": "EUN1",
      "gameId": 1966642769,
      "champion": 98,
      "queue": 420,
      "season": 11,
      "timestamp": 1526652102332,
      "role": "SOLO",
      "lane": "TOP"
    },
    {
      "platformId": "EUN1",
      "gameId": 1966637528,
      "champion": 164,
      "queue": 420,
      "season": 11,
      "timestamp": 1526650035299,
      "role": "SOLO",
      "lane": "TOP"
    },
    {
      "platformId": "EUN1",
      "gameId": 1966470139,
      "champion": 39,
      "queue": 420,
      "season": 11,
      "timestamp": 1526589419018,
      "role": "SOLO",
      "lane": "TOP"
    },
    {
      "platformId": "EUN1",
      "gameId": 1966418799,
      "champion": 39,
      "queue": 420,
      "season": 11,
      "timestamp": 1526582211361,
      "role": "SOLO",
      "lane": "MID"
    },
    {
      "platformId": "EUN1",
      "gameId": 1966345102,
      "champion": 10,
      "queue": 420,
      "season": 11,
      "timestamp": 1526577820588,
      "role": "SOLO",
      "lane": "TOP"
    },
    {
      "platformId": "EUN1",
      "gameId": 1966339437,
      "champion": 55,
      "queue": 420,
      "season": 11,
      "timestamp": 1526575900415,
      "role": "SOLO",
      "lane": "MID"
    },
    {
      "platformId": "EUN1",
      "gameId": 1966075702,
      "champion": 55,
      "queue": 420,
      "season": 11,
      "timestamp": 1526562788297,
      "role": "SOLO",
      "lane": "MID"
    },
    {
      "platformId": "EUN1",
      "gameId": 1966081217,
      "champion": 55,
      "queue": 420,
      "season": 11,
      "timestamp": 1526560941061,
      "role": "SOLO",
      "lane": "MID"
    },
    {
      "platformId": "EUN1",
      "gameId": 1966046917,
      "champion": 39,
      "queue": 420,
      "season": 11,
      "timestamp": 1526558495939,
      "role": "SOLO",
      "lane": "TOP"
    },
    {
      "platformId": "EUN1",
      "gameId": 1965929317,
      "champion": 39,
      "queue": 420,
      "season": 11,
      "timestamp": 1526501263731,
      "role": "SOLO",
      "lane": "TOP"
    },
    {
      "platformId": "EUN1",
      "gameId": 1965750505,
      "champion": 55,
      "queue": 420,
      "season": 11,
      "timestamp": 1526479468693,
      "role": "SOLO",
      "lane": "MID"
    },
    {
      "platformId": "EUN1",
      "gameId": 1965418315,
      "champion": 55,
      "queue": 420,
      "season": 11,
      "timestamp": 1526418848493,
      "role": "SOLO",
      "lane": "MID"
    },
    {
      "platformId": "EUN1",
      "gameId": 1965402328,
      "champion": 55,
      "queue": 420,
      "season": 11,
      "timestamp": 1526416497363,
      "role": "SOLO",
      "lane": "MID"
    },
    {
      "platformId": "EUN1",
      "gameId": 1965361785,
      "champion": 39,
      "queue": 420,
      "season": 11,
      "timestamp": 1526412241110,
      "role": "SOLO",
      "lane": "TOP"
    },
    {
      "platformId": "EUN1",
      "gameId": 1965276207,
      "champion": 39,
      "queue": 420,
      "season": 11,
      "timestamp": 1526404237555,
      "role": "SOLO",
      "lane": "TOP"
    },
    {
      "platformId": "EUN1",
      "gameId": 1965261716,
      "champion": 420,
      "queue": 420,
      "season": 11,
      "timestamp": 1526402558827,
      "role": "SOLO",
      "lane": "TOP"
    },
    {
      "platformId": "EUN1",
      "gameId": 1965131624,
      "champion": 39,
      "queue": 420,
      "season": 11,
      "timestamp": 1526378319494,
      "role": "SOLO",
      "lane": "TOP"
    },
    {
      "platformId": "EUN1",
      "gameId": 1965117554,
      "champion": 39,
      "queue": 420,
      "season": 11,
      "timestamp": 1526373149037,
      "role": "NONE",
      "lane": "JUNGLE"
    },
    {
      "platformId": "EUN1",
      "gameId": 1964976413,
      "champion": 114,
      "queue": 420,
      "season": 11,
      "timestamp": 1526332947080,
      "role": "SOLO",
      "lane": "TOP"
    },
    {
      "platformId": "EUN1",
      "gameId": 1964973364,
      "champion": 55,
      "queue": 420,
      "season": 11,
      "timestamp": 1526331305265,
      "role": "DUO_SUPPORT",
      "lane": "NONE"
    },
    {
      "platformId": "EUN1",
      "gameId": 1964859776,
      "champion": 164,
      "queue": 420,
      "season": 11,
      "timestamp": 1526325844623,
      "role": "SOLO",
      "lane": "TOP"
    },
    {
      "platformId": "EUN1",
      "gameId": 1964808582,
      "champion": 39,
      "queue": 420,
      "season": 11,
      "timestamp": 1526322274811,
      "role": "SOLO",
      "lane": "TOP"
    },
    {
      "platformId": "EUN1",
      "gameId": 1964782084,
      "champion": 86,
      "queue": 420,
      "season": 11,
      "timestamp": 1526320277023,
      "role": "SOLO",
      "lane": "TOP"
    },
    {
      "platformId": "EUN1",
      "gameId": 1964771633,
      "champion": 50,
      "queue": 420,
      "season": 11,
      "timestamp": 1526317158379,
      "role": "SOLO",
      "lane": "MID"
    },
    {
      "platformId": "EUN1",
      "gameId": 1964542800,
      "champion": 39,
      "queue": 420,
      "season": 11,
      "timestamp": 1526249549390,
      "role": "SOLO",
      "lane": "TOP"
    },
    {
      "platformId": "EUN1",
      "gameId": 1964525555,
      "champion": 55,
      "queue": 420,
      "season": 11,
      "timestamp": 1526244855885,
      "role": "SOLO",
      "lane": "MID"
    },
    {
      "platformId": "EUN1",
      "gameId": 1964446100,
      "champion": 12,
      "queue": 420,
      "season": 11,
      "timestamp": 1526235215539,
      "role": "DUO_SUPPORT",
      "lane": "NONE"
    },
    {
      "platformId": "EUN1",
      "gameId": 1964431318,
      "champion": 39,
      "queue": 420,
      "season": 11,
      "timestamp": 1526233327951,
      "role": "SOLO",
      "lane": "TOP"
    },
    {
      "platformId": "EUN1",
      "gameId": 1964306795,
      "champion": 55,
      "queue": 420,
      "season": 11,
      "timestamp": 1526222045015,
      "role": "SOLO",
      "lane": "MID"
    },
    {
      "platformId": "EUN1",
      "gameId": 1964121439,
      "champion": 39,
      "queue": 420,
      "season": 11,
      "timestamp": 1526212868204,
      "role": "SOLO",
      "lane": "TOP"
    },
    {
      "platformId": "EUN1",
      "gameId": 1964086657,
      "champion": 39,
      "queue": 420,
      "season": 11,
      "timestamp": 1526211045835,
      "role": "SOLO",
      "lane": "TOP"
    },
    {
      "platformId": "EUN1",
      "gameId": 1963916551,
      "champion": 39,
      "queue": 420,
      "season": 11,
      "timestamp": 1526162107253,
      "role": "SOLO",
      "lane": "TOP"
    },
    {
      "platformId": "EUN1",
      "gameId": 1963921224,
      "champion": 39,
      "queue": 420,
      "season": 11,
      "timestamp": 1526160124038,
      "role": "DUO",
      "lane": "TOP"
    },
    {
      "platformId": "EUN1",
      "gameId": 1963191447,
      "champion": 6,
      "queue": 420,
      "season": 11,
      "timestamp": 1526061454013,
      "role": "SOLO",
      "lane": "TOP"
    },
    {
      "platformId": "EUN1",
      "gameId": 1963175213,
      "champion": 78,
      "queue": 420,
      "season": 11,
      "timestamp": 1526059634767,
      "role": "SOLO",
      "lane": "TOP"
    },
    {
      "platformId": "EUN1",
      "gameId": 1962892983,
      "champion": 39,
      "queue": 420,
      "season": 11,
      "timestamp": 1525984793804,
      "role": "SOLO",
      "lane": "TOP"
    },
    {
      "platformId": "EUN1",
      "gameId": 1962897872,
      "champion": 39,
      "queue": 420,
      "season": 11,
      "timestamp": 1525982907919,
      "role": "SOLO",
      "lane": "TOP"
    },
    {
      "platformId": "EUN1",
      "gameId": 1962829344,
      "champion": 55,
      "queue": 420,
      "season": 11,
      "timestamp": 1525979816826,
      "role": "SOLO",
      "lane": "MID"
    },
    {
      "platformId": "EUN1",
      "gameId": 1962723085,
      "champion": 39,
      "queue": 420,
      "season": 11,
      "timestamp": 1525977778364,
      "role": "SOLO",
      "lane": "TOP"
    },
    {
      "platformId": "EUN1",
      "gameId": 1962394410,
      "champion": 39,
      "queue": 420,
      "season": 11,
      "timestamp": 1525900352576,
      "role": "SOLO",
      "lane": "TOP"
    },
    {
      "platformId": "EUN1",
      "gameId": 1962246144,
      "champion": 39,
      "queue": 420,
      "season": 11,
      "timestamp": 1525882899584,
      "role": "NONE",
      "lane": "JUNGLE"
    },
    {
      "platformId": "EUN1",
      "gameId": 1961873069,
      "champion": 55,
      "queue": 420,
      "season": 11,
      "timestamp": 1525812735038,
      "role": "SOLO",
      "lane": "MID"
    },
    {
      "platformId": "EUN1",
      "gameId": 1961868192,
      "champion": 39,
      "queue": 420,
      "season": 11,
      "timestamp": 1525810588113,
      "role": "SOLO",
      "lane": "TOP"
    },
    {
      "platformId": "EUN1",
      "gameId": 1961832256,
      "champion": 55,
      "queue": 420,
      "season": 11,
      "timestamp": 1525805417644,
      "role": "SOLO",
      "lane": "MID"
    },
    {
      "platformId": "EUN1",
      "gameId": 1961652529,
      "champion": 39,
      "queue": 420,
      "season": 11,
      "timestamp": 1525786677529,
      "role": "SOLO",
      "lane": "TOP"
    },
    {
      "platformId": "EUN1",
      "gameId": 1961482527,
      "champion": 164,
      "queue": 420,
      "season": 11,
      "timestamp": 1525730357335,
      "role": "SOLO",
      "lane": "TOP"
    },
    {
      "platformId": "EUN1",
      "gameId": 1961498161,
      "champion": 39,
      "queue": 420,
      "season": 11,
      "timestamp": 1525728211159,
      "role": "SOLO",
      "lane": "TOP"
    },
    {
      "platformId": "EUN1",
      "gameId": 1961302786,
      "champion": 43,
      "queue": 420,
      "season": 11,
      "timestamp": 1525715833623,
      "role": "DUO_SUPPORT",
      "lane": "BOTTOM"
    },
    {
      "platformId": "EUN1",
      "gameId": 1961194978,
      "champion": 420,
      "queue": 420,
      "season": 11,
      "timestamp": 1525713075996,
      "role": "DUO",
      "lane": "TOP"
    },
    {
      "platformId": "EUN1",
      "gameId": 1961083581,
      "champion": 55,
      "queue": 420,
      "season": 11,
      "timestamp": 1525696665197,
      "role": "SOLO",
      "lane": "MID"
    },
    {
      "platformId": "EUN1",
      "gameId": 1960954028,
      "champion": 114,
      "queue": 420,
      "season": 11,
      "timestamp": 1525644731393,
      "role": "SOLO",
      "lane": "TOP"
    },
    {
      "platformId": "EUN1",
      "gameId": 1960959043,
      "champion": 39,
      "queue": 420,
      "season": 11,
      "timestamp": 1525642145748,
      "role": "SOLO",
      "lane": "TOP"
    },
    {
      "platformId": "EUN1",
      "gameId": 1960909918,
      "champion": 39,
      "queue": 420,
      "season": 11,
      "timestamp": 1525637753811,
      "role": "SOLO",
      "lane": "TOP"
    },
    {
      "platformId": "EUN1",
      "gameId": 1960904278,
      "champion": 163,
      "queue": 420,
      "season": 11,
      "timestamp": 1525635998511,
      "role": "SOLO",
      "lane": "MID"
    },
    {
      "platformId": "EUN1",
      "gameId": 1960877417,
      "champion": 55,
      "queue": 420,
      "season": 11,
      "timestamp": 1525633527702,
      "role": "DUO",
      "lane": "MID"
    },
    {
      "platformId": "EUN1",
      "gameId": 1960852084,
      "champion": 134,
      "queue": 420,
      "season": 11,
      "timestamp": 1525631838829,
      "role": "DUO_SUPPORT",
      "lane": "NONE"
    },
    {
      "platformId": "EUN1",
      "gameId": 1960812499,
      "champion": 127,
      "queue": 420,
      "season": 11,
      "timestamp": 1525625910421,
      "role": "DUO",
      "lane": "NONE"
    },
    {
      "platformId": "EUN1",
      "gameId": 1960766093,
      "champion": 39,
      "queue": 420,
      "season": 11,
      "timestamp": 1525623567070,
      "role": "SOLO",
      "lane": "TOP"
    },
    {
      "platformId": "EUN1",
      "gameId": 1960757942,
      "champion": 75,
      "queue": 420,
      "season": 11,
      "timestamp": 1525620710121,
      "role": "SOLO",
      "lane": "TOP"
    },
    {
      "platformId": "EUN1",
      "gameId": 1960750190,
      "champion": 134,
      "queue": 420,
      "season": 11,
      "timestamp": 1525618215967,
      "role": "SOLO",
      "lane": "MID"
    },
    {
      "platformId": "EUN1",
      "gameId": 1960668348,
      "champion": 55,
      "queue": 420,
      "season": 11,
      "timestamp": 1525610364099,
      "role": "DUO_SUPPORT",
      "lane": "NONE"
    },
    {
      "platformId": "EUN1",
      "gameId": 1960298454,
      "champion": 39,
      "queue": 420,
      "season": 11,
      "timestamp": 1525552184738,
      "role": "DUO",
      "lane": "NONE"
    },
    {
      "platformId": "EUN1",
      "gameId": 1960263810,
      "champion": 39,
      "queue": 420,
      "season": 11,
      "timestamp": 1525550497514,
      "role": "DUO_SUPPORT",
      "lane": "NONE"
    },
    {
      "platformId": "EUN1",
      "gameId": 1960069359,
      "champion": 10,
      "queue": 420,
      "season": 11,
      "timestamp": 1525527969444,
      "role": "SOLO",
      "lane": "TOP"
    },
    {
      "platformId": "EUN1",
      "gameId": 1959977812,
      "champion": 55,
      "queue": 420,
      "season": 11,
      "timestamp": 1525515886277,
      "role": "SOLO",
      "lane": "MID"
    }
  ],
  "startIndex": 100,
  "endIndex": 200,
  "totalGames": 2608
}