{
  "matches": [
    {
      "platformId": "EUN1",
      "gameId": 1926821501,
      "champion": 24,
      "queue": 420,
      "season": 11,
      "timestamp": 1520683546588,
      "role": "NONE",
      "lane": "JUNGLE"
    },
    {
      "platformId": "EUN1",
      "gameId": 1926318078,
      "champion": 497,
      "queue": 420,
      "season": 11,
      "timestamp": 1520619135310,
      "role": "DUO_SUPPORT",
      "lane": "BOTTOM"
    },
    {
      "platformId": "EUN1",
      "gameId": 1926280773,
      "champion": 497,
      "queue": 420,
      "season": 11,
      "timestamp": 1520617060392,
      "role": "DUO_SUPPORT",
      "lane": "BOTTOM"
    },
    {
      "platformId": "EUN1",
      "gameId": 1926249063,
      "champion": 497,
      "queue": 420,
      "season": 11,
      "timestamp": 1520613683492,
      "role": "DUO_SUPPORT",
      "lane": "BOTTOM"
    },
    {
      "platformId": "EUN1",
      "gameId": 1926221896,
      "champion": 43,
      "queue": 420,
      "season": 11,
      "timestamp": 1520611568990,
      "role": "DUO_SUPPORT",
      "lane": "BOTTOM"
    },
    {
      "platformId": "EUN1",
      "gameId": 1923468977,
      "champion": 68,
      "queue": 420,
      "season": 11,
      "timestamp": 1520217476071,
      "role": "NONE",
      "lane": "JUNGLE"
    },
    {
      "platformId": "EUN1",
      "gameId": 1923477762,
      "champion": 48,
      "queue": 420,
      "season": 11,
      "timestamp": 1520214766227,
      "role": "SOLO",
      "lane": "TOP"
    },
    {
      "platformId": "EUN1",
      "gameId": 1923465511,
      "champion": 110,
      "queue": 420,
      "season": 11,
      "timestamp": 1520212245850,
      "role": "DUO_CARRY",
      "lane": "BOTTOM"
    },
    {
      "platformId": "EUN1",
      "gameId": 1923463466,
      "champion": 78,
      "queue": 420,
      "season": 11,
      "timestamp": 1520209145595,
      "role": "SOLO",
      "lane": "TOP"
    },
    {
      "platformId": "EUN1",
      "gameId": 1923453203,
      "champion": 48,
      "queue": 420,
      "season": 11,
      "timestamp": 1520207704259,
      "role": "DUO_SUPPORT",
      "lane": "NONE"
    },
    {
      "platformId": "EUN1",
      "gameId": 1923441182,
      "champion": 14,
      "queue": 420,
      "season": 11,
      "timestamp": 1520205679987,
      "role": "SOLO",
      "lane": "TOP"
    },
    {
      "platformId": "EUN1",
      "gameId": 1923437435,
      "champion": 126,
      "queue": 420,
      "season": 11,
      "timestamp": 1520203181154,
      "role": "DUO",
      "lane": "MID"
    },
    {
      "platformId": "EUN1",
      "gameId": 1923416225,
      "champion": 110,
      "queue": 420,
      "season": 11,
      "timestamp": 1520202479212,
      "role": "DUO",
      "lane": "NONE"
    },
    {
      "platformId": "EUN1",
      "gameId": 1923412218,
      "champion": 48,
      "queue": 420,
      "season": 11,
      "timestamp": 1520200572847,
      "role": "DUO",
      "lane": "MID"
    },
    {
      "platformId": "EUN1",
      "gameId": 1911715656,
      "champion": 24,
      "queue": 420,
      "season": 11,
      "timestamp": 1518799598754,
      "role": "NONE",
      "lane": "JUNGLE"
    },
    {
      "platformId": "EUN1",
      "gameId": 1911654789,
      "champion": 24,
      "queue": 420,
      "season": 11,
      "timestamp": 1518796847619,
      "role": "NONE",
      "lane": "JUNGLE"
    },
    {
      "platformId": "EUN1",
      "gameId": 1911616290,
      "champion": 24,
      "queue": 420,
      "season": 11,
      "timestamp": 1518794219018,
      "role": "NONE",
      "lane": "JUNGLE"
    },
    {
      "platformId": "EUN1",
      "gameId": 1904584879,
      "champion": 20,
      "queue": 420,
      "season": 11,
      "timestamp": 1517958787076,
      "role": "NONE",
      "lane": "JUNGLE"
    },
    {
      "platformId": "EUN1",
      "gameId": 1904542712,
      "champion": 102,
      "queue": 420,
      "season": 11,
      "timestamp": 1517953679120,
      "role": "NONE",
      "lane": "JUNGLE"
    },
    {
      "platformId": "EUN1",
      "gameId": 1904376033,
      "champion": 20,
      "queue": 420,
      "season": 11,
      "timestamp": 1517941409382,
      "role": "NONE",
      "lane": "JUNGLE"
    },
    {
      "platformId": "EUN1",
      "gameId": 1904345434,
      "champion": 20,
      "queue": 420,
      "season": 11,
      "timestamp": 1517938702320,
      "role": "NONE",
      "lane": "JUNGLE"
    },
    {
      "platformId": "EUN1",
      "gameId": 1904334055,
      "champion": 20,
      "queue": 420,
      "season": 11,
      "timestamp": 1517936288521,
      "role": "NONE",
      "lane": "JUNGLE"
    },
    {
      "platformId": "EUN1",
      "gameId": 1904305628,
      "champion": 154,
      "queue": 420,
      "season": 11,
      "timestamp": 1517933868264,
      "role": "NONE",
      "lane": "JUNGLE"
    },
    {
      "platformId": "EUN1",
      "gameId": 1902924653,
      "champion": 154,
      "queue": 420,
      "season": 11,
      "timestamp": 1517757806498,
      "role": "NONE",
      "lane": "JUNGLE"
    },
    {
      "platformId": "EUN1",
      "gameId": 1902895688,
      "champion": 154,
      "queue": 420,
      "season": 11,
      "timestamp": 1517755582068,
      "role": "NONE",
      "lane": "JUNGLE"
    },
    {
      "platformId": "EUN1",
      "gameId": 1901343688,
      "champion": 102,
      "queue": 420,
      "season": 11,
      "timestamp": 1517589176215,
      "role": "NONE",
      "lane": "JUNGLE"
    },
    {
      "platformId": "EUN1",
      "gameId": 1901327705,
      "champion": 5,
      "queue": 420,
      "season": 11,
      "timestamp": 1517587400465,
      "role": "NONE",
      "lane": "JUNGLE"
    },
    {
      "platformId": "EUN1",
      "gameId": 1900212112,
      "champion": 121,
      "queue": 420,
      "season": 11,
      "timestamp": 1517436911993,
      "role": "NONE",
      "lane": "JUNGLE"
    },
    {
      "platformId": "EUN1",
      "gameId": 1900175680,
      "champion": 54,
      "queue": 420,
      "season": 11,
      "timestamp": 1517434202489,
      "role": "SOLO",
      "lane": "TOP"
    },
    {
      "platformId": "EUN1",
      "gameId": 1900116505,
      "champion": 20,
      "queue": 420,
      "season": 11,
      "timestamp": 1517428855706,
      "role": "NONE",
      "lane": "JUNGLE"
    },
    {
      "platformId": "EUN1",
      "gameId": 1900084271,
      "champion": 20,
      "queue": 420,
      "season": 11,
      "timestamp": 1517425941868,
      "role": "NONE",
      "lane": "JUNGLE"
    },
    {
      "platformId": "EUN1",
      "gameId": 1900054531,
      "champion": 20,
      "queue": 420,
      "season": 11,
      "timestamp": 1517423698268,
      "role": "NONE",
      "lane": "JUNGLE"
    },
    {
      "platformId": "EUN1",
      "gameId": 1900018017,
      "champion": 20,
      "queue": 420,
      "season": 11,
      "timestamp": 1517419708226,
      "role": "NONE",
      "lane": "JUNGLE"
    },
    {
      "platformId": "EUN1",
      "gameId": 1899939315,
      "champion": 20,
      "queue": 420,
      "season": 11,
      "timestamp": 1517417417985,
      "role": "NONE",
      "lane": "JUNGLE"
    },
    {
      "platformId": "EUN1",
      "gameId": 1899821113,
      "champion": 20,
      "queue": 420,
      "season": 11,
      "timestamp": 1517415014409,
      "role": "NONE",
      "lane": "JUNGLE"
    },
    {
      "platformId": "EUN1",
      "gameId": 1899804073,
      "champion": 20,
      "queue": 420,
      "season": 11,
      "timestamp": 1517413034571,
      "role": "NONE",
      "lane": "JUNGLE"
    },
    {
      "platformId": "EUN1",
      "gameId": 1899778733,
      "champion": 20,
      "queue": 420,
      "season": 11,
      "timestamp": 1517411257522,
      "role": "NONE",
      "lane": "JUNGLE"
    },
    {
      "platformId": "EUN1",
      "gameId": 1899581317,
      "champion": 20,
      "queue": 420,
      "season": 11,
      "timestamp": 1517353581295,
      "role": "NONE",
      "lane": "JUNGLE"
    },
    {
      "platformId": "EUN1",
      "gameId": 1899556799,
      "champion": 20,
      "queue": 420,
      "season": 11,
      "timestamp": 1517351439686,
      "role": "NONE",
      "lane": "JUNGLE"
    },
    {
      "platformId": "EUN1",
      "gameId": 1899562321,
      "champion": 154,
      "queue": 420,
      "season": 11,
      "timestamp": 1517349671515,
      "role": "NONE",
      "lane": "JUNGLE"
    },
    {
      "platformId": "EUN1",
      "gameId": 1899516747,
      "champion": 154,
      "queue": 420,
      "season": 11,
      "timestamp": 1517347597354,
      "role": "NONE",
      "lane": "JUNGLE"
    },
    {
      "platformId": "EUN1",
      "gameId": 1899509698,
      "champion": 20,
      "queue": 420,
      "season": 11,
      "timestamp": 1517345448499,
      "role": "NONE",
      "lane": "JUNGLE"
    },
    {
      "platformId": "EUN1",
      "gameId": 1899483879,
      "champion": 20,
      "queue": 420,
      "season": 11,
      "timestamp": 1517343910988,
      "role": "NONE",
      "lane": "JUNGLE"
    },
    {
      "platformId": "EUN1",
      "gameId": 1899475360,
      "champion": 20,
      "queue": 420,
      "season": 11,
      "timestamp": 1517341881586,
      "role": "NONE",
      "lane": "JUNGLE"
    },
    {
      "platformId": "EUN1",
      "gameId": 1899447416,
      "champion": 20,
      "queue": 420,
      "season": 11,
      "timestamp": 1517339943142,
      "role": "NONE",
      "lane": "JUNGLE"
    },
    {
      "platformId": "EUN1",
      "gameId": 1899404644,
      "champion": 98,
      "queue": 420,
      "season": 11,
      "timestamp": 1517337068693,
      "role": "SOLO",
      "lane": "TOP"
    },
    {
      "platformId": "EUN1",
      "gameId": 1898947254,
      "champion": 20,
      "queue": 420,
      "season": 11,
      "timestamp": 1517274015980,
      "role": "NONE",
      "lane": "JUNGLE"
    },
    {
      "platformId": "EUN1",
      "gameId": 1898915842,
      "champion": 20,
      "queue": 420,
      "season": 11,
      "timestamp": 1517271930583,
      "role": "NONE",
      "lane": "JUNGLE"
    },
    {
      "platformId": "EUN1",
      "gameId": 1898931059,
      "champion": 20,
      "queue": 420,
      "season": 11,
      "timestamp": 1517269043353,
      "role": "NONE",
      "lane": "JUNGLE"
    },
    {
      "platformId": "EUN1",
      "gameId": 1898918394,
      "champion": 20,
      "queue": 420,
      "season": 11,
      "timestamp": 1517267083501,
      "role": "NONE",
      "lane": "JUNGLE"
    },
    {
      "platformId": "EUN1",
      "gameId": 1898885216,
      "champion": 20,
      "queue": 420,
      "season": 11,
      "timestamp": 1517265255188,
      "role": "NONE",
      "lane": "JUNGLE"
    },
    {
      "platformId": "EUN1",
      "gameId": 1893890734,
      "champion": 59,
      "queue": 420,
      "season": 11,
      "timestamp": 1516705365308,
      "role": "NONE",
      "lane": "JUNGLE"
    },
    {
      "platformId": "EUN1",
      "gameId": 1893865261,
      "champion": 113,
      "queue": 420,
      "season": 11,
      "timestamp": 1516701496428,
      "role": "NONE",
      "lane": "JUNGLE"
    },
    {
      "platformId": "EUN1",
      "gameId": 1893853639,
      "champion": 19,
      "queue": 420,
      "season": 11,
      "timestamp": 1516699948394,
      "role": "NONE",
      "lane": "JUNGLE"
    },
    {
      "platformId": "EUN1",
      "gameId": 1893871740,
      "champion": 154,
      "queue": 420,
      "season": 11,
      "timestamp": 1516698584610,
      "role": "NONE",
      "lane": "JUNGLE"
    },
    {
      "platformId": "EUN1",
      "gameId": 1893686423,
      "champion": 102,
      "queue": 420,
      "season": 11,
      "timestamp": 1516651157972,
      "role": "NONE",
      "lane": "JUNGLE"
    },
    {
      "platformId": "EUN1",
      "gameId": 1891774551,
      "champion": 154,
      "queue": 420,
      "season": 11,
      "timestamp": 1516459146671,
      "role": "NONE",
      "lane": "JUNGLE"
    },
    {
      "platformId": "EUN1",
      "gameId": 1891744846,
      "champion": 102,
      "queue": 420,
      "season": 11,
      "timestamp": 1516456861328,
      "role": "NONE",
      "lane": "JUNGLE"
    },
    {
      "platformId": "EUN1",
      "gameId": 1891734853,
      "champion": 33,
      "queue": 420,
      "season": 11,
      "timestamp": 1516454720886,
      "role": "NONE",
      "lane": "JUNGLE"
    },
    {
      "platformId": "EUN1",
      "gameId": 1891727665,
      "champion": 57,
      "queue": 420,
      "season": 11,
      "timestamp": 1516452966759,
      "role": "SOLO",
      "lane": "TOP"
    },
    {
      "platformId": "EUN1",
      "gameId": 1891691974,
      "champion": 102,
      "queue": 420,
      "season": 11,
      "timestamp": 1516451306775,
      "role": "NONE",
      "lane": "JUNGLE"
    },
    {
      "platformId": "EUN1",
      "gameId": 1891664241,
      "champion": 102,
      "queue": 420,
      "season": 11,
      "timestamp": 1516449250991,
      "role": "NONE",
      "lane": "JUNGLE"
    },
    {
      "platformId": "EUN1",
      "gameId": 1891575519,
      "champion": 102,
      "queue": 420,
      "season": 11,
      "timestamp": 1516439308285,
      "role": "NONE",
      "lane": "JUNGLE"
    },
    {
      "platformId": "EUN1",
      "gameId": 1890747094,
      "champion": 102,
      "queue": 420,
      "season": 11,
      "timestamp": 1516316091556,
      "role": "NONE",
      "lane": "JUNGLE"
    },
    {
      "platformId": "EUN1",
      "gameId": 1890374402,
      "champion": 102,
      "queue": 420,
      "season": 11,
      "timestamp": 1516296957355,
      "role": "NONE",
      "lane": "JUNGLE"
    },
    {
      "platformId": "EUN1",
      "gameId": 1890356088,
      "champion": 102,
      "queue": 420,
      "season": 11,
      "timestamp": 1516295278885,
      "role": "NONE",
      "lane": "JUNGLE"
    },
    {
      "platformId": "EUN1",
      "gameId": 1890316011,
      "champion": 102,
      "queue": 420,
      "season": 11,
      "timestamp": 1516292386210,
      "role": "NONE",
      "lane": "JUNGLE"
    },
    {
      "platformId": "EUN1",
      "gameId": 1890307387,
      "champion": 102,
      "queue": 420,
      "season": 11,
      "timestamp": 1516290121768,
      "role": "NONE",
      "lane": "JUNGLE"
    },
    {
      "platformId": "EUN1",
      "gameId": 1890070740,
      "champion": 102,
      "queue": 420,
      "season": 11,
      "timestamp": 1516230117553,
      "role": "NONE",
      "lane": "JUNGLE"
    },
    {
      "platformId": "EUN1",
      "gameId": 1890054750,
      "champion": 102,
      "queue": 420,
      "season": 11,
      "timestamp": 1516227765532,
      "role": "NONE",
      "lane": "JUNGLE"
    },
    {
      "platformId": "EUN1",
      "gameId": 1889440095,
      "champion": 54,
      "queue": 420,
      "season": 11,
      "timestamp": 1516164432124,
      "role": "SOLO",
      "lane": "TOP"
    },
    {
      "platformId": "EUN1",
      "gameId": 1889439586,
      "champion": 43,
      "queue": 420,
      "season": 11,
      "timestamp": 1516162177845,
      "role": "DUO_SUPPORT",
      "lane": "BOTTOM"
    },
    {
      "platformId": "EUN1",
      "gameId": 1889429049,
      "champion": 113,
      "queue": 420,
      "season": 11,
      "timestamp": 1516159900532,
      "role": "NONE",
      "lane": "JUNGLE"
    },
    {
      "platformId": "EUN1",
      "gameId": 1889428542,
      "champion": 59,
      "queue": 420,
      "season": 11,
      "timestamp": 1516158185740,
      "role": "NONE",
      "lane": "JUNGLE"
    },
    {
      "platformId": "EUN1",
      "gameId": 1889426329,
      "champion": 102,
      "queue": 420,
      "season": 11,
      "timestamp": 1516155846101,
      "role": "NONE",
      "lane": "JUNGLE"
    },
    {
      "platformId": "EUN1",
      "gameId": 1884375234,
      "champion": 154,
      "queue": 420,
      "season": 10,
      "timestamp": 1515446328952,
      "role": "NONE",
      "lane": "JUNGLE"
    },
    {
      "platformId": "EUN1",
      "gameId": 1884379431,
      "champion": 57,
      "queue": 420,
      "season": 10,
      "timestamp": 1515444593304,
      "role": "SOLO",
      "lane": "TOP"
    },
    {
      "platformId": "EUN1",
      "gameId": 1879959514,
      "champion": 33,
      "queue": 420,
      "season": 10,
      "timestamp": 1514857883940,
      "role": "NONE",
      "lane": "JUNGLE"
    },
    {
      "platformId": "EUN1",
      "gameId": 1874396158,
      "champion": 33,
      "queue": 420,
      "season": 10,
      "timestamp": 1514226095743,
      "role": "NONE",
      "lane": "JUNGLE"
    },
    {
      "platformId": "EUN1",
      "gameId": 1874367071,
      "champion": 33,
      "queue": 420,
      "season": 10,
      "timestamp": 1514224045926,
      "role": "NONE",
      "lane": "JUNGLE"
    },
    {
      "platformId": "EUN1",
      "gameId": 1867062501,
      "champion": 107,
      "queue": 420,
      "season": 10,
      "timestamp": 1513380718637,
      "role": "NONE",
      "lane": "JUNGLE"
    },
    {
      "platformId": "EUN1",
      "gameId": 1867058088,
      "champion": 107,
      "queue": 420,
      "season": 10,
      "timestamp": 1513378871128,
      "role": "NONE",
      "lane": "JUNGLE"
    },
    {
      "platformId": "EUN1",
      "gameId": 1867021541,
      "champion": 5,
      "queue": 420,
      "season": 10,
      "timestamp": 1513376643186,
      "role": "NONE",
      "lane": "JUNGLE"
    },
    {
      "platformId": "EUN1",
      "gameId": 1866960801,
      "champion": 113,
      "queue": 420,
      "season": 10,
      "timestamp": 1513373812935,
      "role": "NONE",
      "lane": "JUNGLE"
    },
    {
      "platformId": "EUN1",
      "gameId": 1866862280,
      "champion": 57,
      "queue": 420,
      "season": 10,
      "timestamp": 1513370149135,
      "role": "SOLO",
      "lane": "TOP"
    },
    {
      "platformId": "EUN1",
      "gameId": 1866299973,
      "champion": 113,
      "queue": 420,
      "season": 10,
      "timestamp": 1513294667131,
      "role": "NONE",
      "lane": "JUNGLE"
    },
    {
      "platformId": "EUN1",
      "gameId": 1866287133,
      "champion": 113,
      "queue": 420,
      "season": 10,
      "timestamp": 1513291804140,
      "role": "NONE",
      "lane": "JUNGLE"
    },
    {
      "platformId": "EUN1",
      "gameId": 1866233101,
      "champion": 113,
      "queue": 420,
      "season": 10,
      "timestamp": 1513289847178,
      "role": "NONE",
      "lane": "JUNGLE"
    },
    {
      "platformId": "EUN1",
      "gameId": 1866125815,
      "champion": 43,
      "queue": 420,
      "season": 10,
      "timestamp": 1513286920459,
      "role": "DUO_SUPPORT",
      "lane": "BOTTOM"
    },
    {
      "platformId": "EUN1",
      "gameId": 1866178056,
      "champion": 113,
      "queue": 420,
      "season": 10,
      "timestamp": 1513285186148,
      "role": "NONE",
      "lane": "JUNGLE"
    },
    {
      "platformId": "EUN1",
      "gameId": 1865602331,
      "champion": 33,
      "queue": 420,
      "season": 10,
      "timestamp": 1513200282501,
      "role": "NONE",
      "lane": "JUNGLE"
    },
    {
      "platformId": "EUN1",
      "gameId": 1865511018,
      "champion": 33,
      "queue": 420,
      "season": 10,
      "timestamp": 1513197005107,
      "role": "NONE",
      "lane": "JUNGLE"
    },
    {
      "platformId": "EUN1",
      "gameId": 1862124046,
      "champion": 60,
      "queue": 420,
      "season": 10,
      "timestamp": 1512772552338,
      "role": "NONE",
      "lane": "JUNGLE"
    },
    {
      "platformId": "EUN1",
      "gameId": 1859769938,
      "champion": 33,
      "queue": 420,
      "season": 10,
      "timestamp": 1512427299001,
      "role": "NONE",
      "lane": "JUNGLE"
    },
    {
      "platformId": "EUN1",
      "gameId": 1859754260,
      "champion": 33,
      "queue": 420,
      "season": 10,
      "timestamp": 1512425106881,
      "role": "NONE",
      "lane": "JUNGLE"
    },
    {
      "platformId": "EUN1",
      "gameId": 1859747233,
      "champion": 33,
      "queue": 420,
      "season": 10,
      "timestamp": 1512422431142,
      "role": "NONE",
      "lane": "JUNGLE"
    },
    {
      "platformId": "EUN1",
      "gameId": 1856778145,
      "champion": 33,
      "queue": 420,
      "season": 10,
      "timestamp": 1512082031284,
      "role": "NONE",
      "lane": "JUNGLE"
    },
    {
      "platformId": "EUN1",
      "gameId": 1856154374,
      "champion": 5,
      "queue": 420,
      "season": 10,
      "timestamp": 1512006964950,
      "role": "NONE",
      "lane": "JUNGLE"
    },
    {
      "platformId": "EUN1",
      "gameId": 1856124859,
      "champion": 33,
      "queue": 420,
      "season": 10,
      "timestamp": 1512003477801,
      "role": "NONE",
      "lane": "JUNGLE"
    },
    {
      "platformId": "EUN1",
      "gameId": 1856150443,
      "champion": 40,
      "queue": 420,
      "season": 10,
      "timestamp": 1512001032505,
      "role": "DUO_SUPPORT",
      "lane": "BOTTOM"
    }
  ],
  "startIndex": 100,
  "endIndex": 200,
  "totalGames": 878
}