{
    "1766167297": 1766167297, 
    "1767556960": 1767556960, 
    "1767565313": 1767565313, 
    "1767693152": 1767693152, 
    "1767696696": 1767696696, 
    "1767701231": 1767701231, 
    "1767842876": 1767842876, 
    "1767869354": 1767869354, 
    "1767908694": 1767908694, 
    "1767920634": 1767920634, 
    "1767935362": 1767935362, 
    "1767969429": 1767969429, 
    "1768088335": 1768088335, 
    "1768321053": 1768321053, 
    "1768339243": 1768339243, 
    "1768342010": 1768342010, 
    "1768344122": 1768344122, 
    "1772543239": 1772543239, 
    "1772555184": 1772555184, 
    "1775852853": 1775852853, 
    "1778009727": 1778009727, 
    "1781757812": 1781757812, 
    "1783117406": 1783117406, 
    "1785753158": 1785753158, 
    "1789155040": 1789155040, 
    "1789414425": 1789414425, 
    "1789468189": 1789468189, 
    "1789482138": 1789482138, 
    "1789495813": 1789495813, 
    "1789520971": 1789520971, 
    "1789553536": 1789553536, 
    "1789588491": 1789588491, 
    "1790729012": 1790729012, 
    "1790733796": 1790733796, 
    "1790746610": 1790746610, 
    "1791463850": 1791463850, 
    "1791513585": 1791513585, 
    "1791526737": 1791526737, 
    "1791562709": 1791562709, 
    "1794560012": 1794560012, 
    "1794607745": 1794607745, 
    "1794626776": 1794626776, 
    "1795079409": 1795079409, 
    "1795082274": 1795082274, 
    "1795147793": 1795147793, 
    "1795162169": 1795162169, 
    "1796948121": 1796948121, 
    "1797055887": 1797055887, 
    "1798326355": 1798326355, 
    "1802259239": 1802259239, 
    "1818635345": 1818635345, 
    "1826926716": 1826926716, 
    "1826945979": 1826945979, 
    "1826972196": 1826972196, 
    "1827022813": 1827022813, 
    "1827064172": 1827064172, 
    "1827806866": 1827806866, 
    "1827811961": 1827811961, 
    "1834847186": 1834847186, 
    "1856124859": 1856124859, 
    "1856150443": 1856150443, 
    "1856154374": 1856154374, 
    "1856778145": 1856778145, 
    "1859747233": 1859747233, 
    "1859754260": 1859754260, 
    "1859769938": 1859769938, 
    "1862124046": 1862124046, 
    "1865511018": 1865511018, 
    "1865602331": 1865602331, 
    "1866125815": 1866125815, 
    "1866178056": 1866178056, 
    "1866233101": 1866233101, 
    "1866287133": 1866287133, 
    "1866299973": 1866299973, 
    "1866862280": 1866862280, 
    "1866960801": 1866960801, 
    "1867021541": 1867021541, 
    "1867058088": 1867058088, 
    "1867062501": 1867062501, 
    "1874367071": 1874367071, 
    "1874396158": 1874396158, 
    "1879959514": 1879959514, 
    "1884375234": 1884375234, 
    "1884379431": 1884379431, 
    "1889058686": 1889058686, 
    "1889087735": 1889087735, 
    "1889095701": 1889095701, 
    "1889149748": 1889149748, 
    "1889157466": 1889157466, 
    "1889176232": 1889176232, 
    "1889205144": 1889205144, 
    "1889236836": 1889236836, 
    "1889266414": 1889266414, 
    "1889318008": 1889318008, 
    "1889426329": 1889426329, 
    "1889428542": 1889428542, 
    "1889429049": 1889429049, 
    "1889439586": 1889439586, 
    "1889440095": 1889440095, 
    "1889594416": 1889594416, 
    "1889630752": 1889630752, 
    "1889649972": 1889649972, 
    "1890054750": 1890054750, 
    "1890070740": 1890070740, 
    "1890121321": 1890121321, 
    "1890151091": 1890151091, 
    "1890166603": 1890166603, 
    "1890201489": 1890201489, 
    "1890206898": 1890206898, 
    "1890224378": 1890224378, 
    "1890231517": 1890231517, 
    "1890250478": 1890250478, 
    "1890278720": 1890278720, 
    "1890286359": 1890286359, 
    "1890307387": 1890307387, 
    "1890316011": 1890316011, 
    "1890322043": 1890322043, 
    "1890356088": 1890356088, 
    "1890374402": 1890374402, 
    "1890747094": 1890747094, 
    "1890872315": 1890872315, 
    "1890877840": 1890877840, 
    "1890900719": 1890900719, 
    "1891384362": 1891384362, 
    "1891441389": 1891441389, 
    "1891468394": 1891468394, 
    "1891575519": 1891575519, 
    "1891632654": 1891632654, 
    "1891664241": 1891664241, 
    "1891668418": 1891668418, 
    "1891691974": 1891691974, 
    "1891727665": 1891727665, 
    "1891730696": 1891730696, 
    "1891734853": 1891734853, 
    "1891744846": 1891744846, 
    "1891774551": 1891774551, 
    "1893686423": 1893686423, 
    "1893853639": 1893853639, 
    "1893865261": 1893865261, 
    "1893871740": 1893871740, 
    "1893890734": 1893890734, 
    "1896100533": 1896100533, 
    "1896141004": 1896141004, 
    "1896150919": 1896150919, 
    "1896785542": 1896785542, 
    "1896799293": 1896799293, 
    "1896829999": 1896829999, 
    "1896838147": 1896838147, 
    "1897058411": 1897058411, 
    "1897076676": 1897076676, 
    "1897161002": 1897161002, 
    "1897291877": 1897291877, 
    "1897340888": 1897340888, 
    "1898885216": 1898885216, 
    "1898915842": 1898915842, 
    "1898918394": 1898918394, 
    "1898931059": 1898931059, 
    "1898947254": 1898947254, 
    "1899404644": 1899404644, 
    "1899447416": 1899447416, 
    "1899475360": 1899475360, 
    "1899483879": 1899483879, 
    "1899509698": 1899509698, 
    "1899516747": 1899516747, 
    "1899556799": 1899556799, 
    "1899562321": 1899562321, 
    "1899581317": 1899581317, 
    "1899778733": 1899778733, 
    "1899804073": 1899804073, 
    "1899821113": 1899821113, 
    "1899939315": 1899939315, 
    "1900018017": 1900018017, 
    "1900054531": 1900054531, 
    "1900084271": 1900084271, 
    "1900116505": 1900116505, 
    "1900175680": 1900175680, 
    "1900212112": 1900212112, 
    "1900446810": 1900446810, 
    "1900513087": 1900513087, 
    "1900751591": 1900751591, 
    "1901197888": 1901197888, 
    "1901327705": 1901327705, 
    "1901343688": 1901343688, 
    "1901409991": 1901409991, 
    "1902895688": 1902895688, 
    "1902924653": 1902924653, 
    "1904305628": 1904305628, 
    "1904334055": 1904334055, 
    "1904345434": 1904345434, 
    "1904376033": 1904376033, 
    "1904542712": 1904542712, 
    "1904584879": 1904584879, 
    "1905040704": 1905040704, 
    "1905067448": 1905067448, 
    "1905731939": 1905731939, 
    "1905775122": 1905775122, 
    "1906209377": 1906209377, 
    "1906249704": 1906249704, 
    "1906366322": 1906366322, 
    "1906380041": 1906380041, 
    "1906413116": 1906413116, 
    "1906420302": 1906420302, 
    "1907498190": 1907498190, 
    "1907516818": 1907516818, 
    "1911184111": 1911184111, 
    "1911212916": 1911212916, 
    "1911616290": 1911616290, 
    "1911654789": 1911654789, 
    "1911715656": 1911715656, 
    "1911890706": 1911890706, 
    "1913605903": 1913605903, 
    "1916093217": 1916093217, 
    "1917234423": 1917234423, 
    "1917250705": 1917250705, 
    "1917297728": 1917297728, 
    "1918014304": 1918014304, 
    "1918029729": 1918029729, 
    "1918031604": 1918031604, 
    "1923412218": 1923412218, 
    "1923416225": 1923416225, 
    "1923437435": 1923437435, 
    "1923441182": 1923441182, 
    "1923453203": 1923453203, 
    "1923463466": 1923463466, 
    "1923465511": 1923465511, 
    "1923468977": 1923468977, 
    "1923477762": 1923477762, 
    "1924621896": 1924621896, 
    "1924624403": 1924624403, 
    "1925982137": 1925982137, 
    "1926221896": 1926221896, 
    "1926249063": 1926249063, 
    "1926280773": 1926280773, 
    "1926318078": 1926318078, 
    "1926821501": 1926821501, 
    "1928273490": 1928273490, 
    "1929233207": 1929233207, 
    "1929237142": 1929237142, 
    "1929255553": 1929255553, 
    "1929901935": 1929901935, 
    "1929906074": 1929906074, 
    "1929940895": 1929940895, 
    "1929944028": 1929944028, 
    "1929968663": 1929968663, 
    "1929985958": 1929985958, 
    "1930000527": 1930000527, 
    "1930199143": 1930199143, 
    "1931099010": 1931099010, 
    "1931207994": 1931207994, 
    "1931263881": 1931263881, 
    "1931302537": 1931302537, 
    "1931320848": 1931320848, 
    "1931844434": 1931844434, 
    "1932024850": 1932024850, 
    "1932041648": 1932041648, 
    "1932069461": 1932069461, 
    "1932119459": 1932119459, 
    "1932178542": 1932178542, 
    "1932208454": 1932208454, 
    "1932210245": 1932210245, 
    "1932220622": 1932220622, 
    "1932239848": 1932239848, 
    "1932263400": 1932263400, 
    "1932654470": 1932654470, 
    "1932678985": 1932678985, 
    "1932684205": 1932684205, 
    "1932788410": 1932788410, 
    "1932812992": 1932812992, 
    "1932852685": 1932852685, 
    "1932889349": 1932889349, 
    "1932936355": 1932936355, 
    "1933394754": 1933394754, 
    "1933417048": 1933417048, 
    "1934116211": 1934116211, 
    "1934148309": 1934148309, 
    "1934152118": 1934152118, 
    "1934160961": 1934160961, 
    "1934234363": 1934234363, 
    "1934254498": 1934254498, 
    "1934298799": 1934298799, 
    "1934304556": 1934304556, 
    "1934455873": 1934455873, 
    "1934582103": 1934582103, 
    "1934597184": 1934597184, 
    "1934598547": 1934598547, 
    "1934599311": 1934599311, 
    "1934600165": 1934600165, 
    "1934604066": 1934604066, 
    "1934604725": 1934604725, 
    "1934607998": 1934607998, 
    "1934665395": 1934665395, 
    "1934691638": 1934691638, 
    "1934772504": 1934772504, 
    "1934813114": 1934813114, 
    "1934832915": 1934832915, 
    "1934851156": 1934851156, 
    "1934994533": 1934994533, 
    "1934999231": 1934999231, 
    "1935004690": 1935004690, 
    "1935253208": 1935253208, 
    "1935280674": 1935280674, 
    "1935299225": 1935299225, 
    "1935382166": 1935382166, 
    "1935634010": 1935634010, 
    "1935666709": 1935666709, 
    "1935678851": 1935678851, 
    "1935999133": 1935999133, 
    "1936030886": 1936030886, 
    "1936053895": 1936053895, 
    "1936525276": 1936525276, 
    "1936625020": 1936625020, 
    "1936652916": 1936652916, 
    "1936712499": 1936712499, 
    "1936761010": 1936761010, 
    "1936789608": 1936789608, 
    "1936817571": 1936817571, 
    "1936856846": 1936856846, 
    "1936862644": 1936862644, 
    "1936876548": 1936876548, 
    "1936904665": 1936904665, 
    "1937297236": 1937297236, 
    "1937329508": 1937329508, 
    "1937348352": 1937348352, 
    "1937348944": 1937348944, 
    "1937378247": 1937378247, 
    "1937394819": 1937394819, 
    "1937395286": 1937395286, 
    "1937413683": 1937413683, 
    "1937444009": 1937444009, 
    "1937451456": 1937451456, 
    "1937479866": 1937479866, 
    "1937497740": 1937497740, 
    "1937535276": 1937535276, 
    "1937536842": 1937536842, 
    "1937733970": 1937733970, 
    "1937791633": 1937791633, 
    "1937900010": 1937900010, 
    "1937943316": 1937943316, 
    "1937988526": 1937988526, 
    "1938008436": 1938008436, 
    "1938016610": 1938016610, 
    "1938184321": 1938184321, 
    "1938212943": 1938212943, 
    "1938217689": 1938217689, 
    "1938665886": 1938665886, 
    "1938679875": 1938679875, 
    "1938687339": 1938687339, 
    "1938766462": 1938766462, 
    "1938831214": 1938831214, 
    "1938849135": 1938849135, 
    "1938872992": 1938872992, 
    "1939408512": 1939408512, 
    "1939493631": 1939493631, 
    "1939519092": 1939519092, 
    "1939524088": 1939524088, 
    "1939559362": 1939559362, 
    "1939588951": 1939588951, 
    "1940196835": 1940196835, 
    "1940223558": 1940223558, 
    "1940237983": 1940237983, 
    "1940244520": 1940244520, 
    "1940547148": 1940547148, 
    "1940590295": 1940590295, 
    "1940609015": 1940609015, 
    "1940631814": 1940631814, 
    "1940639644": 1940639644, 
    "1940691721": 1940691721, 
    "1940715437": 1940715437, 
    "1940754155": 1940754155, 
    "1941285014": 1941285014, 
    "1941286503": 1941286503, 
    "1941303092": 1941303092, 
    "1941341406": 1941341406, 
    "1941451937": 1941451937, 
    "1941685800": 1941685800, 
    "1941723731": 1941723731, 
    "1941759631": 1941759631, 
    "1941781234": 1941781234, 
    "1941810565": 1941810565, 
    "1941850243": 1941850243, 
    "1942113274": 1942113274, 
    "1942129831": 1942129831, 
    "1942160657": 1942160657, 
    "1942282623": 1942282623, 
    "1942295837": 1942295837, 
    "1942320705": 1942320705, 
    "1942380284": 1942380284, 
    "1942401953": 1942401953, 
    "1942677663": 1942677663, 
    "1942693381": 1942693381, 
    "1942719680": 1942719680, 
    "1942862938": 1942862938, 
    "1942899290": 1942899290, 
    "1942938349": 1942938349, 
    "1942979379": 1942979379, 
    "1943016679": 1943016679, 
    "1943029606": 1943029606, 
    "1943162157": 1943162157, 
    "1943203582": 1943203582, 
    "1943230183": 1943230183, 
    "1943245687": 1943245687, 
    "1943281233": 1943281233, 
    "1943282053": 1943282053, 
    "1943286288": 1943286288, 
    "1943577512": 1943577512, 
    "1944310322": 1944310322, 
    "1944935144": 1944935144, 
    "1944994016": 1944994016, 
    "1945046121": 1945046121, 
    "1945094135": 1945094135, 
    "1945181592": 1945181592, 
    "1945966847": 1945966847, 
    "1946325758": 1946325758, 
    "1946386463": 1946386463, 
    "1946577489": 1946577489, 
    "1946692162": 1946692162, 
    "1947103119": 1947103119, 
    "1947382262": 1947382262, 
    "1947386638": 1947386638, 
    "1947703479": 1947703479, 
    "1947788849": 1947788849, 
    "1947897962": 1947897962, 
    "1947903805": 1947903805, 
    "1947907093": 1947907093, 
    "1947910395": 1947910395, 
    "1947915043": 1947915043, 
    "1947916817": 1947916817, 
    "1947929405": 1947929405, 
    "1948080042": 1948080042, 
    "1948104335": 1948104335, 
    "1948274300": 1948274300, 
    "1948378567": 1948378567, 
    "1949808026": 1949808026, 
    "1949888302": 1949888302, 
    "1949936224": 1949936224, 
    "1949943295": 1949943295, 
    "1950034901": 1950034901, 
    "1950038636": 1950038636, 
    "1950063528": 1950063528, 
    "1950069082": 1950069082, 
    "1950134337": 1950134337, 
    "1950401365": 1950401365, 
    "1950405971": 1950405971, 
    "1950422334": 1950422334, 
    "1950607937": 1950607937, 
    "1950711294": 1950711294, 
    "1950733095": 1950733095, 
    "1950738605": 1950738605, 
    "1950923166": 1950923166, 
    "1950926173": 1950926173, 
    "1951179586": 1951179586, 
    "1951187860": 1951187860, 
    "1951481324": 1951481324, 
    "1951789841": 1951789841, 
    "1951902227": 1951902227, 
    "1951917534": 1951917534, 
    "1951976643": 1951976643, 
    "1952034564": 1952034564, 
    "1952045431": 1952045431, 
    "1952049997": 1952049997, 
    "1952058111": 1952058111, 
    "1952063746": 1952063746, 
    "1952069517": 1952069517, 
    "1952085465": 1952085465, 
    "1952155782": 1952155782, 
    "1952170523": 1952170523, 
    "1952549648": 1952549648, 
    "1952564101": 1952564101, 
    "1952644721": 1952644721, 
    "1952679030": 1952679030, 
    "1953246783": 1953246783, 
    "1953374778": 1953374778, 
    "1953519828": 1953519828, 
    "1953521773": 1953521773, 
    "1953533628": 1953533628, 
    "1953535384": 1953535384, 
    "1953837917": 1953837917, 
    "1953895129": 1953895129, 
    "1953907935": 1953907935, 
    "1953942560": 1953942560, 
    "1954211590": 1954211590, 
    "1954569069": 1954569069, 
    "1954613179": 1954613179, 
    "1954615172": 1954615172, 
    "1954620089": 1954620089, 
    "1954621569": 1954621569, 
    "1954769232": 1954769232, 
    "1955573348": 1955573348, 
    "1955604634": 1955604634, 
    "1955630729": 1955630729, 
    "1955636089": 1955636089, 
    "1955654179": 1955654179, 
    "1955738640": 1955738640, 
    "1955746514": 1955746514, 
    "1955757257": 1955757257, 
    "1955765197": 1955765197, 
    "1955805473": 1955805473, 
    "1955811350": 1955811350, 
    "1955829899": 1955829899, 
    "1955850313": 1955850313, 
    "1955868505": 1955868505, 
    "1956183340": 1956183340, 
    "1956210586": 1956210586, 
    "1956240736": 1956240736, 
    "1956247202": 1956247202, 
    "1956251154": 1956251154, 
    "1956448494": 1956448494, 
    "1956891024": 1956891024, 
    "1956998055": 1956998055, 
    "1957071851": 1957071851, 
    "1957084292": 1957084292, 
    "1957845010": 1957845010, 
    "1958178254": 1958178254, 
    "1958477681": 1958477681, 
    "1958503308": 1958503308, 
    "1958513149": 1958513149, 
    "1958518219": 1958518219, 
    "1958701005": 1958701005, 
    "1958898105": 1958898105, 
    "1959977812": 1959977812, 
    "1960069359": 1960069359, 
    "1960187040": 1960187040, 
    "1960196371": 1960196371, 
    "1960241442": 1960241442, 
    "1960263810": 1960263810, 
    "1960298454": 1960298454, 
    "1960668348": 1960668348, 
    "1960750190": 1960750190, 
    "1960757942": 1960757942, 
    "1960766093": 1960766093, 
    "1960812499": 1960812499, 
    "1960852084": 1960852084, 
    "1960877417": 1960877417, 
    "1960904278": 1960904278, 
    "1960909918": 1960909918, 
    "1960954028": 1960954028, 
    "1960959043": 1960959043, 
    "1961083581": 1961083581, 
    "1961194978": 1961194978, 
    "1961302786": 1961302786, 
    "1961482527": 1961482527, 
    "1961498161": 1961498161, 
    "1961574732": 1961574732, 
    "1961652529": 1961652529, 
    "1961832256": 1961832256, 
    "1961868192": 1961868192, 
    "1961873069": 1961873069, 
    "1961891214": 1961891214, 
    "1961980875": 1961980875, 
    "1961987812": 1961987812, 
    "1962098670": 1962098670, 
    "1962246144": 1962246144, 
    "1962394410": 1962394410, 
    "1962420339": 1962420339, 
    "1962432246": 1962432246, 
    "1962718048": 1962718048, 
    "1962723085": 1962723085, 
    "1962817781": 1962817781, 
    "1962829344": 1962829344, 
    "1962832476": 1962832476, 
    "1962880234": 1962880234, 
    "1962892983": 1962892983, 
    "1962897872": 1962897872, 
    "1962919426": 1962919426, 
    "1962931857": 1962931857, 
    "1962943976": 1962943976, 
    "1963175213": 1963175213, 
    "1963191447": 1963191447, 
    "1963241983": 1963241983, 
    "1963252513": 1963252513, 
    "1963916551": 1963916551, 
    "1963921224": 1963921224, 
    "1964086657": 1964086657, 
    "1964121439": 1964121439, 
    "1964306795": 1964306795, 
    "1964431318": 1964431318, 
    "1964446100": 1964446100, 
    "1964525555": 1964525555, 
    "1964526422": 1964526422, 
    "1964542800": 1964542800, 
    "1964597516": 1964597516, 
    "1964625678": 1964625678, 
    "1964628100": 1964628100, 
    "1964633903": 1964633903, 
    "1964637535": 1964637535, 
    "1964771633": 1964771633, 
    "1964782084": 1964782084, 
    "1964808582": 1964808582, 
    "1964859776": 1964859776, 
    "1964952778": 1964952778, 
    "1964973364": 1964973364, 
    "1964976413": 1964976413, 
    "1965017576": 1965017576, 
    "1965117554": 1965117554, 
    "1965118383": 1965118383, 
    "1965131624": 1965131624, 
    "1965132531": 1965132531, 
    "1965233702": 1965233702, 
    "1965261716": 1965261716, 
    "1965276207": 1965276207, 
    "1965315366": 1965315366, 
    "1965361785": 1965361785, 
    "1965402328": 1965402328, 
    "1965418315": 1965418315, 
    "1965472550": 1965472550, 
    "1965523958": 1965523958, 
    "1965750505": 1965750505, 
    "1965761130": 1965761130, 
    "1965929317": 1965929317, 
    "1966046917": 1966046917, 
    "1966075702": 1966075702, 
    "1966081217": 1966081217, 
    "1966113057": 1966113057, 
    "1966138691": 1966138691, 
    "1966339437": 1966339437, 
    "1966345102": 1966345102, 
    "1966418799": 1966418799, 
    "1966470139": 1966470139, 
    "1966637528": 1966637528, 
    "1966642769": 1966642769, 
    "1966693968": 1966693968, 
    "1966782756": 1966782756, 
    "1966799755": 1966799755, 
    "1966996031": 1966996031, 
    "1967073683": 1967073683, 
    "1967210617": 1967210617, 
    "1967246480": 1967246480, 
    "1967350676": 1967350676, 
    "1967505614": 1967505614, 
    "1967857569": 1967857569, 
    "1967878399": 1967878399, 
    "1968085513": 1968085513, 
    "1968718184": 1968718184, 
    "1968730255": 1968730255, 
    "1968769376": 1968769376, 
    "1968776286": 1968776286, 
    "1968784100": 1968784100, 
    "1968789704": 1968789704, 
    "1968861217": 1968861217, 
    "1969249097": 1969249097, 
    "1969358750": 1969358750, 
    "1970309173": 1970309173, 
    "1970417546": 1970417546, 
    "1970447107": 1970447107, 
    "1970536707": 1970536707, 
    "1971017748": 1971017748, 
    "1971053780": 1971053780, 
    "1971074085": 1971074085, 
    "1971108982": 1971108982, 
    "1971207423": 1971207423, 
    "1971348995": 1971348995, 
    "1971552872": 1971552872, 
    "1971612829": 1971612829, 
    "1971744802": 1971744802, 
    "1971755355": 1971755355, 
    "1971790688": 1971790688, 
    "1971818153": 1971818153, 
    "1971837944": 1971837944, 
    "1971960298": 1971960298, 
    "1972040025": 1972040025, 
    "1972095726": 1972095726, 
    "1972147478": 1972147478, 
    "1972178471": 1972178471, 
    "1972193874": 1972193874, 
    "1972281514": 1972281514, 
    "1972477723": 1972477723, 
    "1972483121": 1972483121, 
    "1972557292": 1972557292, 
    "1972582624": 1972582624, 
    "1972643058": 1972643058, 
    "1972646232": 1972646232, 
    "1972652715": 1972652715, 
    "1972669184": 1972669184, 
    "1972681859": 1972681859, 
    "1972684724": 1972684724, 
    "1972684854": 1972684854, 
    "1972686597": 1972686597, 
    "1972687101": 1972687101, 
    "1972720378": 1972720378, 
    "1972723624": 1972723624, 
    "1972723890": 1972723890, 
    "1972745953": 1972745953, 
    "1972760307": 1972760307, 
    "1972782931": 1972782931, 
    "1972799450": 1972799450, 
    "1972814363": 1972814363, 
    "1972840178": 1972840178, 
    "1972846374": 1972846374, 
    "1972884972": 1972884972, 
    "1972890933": 1972890933, 
    "1972957101": 1972957101, 
    "1972969307": 1972969307, 
    "1972975871": 1972975871, 
    "1972976356": 1972976356, 
    "1973041204": 1973041204, 
    "1973044931": 1973044931, 
    "1973064994": 1973064994, 
    "1973117480": 1973117480, 
    "1973127430": 1973127430, 
    "1973164439": 1973164439, 
    "1973185995": 1973185995, 
    "1973209409": 1973209409, 
    "1973252770": 1973252770, 
    "1973260803": 1973260803, 
    "1973278729": 1973278729, 
    "1973285126": 1973285126, 
    "1973322972": 1973322972, 
    "1973326622": 1973326622, 
    "1973330110": 1973330110, 
    "1973435399": 1973435399, 
    "1973570051": 1973570051, 
    "1973573141": 1973573141, 
    "1973609722": 1973609722, 
    "1973669773": 1973669773, 
    "1973694555": 1973694555, 
    "1973791353": 1973791353, 
    "1973847918": 1973847918, 
    "1973861954": 1973861954, 
    "1973883535": 1973883535, 
    "1973911546": 1973911546, 
    "1973945377": 1973945377, 
    "1973952754": 1973952754, 
    "1973959881": 1973959881, 
    "1973970295": 1973970295, 
    "1974017232": 1974017232, 
    "1974024501": 1974024501, 
    "1974050426": 1974050426, 
    "1974153241": 1974153241, 
    "1974316460": 1974316460, 
    "1974338440": 1974338440, 
    "1974343101": 1974343101, 
    "1974363979": 1974363979, 
    "1974410269": 1974410269, 
    "1974415609": 1974415609, 
    "1974460828": 1974460828, 
    "1974502081": 1974502081, 
    "1974511304": 1974511304, 
    "1974514041": 1974514041, 
    "1974553745": 1974553745, 
    "1974577690": 1974577690, 
    "1974597294": 1974597294, 
    "1974618875": 1974618875, 
    "1974647332": 1974647332, 
    "1974769240": 1974769240, 
    "1974822950": 1974822950, 
    "1974842653": 1974842653, 
    "1974908919": 1974908919, 
    "1975094065": 1975094065, 
    "1975131684": 1975131684, 
    "1975150508": 1975150508, 
    "1975153027": 1975153027, 
    "1975163326": 1975163326, 
    "1975172805": 1975172805, 
    "1975241926": 1975241926, 
    "1975261491": 1975261491, 
    "1975315290": 1975315290, 
    "1975571596": 1975571596, 
    "1975824634": 1975824634, 
    "1975942042": 1975942042, 
    "1975947109": 1975947109, 
    "1975969081": 1975969081, 
    "1975975612": 1975975612, 
    "1976098450": 1976098450, 
    "1976372126": 1976372126, 
    "1976416059": 1976416059, 
    "1976420158": 1976420158, 
    "1976715552": 1976715552, 
    "1977101768": 1977101768, 
    "1977149762": 1977149762, 
    "1977198950": 1977198950, 
    "1977417520": 1977417520, 
    "1977604571": 1977604571, 
    "1977609386": 1977609386, 
    "1977627486": 1977627486, 
    "1977819696": 1977819696, 
    "1977820774": 1977820774, 
    "1977822474": 1977822474, 
    "1977843737": 1977843737, 
    "1977843941": 1977843941, 
    "1977880778": 1977880778, 
    "1977895071": 1977895071, 
    "1977966656": 1977966656, 
    "1978012960": 1978012960, 
    "1978133175": 1978133175, 
    "1978135124": 1978135124, 
    "1978166049": 1978166049, 
    "1978191696": 1978191696, 
    "1978235780": 1978235780, 
    "1978372311": 1978372311, 
    "1978449251": 1978449251, 
    "1978463206": 1978463206, 
    "1978467824": 1978467824, 
    "1978514597": 1978514597, 
    "1978574952": 1978574952, 
    "1978593493": 1978593493, 
    "1978595101": 1978595101, 
    "1978598995": 1978598995, 
    "1978599666": 1978599666, 
    "1978623096": 1978623096, 
    "1978638381": 1978638381, 
    "1978639478": 1978639478, 
    "1978667875": 1978667875, 
    "1978687465": 1978687465, 
    "1978802083": 1978802083, 
    "1978809358": 1978809358, 
    "1978972301": 1978972301, 
    "1979351260": 1979351260, 
    "1979355649": 1979355649, 
    "1979427422": 1979427422, 
    "1979925518": 1979925518, 
    "1979945411": 1979945411, 
    "1979949691": 1979949691, 
    "1980042806": 1980042806, 
    "1980046064": 1980046064, 
    "1980047905": 1980047905, 
    "1980120339": 1980120339, 
    "1980133618": 1980133618, 
    "1980186640": 1980186640, 
    "1980211788": 1980211788, 
    "1980229004": 1980229004, 
    "1980313174": 1980313174, 
    "1980403785": 1980403785, 
    "1980406641": 1980406641, 
    "1980556066": 1980556066, 
    "1980587033": 1980587033, 
    "1980640894": 1980640894, 
    "1980643921": 1980643921, 
    "1980645493": 1980645493, 
    "1980752263": 1980752263, 
    "1980853960": 1980853960, 
    "1980960238": 1980960238, 
    "1980988810": 1980988810, 
    "1981043031": 1981043031, 
    "1981077023": 1981077023, 
    "1981078859": 1981078859, 
    "1981103913": 1981103913, 
    "1981220856": 1981220856, 
    "1981261031": 1981261031, 
    "1981368849": 1981368849, 
    "1981371293": 1981371293, 
    "1981374047": 1981374047, 
    "1981377065": 1981377065, 
    "1981482706": 1981482706, 
    "1981486543": 1981486543, 
    "1981499779": 1981499779, 
    "1981522372": 1981522372, 
    "1981546614": 1981546614, 
    "1981548160": 1981548160, 
    "1981679365": 1981679365, 
    "1981716839": 1981716839, 
    "1981734406": 1981734406, 
    "1981738818": 1981738818, 
    "1981747808": 1981747808, 
    "1981773736": 1981773736, 
    "1981775329": 1981775329, 
    "1981785323": 1981785323, 
    "1981827305": 1981827305, 
    "1982045669": 1982045669, 
    "1982058231": 1982058231, 
    "1982076264": 1982076264, 
    "1982079457": 1982079457, 
    "1982082187": 1982082187, 
    "1982101845": 1982101845, 
    "1982112157": 1982112157, 
    "1982161856": 1982161856, 
    "1982187597": 1982187597, 
    "1982216352": 1982216352, 
    "1982272389": 1982272389, 
    "1982299359": 1982299359, 
    "1982301674": 1982301674, 
    "1982303714": 1982303714, 
    "1982305866": 1982305866, 
    "1982308056": 1982308056, 
    "1982312092": 1982312092, 
    "1982318616": 1982318616, 
    "1982649902": 1982649902, 
    "1982710961": 1982710961, 
    "1982732861": 1982732861, 
    "1982772548": 1982772548, 
    "1982803977": 1982803977, 
    "1982807515": 1982807515, 
    "1982812273": 1982812273, 
    "1982835415": 1982835415, 
    "1982860161": 1982860161, 
    "1982862560": 1982862560, 
    "1982873009": 1982873009, 
    "1982878578": 1982878578, 
    "1982884620": 1982884620, 
    "1982900263": 1982900263, 
    "1983066519": 1983066519, 
    "1983072250": 1983072250, 
    "1983217400": 1983217400, 
    "1983276905": 1983276905, 
    "1983282519": 1983282519, 
    "1983291809": 1983291809, 
    "1983312531": 1983312531, 
    "1983318917": 1983318917, 
    "1983328011": 1983328011, 
    "1983332626": 1983332626, 
    "1983409805": 1983409805, 
    "1983420339": 1983420339, 
    "1983436429": 1983436429, 
    "1983453987": 1983453987, 
    "1983494790": 1983494790, 
    "1983509490": 1983509490, 
    "1983510034": 1983510034, 
    "1983660147": 1983660147, 
    "1983664550": 1983664550, 
    "1983761144": 1983761144, 
    "1983856624": 1983856624, 
    "1983875402": 1983875402, 
    "1983974478": 1983974478, 
    "1984000663": 1984000663, 
    "1984019128": 1984019128, 
    "1984051029": 1984051029, 
    "1984085216": 1984085216, 
    "1984090631": 1984090631, 
    "1984164285": 1984164285, 
    "1984170886": 1984170886, 
    "1984251419": 1984251419, 
    "1984252236": 1984252236, 
    "1984345182": 1984345182, 
    "1984359762": 1984359762, 
    "1984373169": 1984373169, 
    "1984380773": 1984380773, 
    "1984439383": 1984439383, 
    "1984700230": 1984700230, 
    "1984705726": 1984705726, 
    "1984741536": 1984741536, 
    "1984746444": 1984746444, 
    "1984758843": 1984758843, 
    "1984761192": 1984761192, 
    "1984762386": 1984762386, 
    "1984763461": 1984763461, 
    "1984834949": 1984834949, 
    "1984837608": 1984837608, 
    "1984841421": 1984841421, 
    "1984877037": 1984877037, 
    "1985000904": 1985000904, 
    "1985051282": 1985051282, 
    "1985064765": 1985064765, 
    "1985077950": 1985077950, 
    "1985078253": 1985078253, 
    "1985096239": 1985096239, 
    "1985107252": 1985107252, 
    "1985130912": 1985130912, 
    "1985144816": 1985144816, 
    "1985149295": 1985149295, 
    "1985190218": 1985190218, 
    "1985231439": 1985231439, 
    "1985307298": 1985307298, 
    "1985310099": 1985310099, 
    "1985312065": 1985312065, 
    "1985314231": 1985314231, 
    "1985326496": 1985326496, 
    "1985334793": 1985334793, 
    "1985335847": 1985335847, 
    "1985537913": 1985537913, 
    "1985668262": 1985668262, 
    "1985668956": 1985668956, 
    "1985677017": 1985677017, 
    "1985683512": 1985683512, 
    "1985787278": 1985787278, 
    "1985796825": 1985796825, 
    "1985807328": 1985807328, 
    "1985811907": 1985811907, 
    "1985822469": 1985822469, 
    "1985826803": 1985826803, 
    "1985847368": 1985847368, 
    "1985849047": 1985849047, 
    "1985912179": 1985912179, 
    "1985914820": 1985914820, 
    "1985931625": 1985931625, 
    "1985947687": 1985947687, 
    "1986191197": 1986191197, 
    "1986198561": 1986198561, 
    "1986203463": 1986203463, 
    "1986228462": 1986228462, 
    "1986243663": 1986243663, 
    "1986270523": 1986270523, 
    "1986283409": 1986283409, 
    "1986290698": 1986290698, 
    "1986318418": 1986318418, 
    "1986352553": 1986352553, 
    "1986379262": 1986379262, 
    "1986486768": 1986486768, 
    "1986510906": 1986510906, 
    "1986563674": 1986563674, 
    "1986578385": 1986578385, 
    "1986588041": 1986588041, 
    "1986636584": 1986636584, 
    "1986711247": 1986711247, 
    "1986726403": 1986726403, 
    "1986863916": 1986863916, 
    "1986896479": 1986896479, 
    "1986935095": 1986935095, 
    "1986938467": 1986938467
}