{
    "1778165464": 1778165464, 
    "1788311860": 1788311860, 
    "1788322321": 1788322321, 
    "1788324722": 1788324722, 
    "1788346766": 1788346766, 
    "1788421487": 1788421487, 
    "1794880037": 1794880037, 
    "1799869561": 1799869561, 
    "1799876180": 1799876180, 
    "1799932088": 1799932088, 
    "1799937369": 1799937369, 
    "1800552648": 1800552648, 
    "1800598463": 1800598463, 
    "1800733449": 1800733449, 
    "1800733881": 1800733881, 
    "1800744354": 1800744354, 
    "1800978971": 1800978971, 
    "1800987882": 1800987882, 
    "1801002162": 1801002162, 
    "1801180639": 1801180639, 
    "1801185708": 1801185708, 
    "1801221344": 1801221344, 
    "1801235040": 1801235040, 
    "1801289072": 1801289072, 
    "1801292715": 1801292715, 
    "1801807263": 1801807263, 
    "1801834357": 1801834357, 
    "1801866867": 1801866867, 
    "1801890920": 1801890920, 
    "1802061114": 1802061114, 
    "1802326241": 1802326241, 
    "1802329779": 1802329779, 
    "1802372167": 1802372167, 
    "1802731815": 1802731815, 
    "1802792124": 1802792124, 
    "1802831293": 1802831293, 
    "1803536890": 1803536890, 
    "1803549622": 1803549622, 
    "1803601593": 1803601593, 
    "1803605607": 1803605607, 
    "1803620180": 1803620180, 
    "1803646655": 1803646655, 
    "1803647058": 1803647058, 
    "1803652078": 1803652078, 
    "1803697441": 1803697441, 
    "1804080347": 1804080347, 
    "1804081590": 1804081590, 
    "1804096086": 1804096086, 
    "1804134867": 1804134867, 
    "1804171631": 1804171631, 
    "1804236409": 1804236409, 
    "1804246975": 1804246975, 
    "1804307678": 1804307678, 
    "1804326456": 1804326456, 
    "1804370557": 1804370557, 
    "1805357249": 1805357249, 
    "1805371714": 1805371714, 
    "1805408758": 1805408758, 
    "1805432922": 1805432922, 
    "1805521423": 1805521423, 
    "1805529509": 1805529509, 
    "1805549635": 1805549635, 
    "1805996021": 1805996021, 
    "1806785800": 1806785800, 
    "1806787092": 1806787092, 
    "1807174807": 1807174807, 
    "1814616707": 1814616707, 
    "1816170312": 1816170312, 
    "1816971729": 1816971729, 
    "1816976575": 1816976575, 
    "1816991743": 1816991743, 
    "1817073917": 1817073917, 
    "1819299588": 1819299588, 
    "1819535367": 1819535367, 
    "1819539784": 1819539784, 
    "1819907823": 1819907823, 
    "1821137183": 1821137183, 
    "1821898019": 1821898019, 
    "1825197033": 1825197033, 
    "1825214340": 1825214340, 
    "1825312609": 1825312609, 
    "1825705956": 1825705956, 
    "1825724229": 1825724229, 
    "1829769128": 1829769128, 
    "1830171414": 1830171414, 
    "1830173484": 1830173484, 
    "1834626977": 1834626977, 
    "1834682428": 1834682428, 
    "1836473526": 1836473526, 
    "1836716036": 1836716036, 
    "1836870893": 1836870893, 
    "1837519857": 1837519857, 
    "1840135933": 1840135933, 
    "1840287374": 1840287374, 
    "1846479318": 1846479318, 
    "1846827274": 1846827274, 
    "1846831380": 1846831380, 
    "1847663471": 1847663471, 
    "1848756643": 1848756643, 
    "1850133954": 1850133954, 
    "1850149264": 1850149264, 
    "1850160860": 1850160860, 
    "1854215378": 1854215378, 
    "1854428992": 1854428992, 
    "1854445507": 1854445507, 
    "1859837989": 1859837989, 
    "1864359377": 1864359377, 
    "1872210184": 1872210184, 
    "1872222799": 1872222799, 
    "1872608496": 1872608496, 
    "1872630193": 1872630193, 
    "1873161750": 1873161750, 
    "1873194445": 1873194445, 
    "1873405380": 1873405380, 
    "1873437075": 1873437075, 
    "1873464149": 1873464149, 
    "1873923010": 1873923010, 
    "1873957169": 1873957169, 
    "1873971793": 1873971793, 
    "1873986333": 1873986333, 
    "1874141785": 1874141785, 
    "1874177544": 1874177544, 
    "1874190318": 1874190318, 
    "1874389490": 1874389490, 
    "1874564211": 1874564211, 
    "1874625841": 1874625841, 
    "1874654955": 1874654955, 
    "1875356461": 1875356461, 
    "1875396456": 1875396456, 
    "1875911254": 1875911254, 
    "1875953796": 1875953796, 
    "1875978995": 1875978995, 
    "1876127042": 1876127042, 
    "1876197208": 1876197208, 
    "1876887072": 1876887072, 
    "1877806919": 1877806919, 
    "1878358212": 1878358212, 
    "1879637854": 1879637854, 
    "1879725882": 1879725882, 
    "1879782551": 1879782551, 
    "1880028404": 1880028404, 
    "1880034392": 1880034392, 
    "1880433803": 1880433803, 
    "1881018615": 1881018615, 
    "1881022367": 1881022367, 
    "1881471811": 1881471811, 
    "1881606088": 1881606088, 
    "1881683124": 1881683124, 
    "1881711149": 1881711149, 
    "1882841949": 1882841949, 
    "1882869492": 1882869492, 
    "1882991495": 1882991495, 
    "1883009497": 1883009497, 
    "1883048545": 1883048545, 
    "1883080373": 1883080373, 
    "1883115131": 1883115131, 
    "1883147712": 1883147712, 
    "1883347514": 1883347514, 
    "1883488283": 1883488283, 
    "1883494013": 1883494013, 
    "1883700443": 1883700443, 
    "1883734334": 1883734334, 
    "1884246442": 1884246442, 
    "1884317454": 1884317454, 
    "1884325291": 1884325291, 
    "1884357978": 1884357978, 
    "1884776799": 1884776799, 
    "1885377889": 1885377889, 
    "1885383695": 1885383695, 
    "1885417841": 1885417841, 
    "1885431837": 1885431837, 
    "1885433874": 1885433874, 
    "1885451669": 1885451669, 
    "1885462725": 1885462725, 
    "1885564156": 1885564156, 
    "1885584735": 1885584735, 
    "1886004004": 1886004004, 
    "1886032012": 1886032012, 
    "1886431066": 1886431066, 
    "1886885829": 1886885829, 
    "1886904147": 1886904147, 
    "1886965919": 1886965919, 
    "1886975400": 1886975400, 
    "1887088854": 1887088854, 
    "1887103593": 1887103593, 
    "1887104753": 1887104753, 
    "1887132616": 1887132616, 
    "1887144660": 1887144660, 
    "1887156969": 1887156969, 
    "1887158678": 1887158678, 
    "1887195457": 1887195457, 
    "1887202787": 1887202787, 
    "1887215533": 1887215533, 
    "1887225994": 1887225994, 
    "1887273484": 1887273484, 
    "1887297850": 1887297850, 
    "1887323804": 1887323804, 
    "1887338757": 1887338757, 
    "1887360508": 1887360508, 
    "1887387277": 1887387277, 
    "1887483291": 1887483291, 
    "1887513035": 1887513035, 
    "1887514125": 1887514125, 
    "1887516973": 1887516973, 
    "1887551341": 1887551341, 
    "1887662082": 1887662082, 
    "1887860991": 1887860991, 
    "1887883120": 1887883120, 
    "1887912314": 1887912314, 
    "1887953559": 1887953559, 
    "1887973260": 1887973260, 
    "1887991151": 1887991151, 
    "1888000797": 1888000797, 
    "1888407190": 1888407190, 
    "1888412831": 1888412831, 
    "1888629639": 1888629639, 
    "1888651501": 1888651501, 
    "1889059705": 1889059705, 
    "1889118273": 1889118273, 
    "1889206315": 1889206315, 
    "1889454717": 1889454717, 
    "1889456842": 1889456842, 
    "1889499787": 1889499787, 
    "1890268894": 1890268894, 
    "1890299756": 1890299756, 
    "1890320669": 1890320669, 
    "1890330994": 1890330994, 
    "1890466521": 1890466521, 
    "1890609557": 1890609557, 
    "1890658968": 1890658968, 
    "1890661616": 1890661616, 
    "1890675676": 1890675676, 
    "1890707905": 1890707905, 
    "1892109898": 1892109898, 
    "1892133611": 1892133611, 
    "1892185951": 1892185951, 
    "1892203058": 1892203058, 
    "1892251955": 1892251955, 
    "1892281973": 1892281973, 
    "1892368448": 1892368448, 
    "1892379686": 1892379686, 
    "1892424946": 1892424946, 
    "1892928792": 1892928792, 
    "1892957426": 1892957426, 
    "1893096502": 1893096502, 
    "1893121462": 1893121462, 
    "1893578452": 1893578452, 
    "1893599914": 1893599914, 
    "1893624242": 1893624242, 
    "1893673079": 1893673079, 
    "1894613464": 1894613464, 
    "1894645928": 1894645928, 
    "1895109234": 1895109234, 
    "1895115959": 1895115959, 
    "1895123340": 1895123340, 
    "1895757132": 1895757132, 
    "1896280167": 1896280167, 
    "1896322051": 1896322051, 
    "1896366140": 1896366140, 
    "1896413990": 1896413990, 
    "1896442797": 1896442797, 
    "1896452613": 1896452613, 
    "1896577226": 1896577226, 
    "1896668521": 1896668521, 
    "1896674620": 1896674620, 
    "1896708580": 1896708580, 
    "1896812055": 1896812055, 
    "1896857811": 1896857811, 
    "1896864292": 1896864292, 
    "1897160938": 1897160938, 
    "1897302815": 1897302815, 
    "1897341606": 1897341606, 
    "1897414497": 1897414497, 
    "1897461362": 1897461362, 
    "1897479578": 1897479578, 
    "1897659802": 1897659802, 
    "1897666915": 1897666915, 
    "1898081003": 1898081003, 
    "1898113733": 1898113733, 
    "1898154766": 1898154766, 
    "1898346447": 1898346447, 
    "1898374151": 1898374151, 
    "1898421314": 1898421314, 
    "1898661511": 1898661511, 
    "1898717608": 1898717608, 
    "1898737746": 1898737746, 
    "1898770540": 1898770540, 
    "1899001410": 1899001410, 
    "1899023448": 1899023448, 
    "1899070808": 1899070808, 
    "1899087832": 1899087832, 
    "1899113452": 1899113452, 
    "1899120044": 1899120044, 
    "1899141466": 1899141466, 
    "1899240574": 1899240574, 
    "1899334460": 1899334460, 
    "1899365201": 1899365201, 
    "1899394479": 1899394479, 
    "1899734289": 1899734289, 
    "1900022685": 1900022685, 
    "1900074011": 1900074011, 
    "1900381802": 1900381802, 
    "1900424086": 1900424086, 
    "1900732434": 1900732434, 
    "1901089016": 1901089016, 
    "1901093489": 1901093489, 
    "1901104741": 1901104741, 
    "1901384546": 1901384546, 
    "1901401531": 1901401531, 
    "1901404804": 1901404804, 
    "1901450317": 1901450317, 
    "1901469273": 1901469273, 
    "1901499270": 1901499270, 
    "1901519496": 1901519496, 
    "1901543514": 1901543514, 
    "1902360890": 1902360890, 
    "1902381578": 1902381578, 
    "1902401770": 1902401770, 
    "1902431554": 1902431554, 
    "1902494480": 1902494480, 
    "1902529206": 1902529206, 
    "1902726261": 1902726261, 
    "1902761011": 1902761011, 
    "1902779463": 1902779463, 
    "1902804631": 1902804631, 
    "1902861637": 1902861637, 
    "1902944484": 1902944484, 
    "1902981945": 1902981945, 
    "1902982617": 1902982617, 
    "1902993867": 1902993867, 
    "1903012600": 1903012600, 
    "1903031832": 1903031832, 
    "1903073361": 1903073361, 
    "1903074339": 1903074339, 
    "1903086069": 1903086069, 
    "1903104069": 1903104069, 
    "1903124924": 1903124924, 
    "1903133442": 1903133442, 
    "1903173705": 1903173705, 
    "1903450306": 1903450306, 
    "1903458595": 1903458595, 
    "1903497993": 1903497993, 
    "1903536921": 1903536921, 
    "1903563614": 1903563614, 
    "1903630228": 1903630228, 
    "1903689752": 1903689752, 
    "1903708165": 1903708165, 
    "1904096110": 1904096110, 
    "1904120925": 1904120925, 
    "1904126988": 1904126988, 
    "1904226388": 1904226388, 
    "1904256767": 1904256767, 
    "1904354809": 1904354809, 
    "1904375639": 1904375639, 
    "1904376194": 1904376194, 
    "1904404357": 1904404357, 
    "1904457854": 1904457854, 
    "1904875760": 1904875760, 
    "1904973671": 1904973671, 
    "1905145553": 1905145553, 
    "1905151442": 1905151442, 
    "1905164704": 1905164704, 
    "1905181094": 1905181094, 
    "1905185661": 1905185661, 
    "1905217047": 1905217047, 
    "1906946151": 1906946151, 
    "1907722218": 1907722218, 
    "1907766160": 1907766160, 
    "1907772218": 1907772218, 
    "1907905368": 1907905368, 
    "1907977195": 1907977195, 
    "1907993599": 1907993599, 
    "1908021138": 1908021138, 
    "1908733870": 1908733870, 
    "1909852570": 1909852570, 
    "1909917448": 1909917448, 
    "1909951508": 1909951508, 
    "1910134881": 1910134881, 
    "1910812557": 1910812557, 
    "1910817675": 1910817675, 
    "1910828837": 1910828837, 
    "1910901120": 1910901120, 
    "1910948280": 1910948280, 
    "1911204485": 1911204485, 
    "1911226352": 1911226352, 
    "1911281009": 1911281009, 
    "1911481622": 1911481622, 
    "1911485175": 1911485175, 
    "1913350354": 1913350354, 
    "1913381114": 1913381114, 
    "1913415955": 1913415955, 
    "1913447369": 1913447369, 
    "1917329785": 1917329785, 
    "1917337932": 1917337932, 
    "1917364062": 1917364062, 
    "1917883543": 1917883543, 
    "1920015940": 1920015940, 
    "1920022239": 1920022239, 
    "1920311289": 1920311289, 
    "1920428692": 1920428692, 
    "1920666079": 1920666079, 
    "1920689543": 1920689543, 
    "1920748022": 1920748022, 
    "1920752233": 1920752233, 
    "1920778000": 1920778000, 
    "1921356636": 1921356636, 
    "1921407719": 1921407719, 
    "1921424724": 1921424724, 
    "1923504511": 1923504511, 
    "1923511533": 1923511533, 
    "1923517016": 1923517016, 
    "1923588206": 1923588206, 
    "1923612318": 1923612318, 
    "1923830935": 1923830935, 
    "1923879497": 1923879497, 
    "1924069088": 1924069088, 
    "1924074647": 1924074647, 
    "1924097344": 1924097344, 
    "1924109631": 1924109631, 
    "1924109951": 1924109951, 
    "1924124116": 1924124116, 
    "1924136779": 1924136779, 
    "1924167252": 1924167252, 
    "1924172849": 1924172849, 
    "1924182469": 1924182469, 
    "1924196188": 1924196188, 
    "1924198024": 1924198024, 
    "1924841738": 1924841738, 
    "1924844574": 1924844574, 
    "1924894630": 1924894630, 
    "1924929433": 1924929433, 
    "1925422967": 1925422967, 
    "1925426668": 1925426668, 
    "1925470475": 1925470475, 
    "1925496369": 1925496369, 
    "1925503129": 1925503129, 
    "1925522256": 1925522256, 
    "1925532306": 1925532306, 
    "1925555939": 1925555939, 
    "1925557909": 1925557909, 
    "1927848011": 1927848011, 
    "1927899118": 1927899118, 
    "1927936636": 1927936636, 
    "1927937187": 1927937187, 
    "1927974000": 1927974000, 
    "1928163313": 1928163313, 
    "1928186413": 1928186413, 
    "1928415782": 1928415782, 
    "1928772540": 1928772540, 
    "1928775837": 1928775837, 
    "1928791584": 1928791584, 
    "1928805140": 1928805140, 
    "1928831879": 1928831879, 
    "1928858420": 1928858420, 
    "1929202428": 1929202428, 
    "1929238448": 1929238448, 
    "1929305262": 1929305262, 
    "1929337682": 1929337682, 
    "1929344843": 1929344843, 
    "1929348224": 1929348224, 
    "1929351806": 1929351806, 
    "1931702838": 1931702838, 
    "1931773755": 1931773755, 
    "1931815328": 1931815328, 
    "1932308929": 1932308929, 
    "1932319743": 1932319743, 
    "1932368605": 1932368605, 
    "1932371129": 1932371129, 
    "1932417715": 1932417715, 
    "1932460181": 1932460181, 
    "1932509393": 1932509393, 
    "1932607562": 1932607562, 
    "1932715879": 1932715879, 
    "1933099187": 1933099187, 
    "1933177602": 1933177602, 
    "1933633977": 1933633977, 
    "1933877595": 1933877595, 
    "1933901316": 1933901316, 
    "1934625970": 1934625970, 
    "1934645954": 1934645954, 
    "1934659967": 1934659967, 
    "1934696075": 1934696075, 
    "1937565908": 1937565908, 
    "1937678129": 1937678129, 
    "1937986851": 1937986851, 
    "1938015590": 1938015590, 
    "1938032469": 1938032469, 
    "1938250800": 1938250800, 
    "1938274801": 1938274801, 
    "1938288500": 1938288500, 
    "1938294199": 1938294199, 
    "1938303974": 1938303974, 
    "1938360766": 1938360766, 
    "1938400832": 1938400832, 
    "1938618007": 1938618007, 
    "1938794384": 1938794384, 
    "1939240642": 1939240642, 
    "1939278135": 1939278135, 
    "1939280782": 1939280782, 
    "1939302024": 1939302024, 
    "1939308921": 1939308921, 
    "1939329590": 1939329590, 
    "1939974764": 1939974764, 
    "1940061613": 1940061613, 
    "1940432372": 1940432372, 
    "1940481041": 1940481041, 
    "1940502779": 1940502779, 
    "1940971598": 1940971598, 
    "1941044617": 1941044617, 
    "1941113872": 1941113872, 
    "1941164599": 1941164599, 
    "1941339740": 1941339740, 
    "1941600236": 1941600236, 
    "1941653382": 1941653382, 
    "1941685215": 1941685215, 
    "1941726325": 1941726325, 
    "1942135382": 1942135382, 
    "1942156333": 1942156333, 
    "1943524917": 1943524917, 
    "1943541334": 1943541334, 
    "1943547734": 1943547734, 
    "1943566473": 1943566473, 
    "1945142861": 1945142861, 
    "1945178195": 1945178195, 
    "1945185157": 1945185157, 
    "1945188318": 1945188318, 
    "1945192311": 1945192311, 
    "1945200212": 1945200212, 
    "1945786907": 1945786907, 
    "1945812862": 1945812862, 
    "1946876845": 1946876845, 
    "1947323009": 1947323009, 
    "1947369478": 1947369478, 
    "1947850525": 1947850525, 
    "1947868641": 1947868641, 
    "1948214778": 1948214778, 
    "1948801877": 1948801877, 
    "1948837703": 1948837703, 
    "1948842899": 1948842899, 
    "1948849762": 1948849762, 
    "1948865072": 1948865072, 
    "1948871689": 1948871689, 
    "1949300335": 1949300335, 
    "1950122487": 1950122487, 
    "1950128067": 1950128067, 
    "1950140890": 1950140890, 
    "1950201398": 1950201398, 
    "1950205470": 1950205470, 
    "1950220210": 1950220210, 
    "1950489576": 1950489576, 
    "1950491614": 1950491614, 
    "1950494664": 1950494664, 
    "1950498760": 1950498760, 
    "1950506700": 1950506700, 
    "1950578955": 1950578955, 
    "1950581071": 1950581071, 
    "1950582251": 1950582251, 
    "1950604318": 1950604318, 
    "1950605830": 1950605830, 
    "1950610669": 1950610669, 
    "1950614866": 1950614866, 
    "1951113810": 1951113810, 
    "1951116401": 1951116401, 
    "1951188142": 1951188142, 
    "1951188566": 1951188566, 
    "1951191164": 1951191164, 
    "1951193932": 1951193932, 
    "1951361981": 1951361981, 
    "1951395386": 1951395386, 
    "1951410269": 1951410269, 
    "1951469708": 1951469708, 
    "1951496318": 1951496318, 
    "1951497371": 1951497371, 
    "1951525986": 1951525986, 
    "1951530263": 1951530263, 
    "1951870446": 1951870446, 
    "1951887423": 1951887423, 
    "1951889082": 1951889082, 
    "1951902856": 1951902856, 
    "1952164442": 1952164442, 
    "1952166437": 1952166437, 
    "1952783208": 1952783208, 
    "1952790280": 1952790280, 
    "1952817831": 1952817831, 
    "1952834603": 1952834603, 
    "1952860928": 1952860928, 
    "1952866251": 1952866251, 
    "1952950122": 1952950122, 
    "1953153454": 1953153454, 
    "1953189480": 1953189480, 
    "1953195881": 1953195881, 
    "1953220880": 1953220880, 
    "1953375947": 1953375947, 
    "1953401847": 1953401847, 
    "1953446796": 1953446796, 
    "1953455585": 1953455585, 
    "1953470847": 1953470847, 
    "1953478227": 1953478227, 
    "1953518354": 1953518354, 
    "1953526283": 1953526283, 
    "1953532562": 1953532562, 
    "1953534272": 1953534272, 
    "1953547965": 1953547965, 
    "1953558622": 1953558622, 
    "1953561040": 1953561040, 
    "1953562754": 1953562754, 
    "1953926957": 1953926957, 
    "1953931593": 1953931593, 
    "1954069720": 1954069720, 
    "1954075886": 1954075886, 
    "1954105317": 1954105317, 
    "1954614224": 1954614224, 
    "1954622051": 1954622051, 
    "1954625357": 1954625357, 
    "1954697213": 1954697213, 
    "1954922878": 1954922878, 
    "1954936195": 1954936195, 
    "1954939646": 1954939646, 
    "1954989745": 1954989745, 
    "1954996479": 1954996479, 
    "1955001563": 1955001563, 
    "1955010299": 1955010299, 
    "1955023376": 1955023376, 
    "1955046543": 1955046543, 
    "1955060959": 1955060959, 
    "1955114098": 1955114098, 
    "1955143507": 1955143507, 
    "1955151063": 1955151063, 
    "1955426127": 1955426127, 
    "1955491560": 1955491560, 
    "1955503993": 1955503993, 
    "1956374406": 1956374406, 
    "1956378360": 1956378360, 
    "1956399332": 1956399332, 
    "1956408510": 1956408510, 
    "1956412117": 1956412117, 
    "1956544200": 1956544200, 
    "1956546159": 1956546159, 
    "1956683785": 1956683785, 
    "1956930374": 1956930374, 
    "1956958741": 1956958741, 
    "1956984299": 1956984299, 
    "1957526255": 1957526255, 
    "1957538819": 1957538819, 
    "1957557069": 1957557069, 
    "1957583307": 1957583307, 
    "1957975427": 1957975427, 
    "1957977735": 1957977735, 
    "1958051282": 1958051282, 
    "1958055100": 1958055100, 
    "1958343200": 1958343200, 
    "1958437838": 1958437838, 
    "1958651154": 1958651154, 
    "1958661468": 1958661468, 
    "1958680554": 1958680554, 
    "1958697695": 1958697695, 
    "1958713639": 1958713639, 
    "1958786017": 1958786017, 
    "1958793168": 1958793168, 
    "1958809460": 1958809460, 
    "1958812166": 1958812166, 
    "1958901098": 1958901098, 
    "1959217047": 1959217047, 
    "1959220760": 1959220760, 
    "1959254468": 1959254468, 
    "1959607004": 1959607004, 
    "1959619493": 1959619493, 
    "1959626478": 1959626478, 
    "1959659719": 1959659719, 
    "1959664286": 1959664286, 
    "1959837821": 1959837821, 
    "1959949480": 1959949480, 
    "1960289001": 1960289001, 
    "1960322298": 1960322298, 
    "1960326234": 1960326234, 
    "1960340775": 1960340775, 
    "1960468354": 1960468354, 
    "1960889542": 1960889542, 
    "1961002284": 1961002284, 
    "1961006573": 1961006573, 
    "1961014836": 1961014836, 
    "1961018529": 1961018529, 
    "1961023111": 1961023111, 
    "1961027179": 1961027179, 
    "1961060502": 1961060502, 
    "1961386103": 1961386103, 
    "1961442897": 1961442897, 
    "1961572892": 1961572892, 
    "1961588932": 1961588932, 
    "1961592427": 1961592427, 
    "1961627124": 1961627124, 
    "1961956226": 1961956226, 
    "1961983675": 1961983675, 
    "1961985535": 1961985535, 
    "1961995337": 1961995337, 
    "1962062380": 1962062380, 
    "1962097551": 1962097551, 
    "1962158485": 1962158485, 
    "1962172502": 1962172502, 
    "1962469434": 1962469434, 
    "1962469461": 1962469461, 
    "1962481994": 1962481994, 
    "1962491161": 1962491161, 
    "1962507344": 1962507344, 
    "1962521200": 1962521200, 
    "1962825185": 1962825185, 
    "1962827160": 1962827160, 
    "1962975691": 1962975691, 
    "1962982081": 1962982081, 
    "1962989371": 1962989371, 
    "1963219123": 1963219123, 
    "1963234289": 1963234289, 
    "1963461215": 1963461215, 
    "1963466119": 1963466119, 
    "1963530723": 1963530723, 
    "1963901238": 1963901238, 
    "1963906998": 1963906998, 
    "1963922542": 1963922542, 
    "1963957587": 1963957587, 
    "1964029282": 1964029282, 
    "1964043755": 1964043755, 
    "1964065315": 1964065315, 
    "1964684720": 1964684720, 
    "1965107527": 1965107527, 
    "1965109990": 1965109990, 
    "1965112093": 1965112093, 
    "1965114670": 1965114670, 
    "1965138619": 1965138619, 
    "1965271216": 1965271216, 
    "1965286432": 1965286432, 
    "1965367482": 1965367482, 
    "1965368264": 1965368264, 
    "1965848704": 1965848704, 
    "1965874653": 1965874653, 
    "1965891297": 1965891297, 
    "1966059614": 1966059614, 
    "1966416879": 1966416879, 
    "1966434021": 1966434021, 
    "1966547270": 1966547270, 
    "1966549091": 1966549091, 
    "1966554969": 1966554969, 
    "1966576532": 1966576532, 
    "1966581302": 1966581302, 
    "1966756362": 1966756362, 
    "1966781884": 1966781884, 
    "1966824794": 1966824794, 
    "1966827895": 1966827895, 
    "1966852363": 1966852363, 
    "1966855624": 1966855624, 
    "1966992600": 1966992600, 
    "1967003738": 1967003738, 
    "1967007790": 1967007790, 
    "1967009069": 1967009069, 
    "1967136643": 1967136643, 
    "1967208059": 1967208059, 
    "1967214855": 1967214855, 
    "1967427152": 1967427152, 
    "1967467670": 1967467670, 
    "1967773766": 1967773766, 
    "1967800773": 1967800773, 
    "1967996211": 1967996211, 
    "1967998050": 1967998050, 
    "1968025197": 1968025197, 
    "1968198756": 1968198756, 
    "1968754838": 1968754838, 
    "1968762504": 1968762504, 
    "1968768777": 1968768777, 
    "1968782275": 1968782275, 
    "1968789187": 1968789187, 
    "1969846843": 1969846843, 
    "1969859112": 1969859112, 
    "1969918193": 1969918193, 
    "1969944365": 1969944365, 
    "1970305273": 1970305273, 
    "1970314778": 1970314778, 
    "1970320449": 1970320449, 
    "1970404421": 1970404421, 
    "1970440021": 1970440021, 
    "1970447226": 1970447226, 
    "1970590477": 1970590477, 
    "1970886897": 1970886897, 
    "1971050452": 1971050452, 
    "1971122921": 1971122921, 
    "1971554026": 1971554026, 
    "1971571655": 1971571655, 
    "1971599979": 1971599979, 
    "1972316958": 1972316958, 
    "1972346680": 1972346680, 
    "1972394048": 1972394048, 
    "1972624606": 1972624606, 
    "1972638347": 1972638347, 
    "1972642101": 1972642101, 
    "1972806028": 1972806028, 
    "1972818529": 1972818529, 
    "1972874186": 1972874186, 
    "1972900277": 1972900277, 
    "1972914536": 1972914536, 
    "1972958133": 1972958133, 
    "1973182395": 1973182395, 
    "1973443150": 1973443150, 
    "1973458671": 1973458671, 
    "1973968473": 1973968473, 
    "1974869176": 1974869176, 
    "1974896014": 1974896014, 
    "1974904492": 1974904492, 
    "1975014989": 1975014989, 
    "1975620328": 1975620328, 
    "1975669543": 1975669543, 
    "1975697919": 1975697919, 
    "1976171991": 1976171991, 
    "1976188580": 1976188580, 
    "1976311717": 1976311717, 
    "1976342809": 1976342809, 
    "1976383627": 1976383627, 
    "1976387332": 1976387332, 
    "1976401094": 1976401094, 
    "1977226448": 1977226448, 
    "1977287537": 1977287537, 
    "1977342943": 1977342943, 
    "1978354547": 1978354547, 
    "1978377030": 1978377030, 
    "1978443728": 1978443728, 
    "1978461573": 1978461573, 
    "1978468667": 1978468667, 
    "1978832298": 1978832298, 
    "1978901663": 1978901663, 
    "1979256522": 1979256522, 
    "1979282624": 1979282624, 
    "1979329705": 1979329705, 
    "1979406682": 1979406682, 
    "1979438185": 1979438185, 
    "1979450948": 1979450948, 
    "1979486349": 1979486349, 
    "1979502648": 1979502648, 
    "1979518425": 1979518425, 
    "1979525285": 1979525285, 
    "1979550761": 1979550761, 
    "1979552957": 1979552957, 
    "1979578846": 1979578846, 
    "1979912506": 1979912506, 
    "1979939978": 1979939978, 
    "1979943862": 1979943862, 
    "1979957381": 1979957381, 
    "1980065897": 1980065897, 
    "1980111202": 1980111202, 
    "1980123085": 1980123085, 
    "1980158201": 1980158201, 
    "1980165012": 1980165012, 
    "1980190655": 1980190655, 
    "1980586785": 1980586785, 
    "1980598935": 1980598935, 
    "1980613563": 1980613563, 
    "1980620844": 1980620844, 
    "1980626274": 1980626274, 
    "1980631957": 1980631957, 
    "1980637976": 1980637976, 
    "1980639112": 1980639112, 
    "1980694303": 1980694303, 
    "1980718233": 1980718233, 
    "1980738258": 1980738258, 
    "1980743493": 1980743493, 
    "1980751173": 1980751173, 
    "1980755269": 1980755269, 
    "1980761639": 1980761639, 
    "1980777799": 1980777799, 
    "1980786322": 1980786322, 
    "1980788165": 1980788165, 
    "1980796205": 1980796205, 
    "1980830227": 1980830227, 
    "1980857494": 1980857494, 
    "1981784140": 1981784140, 
    "1981785281": 1981785281, 
    "1981847597": 1981847597, 
    "1982050551": 1982050551, 
    "1982064058": 1982064058, 
    "1982067165": 1982067165, 
    "1982085593": 1982085593, 
    "1982104320": 1982104320, 
    "1982252563": 1982252563, 
    "1982299537": 1982299537, 
    "1982572116": 1982572116, 
    "1982586007": 1982586007, 
    "1982589392": 1982589392, 
    "1982600131": 1982600131, 
    "1982613071": 1982613071, 
    "1982759760": 1982759760, 
    "1982763087": 1982763087, 
    "1982832714": 1982832714, 
    "1982997916": 1982997916, 
    "1983007009": 1983007009, 
    "1983012598": 1983012598, 
    "1983031906": 1983031906, 
    "1983058275": 1983058275, 
    "1983330628": 1983330628, 
    "1983331894": 1983331894, 
    "1983347616": 1983347616, 
    "1983365492": 1983365492, 
    "1983591899": 1983591899, 
    "1983608134": 1983608134, 
    "1984032233": 1984032233, 
    "1984060555": 1984060555, 
    "1984062548": 1984062548, 
    "1984174144": 1984174144, 
    "1984197539": 1984197539, 
    "1984212478": 1984212478, 
    "1984235104": 1984235104, 
    "1984430758": 1984430758, 
    "1984447130": 1984447130, 
    "1984453322": 1984453322, 
    "1984492202": 1984492202, 
    "1984611502": 1984611502, 
    "1984668785": 1984668785, 
    "1984686360": 1984686360, 
    "1984722883": 1984722883, 
    "1984730297": 1984730297, 
    "1984743800": 1984743800, 
    "1984755723": 1984755723, 
    "1984879279": 1984879279, 
    "1984884621": 1984884621, 
    "1985055488": 1985055488, 
    "1985064828": 1985064828, 
    "1985104155": 1985104155, 
    "1985122896": 1985122896, 
    "1985141683": 1985141683, 
    "1985144063": 1985144063, 
    "1985149955": 1985149955, 
    "1985173131": 1985173131, 
    "1985402717": 1985402717, 
    "1985416857": 1985416857, 
    "1985463262": 1985463262, 
    "1985471920": 1985471920, 
    "1985474687": 1985474687, 
    "1985481741": 1985481741, 
    "1985492751": 1985492751, 
    "1985517288": 1985517288, 
    "1985533831": 1985533831, 
    "1985551411": 1985551411, 
    "1985556403": 1985556403, 
    "1985591209": 1985591209, 
    "1985619790": 1985619790, 
    "1985648167": 1985648167, 
    "1985651149": 1985651149, 
    "1985708405": 1985708405, 
    "1985717829": 1985717829, 
    "1985740466": 1985740466, 
    "1985761396": 1985761396, 
    "1985809449": 1985809449, 
    "1985903759": 1985903759, 
    "1986004947": 1986004947, 
    "1986263529": 1986263529, 
    "1986311420": 1986311420, 
    "1986326137": 1986326137, 
    "1986338961": 1986338961, 
    "1986360661": 1986360661, 
    "1986470823": 1986470823, 
    "1986473698": 1986473698, 
    "1986481244": 1986481244, 
    "1986565985": 1986565985, 
    "1986593408": 1986593408, 
    "1986595156": 1986595156, 
    "1986599073": 1986599073, 
    "1986610824": 1986610824, 
    "1986616451": 1986616451, 
    "1986628339": 1986628339, 
    "1986633561": 1986633561, 
    "1986645547": 1986645547, 
    "1986710803": 1986710803, 
    "1986731031": 1986731031, 
    "1986823793": 1986823793, 
    "1986829045": 1986829045, 
    "1986844302": 1986844302, 
    "1986878578": 1986878578, 
    "1986880676": 1986880676, 
    "1986885646": 1986885646, 
    "1986886460": 1986886460, 
    "1986932466": 1986932466
}