{
  "matches": [
    {
      "platformId": "EUN1",
      "gameId": 1975417517,
      "champion": 111,
      "queue": 420,
      "season": 11,
      "timestamp": 1527877616718,
      "role": "DUO_SUPPORT",
      "lane": "BOTTOM"
    },
    {
      "platformId": "EUN1",
      "gameId": 1975223896,
      "champion": 420,
      "queue": 420,
      "season": 11,
      "timestamp": 1527862453929,
      "role": "SOLO",
      "lane": "TOP"
    },
    {
      "platformId": "EUN1",
      "gameId": 1974474176,
      "champion": 420,
      "queue": 420,
      "season": 11,
      "timestamp": 1527780553926,
      "role": "DUO",
      "lane": "MID"
    },
    {
      "platformId": "EUN1",
      "gameId": 1974458719,
      "champion": 86,
      "queue": 420,
      "season": 11,
      "timestamp": 1527778713488,
      "role": "SOLO",
      "lane": "TOP"
    },
    {
      "platformId": "EUN1",
      "gameId": 1974447390,
      "champion": 86,
      "queue": 420,
      "season": 11,
      "timestamp": 1527778183707,
      "role": "DUO",
      "lane": "NONE"
    },
    {
      "platformId": "EUN1",
      "gameId": 1968902280,
      "champion": 117,
      "queue": 420,
      "season": 11,
      "timestamp": 1527003353623,
      "role": "DUO_SUPPORT",
      "lane": "BOTTOM"
    },
    {
      "platformId": "EUN1",
      "gameId": 1968871944,
      "champion": 58,
      "queue": 420,
      "season": 11,
      "timestamp": 1526999235117,
      "role": "SOLO",
      "lane": "TOP"
    },
    {
      "platformId": "EUN1",
      "gameId": 1968855435,
      "champion": 117,
      "queue": 420,
      "season": 11,
      "timestamp": 1526996813337,
      "role": "DUO_SUPPORT",
      "lane": "BOTTOM"
    },
    {
      "platformId": "EUN1",
      "gameId": 1968841968,
      "champion": 86,
      "queue": 420,
      "season": 11,
      "timestamp": 1526994926674,
      "role": "DUO",
      "lane": "NONE"
    },
    {
      "platformId": "EUN1",
      "gameId": 1968594513,
      "champion": 122,
      "queue": 420,
      "season": 11,
      "timestamp": 1526927053155,
      "role": "SOLO",
      "lane": "TOP"
    },
    {
      "platformId": "EUN1",
      "gameId": 1968511800,
      "champion": 142,
      "queue": 420,
      "season": 11,
      "timestamp": 1526916527436,
      "role": "SOLO",
      "lane": "MID"
    },
    {
      "platformId": "EUN1",
      "gameId": 1968394927,
      "champion": 86,
      "queue": 420,
      "season": 11,
      "timestamp": 1526914003320,
      "role": "SOLO",
      "lane": "TOP"
    },
    {
      "platformId": "EUN1",
      "gameId": 1968338101,
      "champion": 110,
      "queue": 420,
      "season": 11,
      "timestamp": 1526911002009,
      "role": "DUO_CARRY",
      "lane": "BOTTOM"
    },
    {
      "platformId": "EUN1",
      "gameId": 1968289953,
      "champion": 86,
      "queue": 420,
      "season": 11,
      "timestamp": 1526907693729,
      "role": "SOLO",
      "lane": "TOP"
    },
    {
      "platformId": "EUN1",
      "gameId": 1968284065,
      "champion": 45,
      "queue": 420,
      "season": 11,
      "timestamp": 1526905517449,
      "role": "SOLO",
      "lane": "MID"
    },
    {
      "platformId": "EUN1",
      "gameId": 1967975599,
      "champion": 121,
      "queue": 420,
      "season": 11,
      "timestamp": 1526833886040,
      "role": "NONE",
      "lane": "JUNGLE"
    },
    {
      "platformId": "EUN1",
      "gameId": 1967829027,
      "champion": 498,
      "queue": 420,
      "season": 11,
      "timestamp": 1526814642948,
      "role": "DUO",
      "lane": "MID"
    },
    {
      "platformId": "EUN1",
      "gameId": 1967783580,
      "champion": 64,
      "queue": 420,
      "season": 11,
      "timestamp": 1526812182721,
      "role": "NONE",
      "lane": "JUNGLE"
    },
    {
      "platformId": "EUN1",
      "gameId": 1967241069,
      "champion": 516,
      "queue": 420,
      "season": 11,
      "timestamp": 1526735244535,
      "role": "SOLO",
      "lane": "TOP"
    },
    {
      "platformId": "EUN1",
      "gameId": 1967234016,
      "champion": 41,
      "queue": 420,
      "season": 11,
      "timestamp": 1526732994719,
      "role": "SOLO",
      "lane": "TOP"
    },
    {
      "platformId": "EUN1",
      "gameId": 1966780309,
      "champion": 45,
      "queue": 420,
      "season": 11,
      "timestamp": 1526666646589,
      "role": "SOLO",
      "lane": "MID"
    },
    {
      "platformId": "EUN1",
      "gameId": 1966693066,
      "champion": 86,
      "queue": 420,
      "season": 11,
      "timestamp": 1526656494842,
      "role": "SOLO",
      "lane": "TOP"
    },
    {
      "platformId": "EUN1",
      "gameId": 1966645871,
      "champion": 64,
      "queue": 420,
      "season": 11,
      "timestamp": 1526653268276,
      "role": "NONE",
      "lane": "JUNGLE"
    },
    {
      "platformId": "EUN1",
      "gameId": 1966638021,
      "champion": 86,
      "queue": 420,
      "season": 11,
      "timestamp": 1526650249090,
      "role": "SOLO",
      "lane": "TOP"
    },
    {
      "platformId": "EUN1",
      "gameId": 1966357860,
      "champion": 161,
      "queue": 420,
      "season": 11,
      "timestamp": 1526575344989,
      "role": "SOLO",
      "lane": "MID"
    },
    {
      "platformId": "EUN1",
      "gameId": 1966179153,
      "champion": 45,
      "queue": 420,
      "season": 11,
      "timestamp": 1526572195796,
      "role": "SOLO",
      "lane": "MID"
    },
    {
      "platformId": "EUN1",
      "gameId": 1966131777,
      "champion": 45,
      "queue": 420,
      "season": 11,
      "timestamp": 1526569144703,
      "role": "SOLO",
      "lane": "MID"
    },
    {
      "platformId": "EUN1",
      "gameId": 1966125721,
      "champion": 154,
      "queue": 420,
      "season": 11,
      "timestamp": 1526567135493,
      "role": "NONE",
      "lane": "JUNGLE"
    },
    {
      "platformId": "EUN1",
      "gameId": 1966101002,
      "champion": 86,
      "queue": 420,
      "season": 11,
      "timestamp": 1526564937844,
      "role": "DUO",
      "lane": "TOP"
    },
    {
      "platformId": "EUN1",
      "gameId": 1965317374,
      "champion": 8,
      "queue": 420,
      "season": 11,
      "timestamp": 1526407666633,
      "role": "SOLO",
      "lane": "MID"
    },
    {
      "platformId": "EUN1",
      "gameId": 1965307432,
      "champion": 86,
      "queue": 420,
      "season": 11,
      "timestamp": 1526404854473,
      "role": "SOLO",
      "lane": "TOP"
    },
    {
      "platformId": "EUN1",
      "gameId": 1965204601,
      "champion": 86,
      "queue": 420,
      "season": 11,
      "timestamp": 1526395992392,
      "role": "SOLO",
      "lane": "TOP"
    },
    {
      "platformId": "EUN1",
      "gameId": 1965218078,
      "champion": 12,
      "queue": 420,
      "season": 11,
      "timestamp": 1526393747912,
      "role": "SOLO",
      "lane": "BOTTOM"
    },
    {
      "platformId": "EUN1",
      "gameId": 1964736882,
      "champion": 8,
      "queue": 420,
      "season": 11,
      "timestamp": 1526315175482,
      "role": "NONE",
      "lane": "JUNGLE"
    },
    {
      "platformId": "EUN1",
      "gameId": 1964658061,
      "champion": 50,
      "queue": 420,
      "season": 11,
      "timestamp": 1526302543818,
      "role": "SOLO",
      "lane": "TOP"
    },
    {
      "platformId": "EUN1",
      "gameId": 1964335339,
      "champion": 86,
      "queue": 420,
      "season": 11,
      "timestamp": 1526224617543,
      "role": "DUO_SUPPORT",
      "lane": "NONE"
    },
    {
      "platformId": "EUN1",
      "gameId": 1964317484,
      "champion": 8,
      "queue": 420,
      "season": 11,
      "timestamp": 1526221621139,
      "role": "SOLO",
      "lane": "TOP"
    },
    {
      "platformId": "EUN1",
      "gameId": 1964271400,
      "champion": 86,
      "queue": 420,
      "season": 11,
      "timestamp": 1526219482466,
      "role": "SOLO",
      "lane": "TOP"
    },
    {
      "platformId": "EUN1",
      "gameId": 1963644061,
      "champion": 86,
      "queue": 420,
      "season": 11,
      "timestamp": 1526128288843,
      "role": "SOLO",
      "lane": "TOP"
    },
    {
      "platformId": "EUN1",
      "gameId": 1963657623,
      "champion": 36,
      "queue": 420,
      "season": 11,
      "timestamp": 1526126221370,
      "role": "NONE",
      "lane": "JUNGLE"
    },
    {
      "platformId": "EUN1",
      "gameId": 1957241346,
      "champion": 245,
      "queue": 420,
      "season": 11,
      "timestamp": 1525104079608,
      "role": "SOLO",
      "lane": "MID"
    },
    {
      "platformId": "EUN1",
      "gameId": 1957118781,
      "champion": 86,
      "queue": 420,
      "season": 11,
      "timestamp": 1525086014235,
      "role": "SOLO",
      "lane": "TOP"
    },
    {
      "platformId": "EUN1",
      "gameId": 1956672161,
      "champion": 50,
      "queue": 420,
      "season": 11,
      "timestamp": 1525006160994,
      "role": "DUO",
      "lane": "TOP"
    },
    {
      "platformId": "EUN1",
      "gameId": 1956560599,
      "champion": 86,
      "queue": 420,
      "season": 11,
      "timestamp": 1525002122262,
      "role": "SOLO",
      "lane": "TOP"
    },
    {
      "platformId": "EUN1",
      "gameId": 1948820410,
      "champion": 157,
      "queue": 420,
      "season": 11,
      "timestamp": 1523652991470,
      "role": "SOLO",
      "lane": "TOP"
    },
    {
      "platformId": "EUN1",
      "gameId": 1946255816,
      "champion": 107,
      "queue": 420,
      "season": 11,
      "timestamp": 1523202533599,
      "role": "NONE",
      "lane": "JUNGLE"
    },
    {
      "platformId": "EUN1",
      "gameId": 1942981084,
      "champion": 145,
      "queue": 420,
      "season": 11,
      "timestamp": 1522761916149,
      "role": "DUO_SUPPORT",
      "lane": "MID"
    },
    {
      "platformId": "EUN1",
      "gameId": 1939680992,
      "champion": 222,
      "queue": 420,
      "season": 11,
      "timestamp": 1522426522505,
      "role": "DUO_CARRY",
      "lane": "BOTTOM"
    },
    {
      "platformId": "EUN1",
      "gameId": 1939607433,
      "champion": 157,
      "queue": 420,
      "season": 11,
      "timestamp": 1522419662823,
      "role": "SOLO",
      "lane": "MID"
    },
    {
      "platformId": "EUN1",
      "gameId": 1939052775,
      "champion": 6,
      "queue": 420,
      "season": 11,
      "timestamp": 1522345889044,
      "role": "SOLO",
      "lane": "TOP"
    },
    {
      "platformId": "EUN1",
      "gameId": 1939014892,
      "champion": 245,
      "queue": 420,
      "season": 11,
      "timestamp": 1522343646257,
      "role": "SOLO",
      "lane": "MID"
    },
    {
      "platformId": "EUN1",
      "gameId": 1938825927,
      "champion": 54,
      "queue": 420,
      "season": 11,
      "timestamp": 1522323496683,
      "role": "SOLO",
      "lane": "TOP"
    },
    {
      "platformId": "EUN1",
      "gameId": 1938325262,
      "champion": 121,
      "queue": 420,
      "season": 11,
      "timestamp": 1522254507347,
      "role": "DUO_SUPPORT",
      "lane": "NONE"
    },
    {
      "platformId": "EUN1",
      "gameId": 1938295914,
      "champion": 6,
      "queue": 420,
      "season": 11,
      "timestamp": 1522251485937,
      "role": "SOLO",
      "lane": "TOP"
    },
    {
      "platformId": "EUN1",
      "gameId": 1937988089,
      "champion": 145,
      "queue": 420,
      "season": 11,
      "timestamp": 1522174639598,
      "role": "DUO_CARRY",
      "lane": "BOTTOM"
    },
    {
      "platformId": "EUN1",
      "gameId": 1937715403,
      "champion": 50,
      "queue": 420,
      "season": 11,
      "timestamp": 1522164695033,
      "role": "SOLO",
      "lane": "TOP"
    },
    {
      "platformId": "EUN1",
      "gameId": 1937669627,
      "champion": 266,
      "queue": 420,
      "season": 11,
      "timestamp": 1522159197673,
      "role": "SOLO",
      "lane": "TOP"
    },
    {
      "platformId": "EUN1",
      "gameId": 1937642970,
      "champion": 145,
      "queue": 420,
      "season": 11,
      "timestamp": 1522156511366,
      "role": "SOLO",
      "lane": "MID"
    },
    {
      "platformId": "EUN1",
      "gameId": 1937257457,
      "champion": 412,
      "queue": 420,
      "season": 11,
      "timestamp": 1522071827487,
      "role": "DUO_SUPPORT",
      "lane": "BOTTOM"
    },
    {
      "platformId": "EUN1",
      "gameId": 1937180500,
      "champion": 35,
      "queue": 420,
      "season": 11,
      "timestamp": 1522068839437,
      "role": "NONE",
      "lane": "JUNGLE"
    },
    {
      "platformId": "EUN1",
      "gameId": 1937056096,
      "champion": 266,
      "queue": 420,
      "season": 11,
      "timestamp": 1522066728482,
      "role": "DUO",
      "lane": "MID"
    },
    {
      "platformId": "EUN1",
      "gameId": 1937063864,
      "champion": 107,
      "queue": 420,
      "season": 11,
      "timestamp": 1522065521054,
      "role": "DUO_SUPPORT",
      "lane": "NONE"
    },
    {
      "platformId": "EUN1",
      "gameId": 1937050830,
      "champion": 145,
      "queue": 420,
      "season": 11,
      "timestamp": 1522063654593,
      "role": "SOLO",
      "lane": "MID"
    },
    {
      "platformId": "EUN1",
      "gameId": 1936706059,
      "champion": 145,
      "queue": 420,
      "season": 11,
      "timestamp": 1521989917195,
      "role": "DUO",
      "lane": "NONE"
    },
    {
      "platformId": "EUN1",
      "gameId": 1936679518,
      "champion": 157,
      "queue": 420,
      "season": 11,
      "timestamp": 1521987877560,
      "role": "SOLO",
      "lane": "MID"
    },
    {
      "platformId": "EUN1",
      "gameId": 1936585878,
      "champion": 35,
      "queue": 420,
      "season": 11,
      "timestamp": 1521977914355,
      "role": "NONE",
      "lane": "JUNGLE"
    },
    {
      "platformId": "EUN1",
      "gameId": 1936573982,
      "champion": 35,
      "queue": 420,
      "season": 11,
      "timestamp": 1521977231962,
      "role": "DUO",
      "lane": "NONE"
    },
    {
      "platformId": "EUN1",
      "gameId": 1936577396,
      "champion": 145,
      "queue": 420,
      "season": 11,
      "timestamp": 1521974990147,
      "role": "SOLO",
      "lane": "MID"
    },
    {
      "platformId": "EUN1",
      "gameId": 1934681639,
      "champion": 107,
      "queue": 420,
      "season": 11,
      "timestamp": 1521733201605,
      "role": "NONE",
      "lane": "JUNGLE"
    },
    {
      "platformId": "EUN1",
      "gameId": 1934645991,
      "champion": 35,
      "queue": 420,
      "season": 11,
      "timestamp": 1521731004058,
      "role": "DUO",
      "lane": "TOP"
    },
    {
      "platformId": "EUN1",
      "gameId": 1934644465,
      "champion": 35,
      "queue": 420,
      "season": 11,
      "timestamp": 1521730394944,
      "role": "DUO",
      "lane": "NONE"
    },
    {
      "platformId": "EUN1",
      "gameId": 1934151991,
      "champion": 154,
      "queue": 420,
      "season": 11,
      "timestamp": 1521654047212,
      "role": "NONE",
      "lane": "JUNGLE"
    },
    {
      "platformId": "EUN1",
      "gameId": 1934116362,
      "champion": 412,
      "queue": 420,
      "season": 11,
      "timestamp": 1521652047020,
      "role": "DUO_SUPPORT",
      "lane": "BOTTOM"
    },
    {
      "platformId": "EUN1",
      "gameId": 1934028950,
      "champion": 110,
      "queue": 420,
      "season": 11,
      "timestamp": 1521642902540,
      "role": "DUO_CARRY",
      "lane": "BOTTOM"
    },
    {
      "platformId": "EUN1",
      "gameId": 1932823252,
      "champion": 51,
      "queue": 420,
      "season": 11,
      "timestamp": 1521471968773,
      "role": "DUO_CARRY",
      "lane": "BOTTOM"
    },
    {
      "platformId": "EUN1",
      "gameId": 1932136643,
      "champion": 40,
      "queue": 420,
      "season": 11,
      "timestamp": 1521380215342,
      "role": "DUO_SUPPORT",
      "lane": "BOTTOM"
    },
    {
      "platformId": "EUN1",
      "gameId": 1932138385,
      "champion": 35,
      "queue": 420,
      "season": 11,
      "timestamp": 1521378283363,
      "role": "NONE",
      "lane": "JUNGLE"
    },
    {
      "platformId": "EUN1",
      "gameId": 1932111277,
      "champion": 67,
      "queue": 420,
      "season": 11,
      "timestamp": 1521376361776,
      "role": "DUO_CARRY",
      "lane": "BOTTOM"
    },
    {
      "platformId": "EUN1",
      "gameId": 1932071613,
      "champion": 107,
      "queue": 420,
      "season": 11,
      "timestamp": 1521373430126,
      "role": "NONE",
      "lane": "JUNGLE"
    },
    {
      "platformId": "EUN1",
      "gameId": 1931853103,
      "champion": 35,
      "queue": 420,
      "season": 11,
      "timestamp": 1521324160566,
      "role": "NONE",
      "lane": "JUNGLE"
    },
    {
      "platformId": "EUN1",
      "gameId": 1931816475,
      "champion": 59,
      "queue": 420,
      "season": 11,
      "timestamp": 1521322027787,
      "role": "NONE",
      "lane": "JUNGLE"
    },
    {
      "platformId": "EUN1",
      "gameId": 1931776707,
      "champion": 4,
      "queue": 420,
      "season": 11,
      "timestamp": 1521319789332,
      "role": "SOLO",
      "lane": "MID"
    },
    {
      "platformId": "EUN1",
      "gameId": 1931767665,
      "champion": 157,
      "queue": 420,
      "season": 11,
      "timestamp": 1521317574324,
      "role": "SOLO",
      "lane": "TOP"
    },
    {
      "platformId": "EUN1",
      "gameId": 1931469211,
      "champion": 4,
      "queue": 420,
      "season": 11,
      "timestamp": 1521302494202,
      "role": "SOLO",
      "lane": "MID"
    },
    {
      "platformId": "EUN1",
      "gameId": 1931456257,
      "champion": 4,
      "queue": 420,
      "season": 11,
      "timestamp": 1521301814333,
      "role": "DUO",
      "lane": "NONE"
    },
    {
      "platformId": "EUN1",
      "gameId": 1931428850,
      "champion": 498,
      "queue": 420,
      "season": 11,
      "timestamp": 1521299414072,
      "role": "DUO_CARRY",
      "lane": "BOTTOM"
    },
    {
      "platformId": "EUN1",
      "gameId": 1931409926,
      "champion": 59,
      "queue": 420,
      "season": 11,
      "timestamp": 1521297314098,
      "role": "NONE",
      "lane": "JUNGLE"
    },
    {
      "platformId": "EUN1",
      "gameId": 1931390763,
      "champion": 64,
      "queue": 420,
      "season": 11,
      "timestamp": 1521294934284,
      "role": "NONE",
      "lane": "JUNGLE"
    },
    {
      "platformId": "EUN1",
      "gameId": 1930909817,
      "champion": 19,
      "queue": 420,
      "season": 11,
      "timestamp": 1521233636631,
      "role": "NONE",
      "lane": "JUNGLE"
    },
    {
      "platformId": "EUN1",
      "gameId": 1930859250,
      "champion": 432,
      "queue": 420,
      "season": 11,
      "timestamp": 1521230847848,
      "role": "DUO_SUPPORT",
      "lane": "BOTTOM"
    },
    {
      "platformId": "EUN1",
      "gameId": 1930848271,
      "champion": 157,
      "queue": 420,
      "season": 11,
      "timestamp": 1521228592394,
      "role": "DUO",
      "lane": "MID"
    },
    {
      "platformId": "EUN1",
      "gameId": 1930724969,
      "champion": 122,
      "queue": 420,
      "season": 11,
      "timestamp": 1521220181309,
      "role": "NONE",
      "lane": "JUNGLE"
    },
    {
      "platformId": "EUN1",
      "gameId": 1930695309,
      "champion": 14,
      "queue": 420,
      "season": 11,
      "timestamp": 1521217465193,
      "role": "SOLO",
      "lane": "TOP"
    },
    {
      "platformId": "EUN1",
      "gameId": 1930191224,
      "champion": 33,
      "queue": 420,
      "season": 11,
      "timestamp": 1521141077953,
      "role": "NONE",
      "lane": "JUNGLE"
    },
    {
      "platformId": "EUN1",
      "gameId": 1930131039,
      "champion": 33,
      "queue": 420,
      "season": 11,
      "timestamp": 1521136005017,
      "role": "NONE",
      "lane": "JUNGLE"
    },
    {
      "platformId": "EUN1",
      "gameId": 1930067191,
      "champion": 3,
      "queue": 420,
      "season": 11,
      "timestamp": 1521128908426,
      "role": "SOLO",
      "lane": "TOP"
    },
    {
      "platformId": "EUN1",
      "gameId": 1930032495,
      "champion": 28,
      "queue": 420,
      "season": 11,
      "timestamp": 1521127310054,
      "role": "DUO_SUPPORT",
      "lane": "NONE"
    },
    {
      "platformId": "EUN1",
      "gameId": 1930016137,
      "champion": 113,
      "queue": 420,
      "season": 11,
      "timestamp": 1521125160029,
      "role": "NONE",
      "lane": "JUNGLE"
    },
    {
      "platformId": "EUN1",
      "gameId": 1929490475,
      "champion": 35,
      "queue": 420,
      "season": 11,
      "timestamp": 1521046357748,
      "role": "NONE",
      "lane": "JUNGLE"
    },
    {
      "platformId": "EUN1",
      "gameId": 1929447671,
      "champion": 41,
      "queue": 420,
      "season": 11,
      "timestamp": 1521041980495,
      "role": "SOLO",
      "lane": "TOP"
    }
  ],
  "startIndex": 100,
  "endIndex": 200,
  "totalGames": 1113
}